Name,Type,x,y,z,Time,Speed,Delta x,Delta y,Delta z
 ,Pass,38.04,84.14,36.685,1.0,10.0,0.05,0.05,0.15
AGULHA,Pass,xs = 38.040,ys = 82.660,zs = 36.765,tm = 5.5,spd = 5.0,0.05,0.05,0.15
 ,Pass,lin_pitch = 2.40,col_pitch = 3.10,xx = 0.100,tm_ve = 0.1,sp_ve = 2.5, , , 
 ,Pass,xdelta = 1.05,ydelta = 1.45, ,tm_ho = 0.1,sp_ho = 10.0, , , 
Calibrar_1,Pass,xs + lin_pitch*(0),ys + col_pitch*(0),zs - 0.5,tm,spd,0.05,0.05,0.15
Calibrar_2,Pass,xs + lin_pitch*(0),ys + col_pitch*(0) + ydelta,zs - 0.3,tm,spd,0.05,0.05,0.15
Calibrar_3,Pass,xs + lin_pitch*(0) + xdelta,ys + col_pitch*(0) + ydelta,zs - 0.3,tm,spd,0.05,0.05,0.15
Calibrar_4,Pass,xs + lin_pitch*(0) + xdelta,ys + col_pitch*(0),zs - 0.3,tm,spd,0.05,0.05,0.15
P(1;1) --> L1,Line Start,xs + lin_pitch*(0),ys + col_pitch*(0),zs,tm_ho,sp_ho,0.05,0.05,0.15
          --> L1,Line End,xs + lin_pitch*(0),ys + col_pitch*(0) + ydelta,zs,tm_ho,sp_ho,0.05,0.05,0.15
          --> L2,Line Start,xs + lin_pitch*(0) + xx,ys + col_pitch*(0) + ydelta,zs,tm_ve,sp_ve,0.05,0.05,0.15
          --> L2,Line End,xs + lin_pitch*(0) + xdelta - xx,ys + col_pitch*(0) + ydelta,zs,tm_ve,sp_ve,0.05,0.05,0.15
          --> L3,Line Start,xs + lin_pitch*(0) + xdelta,ys + col_pitch*(0) + ydelta,zs,tm_ho,sp_ho,0.05,0.05,0.15
          --> L3,Line End,xs + lin_pitch*(0) + xdelta,ys + col_pitch*(0),zs,tm_ho,sp_ho,0.05,0.05,0.15
          --> L4,Line Start,xs + lin_pitch*(0) + xdelta - xx,ys + col_pitch*(0),zs,tm_ve,sp_ve,0.05,0.05,0.15
          --> L4,Line End,xs + lin_pitch*(0) + xx,ys + col_pitch*(0),zs,tm_ve,sp_ve,0.05,0.05,0.15
P(2;1) --> L1,Line Start,xs + lin_pitch*(1),ys + col_pitch*(0),zs,tm_ho,sp_ho,0.05,0.05,0.15
          --> L1,Line End,xs + lin_pitch*(1),ys + col_pitch*(0) + ydelta,zs,tm_ho,sp_ho,0.05,0.05,0.15
          --> L2,Line Start,xs + lin_pitch*(1) + xx,ys + col_pitch*(0) + ydelta,zs,tm_ve,sp_ve,0.05,0.05,0.15
          --> L2,Line End,xs + lin_pitch*(1) + xdelta - xx,ys + col_pitch*(0) + ydelta,zs,tm_ve,sp_ve,0.05,0.05,0.15
          --> L3,Line Start,xs + lin_pitch*(1) + xdelta,ys + col_pitch*(0) + ydelta,zs,tm_ho,sp_ho,0.05,0.05,0.15
          --> L3,Line End,xs + lin_pitch*(1) + xdelta,ys + col_pitch*(0),zs,tm_ho,sp_ho,0.05,0.05,0.15
          --> L4,Line Start,xs + lin_pitch*(1) + xdelta - xx,ys + col_pitch*(0),zs,tm_ve,sp_ve,0.05,0.05,0.15
          --> L4,Line End,xs + lin_pitch*(1) + xx,ys + col_pitch*(0),zs,tm_ve,sp_ve,0.05,0.05,0.15
P(3;1) --> L1,Line Start,xs + lin_pitch*(2),ys + col_pitch*(0),zs,tm_ho,sp_ho,0.05,0.05,0.15
          --> L1,Line End,xs + lin_pitch*(2),ys + col_pitch*(0) + ydelta,zs,tm_ho,sp_ho,0.05,0.05,0.15
          --> L2,Line Start,xs + lin_pitch*(2) + xx,ys + col_pitch*(0) + ydelta,zs,tm_ve,sp_ve,0.05,0.05,0.15
          --> L2,Line End,xs + lin_pitch*(2) + xdelta - xx,ys + col_pitch*(0) + ydelta,zs,tm_ve,sp_ve,0.05,0.05,0.15
          --> L3,Line Start,xs + lin_pitch*(2) + xdelta,ys + col_pitch*(0) + ydelta,zs,tm_ho,sp_ho,0.05,0.05,0.15
          --> L3,Line End,xs + lin_pitch*(2) + xdelta,ys + col_pitch*(0),zs,tm_ho,sp_ho,0.05,0.05,0.15
          --> L4,Line Start,xs + lin_pitch*(2) + xdelta - xx,ys + col_pitch*(0),zs,tm_ve,sp_ve,0.05,0.05,0.15
          --> L4,Line End,xs + lin_pitch*(2) + xx,ys + col_pitch*(0),zs,tm_ve,sp_ve,0.05,0.05,0.15
P(4;1) --> L1,Line Start,xs + lin_pitch*(3),ys + col_pitch*(0),zs,tm_ho,sp_ho,0.05,0.05,0.15
          --> L1,Line End,xs + lin_pitch*(3),ys + col_pitch*(0) + ydelta,zs,tm_ho,sp_ho,0.05,0.05,0.15
          --> L2,Line Start,xs + lin_pitch*(3) + xx,ys + col_pitch*(0) + ydelta,zs,tm_ve,sp_ve,0.05,0.05,0.15
          --> L2,Line End,xs + lin_pitch*(3) + xdelta - xx,ys + col_pitch*(0) + ydelta,zs,tm_ve,sp_ve,0.05,0.05,0.15
          --> L3,Line Start,xs + lin_pitch*(3) + xdelta,ys + col_pitch*(0) + ydelta,zs,tm_ho,sp_ho,0.05,0.05,0.15
          --> L3,Line End,xs + lin_pitch*(3) + xdelta,ys + col_pitch*(0),zs,tm_ho,sp_ho,0.05,0.05,0.15
          --> L4,Line Start,xs + lin_pitch*(3) + xdelta - xx,ys + col_pitch*(0),zs,tm_ve,sp_ve,0.05,0.05,0.15
          --> L4,Line End,xs + lin_pitch*(3) + xx,ys + col_pitch*(0),zs,tm_ve,sp_ve,0.05,0.05,0.15
P(5;1) --> L1,Line Start,xs + lin_pitch*(4),ys + col_pitch*(0),zs,tm_ho,sp_ho,0.05,0.05,0.15
          --> L1,Line End,xs + lin_pitch*(4),ys + col_pitch*(0) + ydelta,zs,tm_ho,sp_ho,0.05,0.05,0.15
          --> L2,Line Start,xs + lin_pitch*(4) + xx,ys + col_pitch*(0) + ydelta,zs,tm_ve,sp_ve,0.05,0.05,0.15
          --> L2,Line End,xs + lin_pitch*(4) + xdelta - xx,ys + col_pitch*(0) + ydelta,zs,tm_ve,sp_ve,0.05,0.05,0.15
          --> L3,Line Start,xs + lin_pitch*(4) + xdelta,ys + col_pitch*(0) + ydelta,zs,tm_ho,sp_ho,0.05,0.05,0.15
          --> L3,Line End,xs + lin_pitch*(4) + xdelta,ys + col_pitch*(0),zs,tm_ho,sp_ho,0.05,0.05,0.15
          --> L4,Line Start,xs + lin_pitch*(4) + xdelta - xx,ys + col_pitch*(0),zs,tm_ve,sp_ve,0.05,0.05,0.15
          --> L4,Line End,xs + lin_pitch*(4) + xx,ys + col_pitch*(0),zs,tm_ve,sp_ve,0.05,0.05,0.15
P(1;2) --> L1,Line Start,xs + lin_pitch*(0),ys + col_pitch*(1),zs,tm_ho,sp_ho,0.05,0.05,0.15
          --> L1,Line End,xs + lin_pitch*(0),ys + col_pitch*(1) + ydelta,zs,tm_ho,sp_ho,0.05,0.05,0.15
          --> L2,Line Start,xs + lin_pitch*(0) + xx,ys + col_pitch*(1) + ydelta,zs,tm_ve,sp_ve,0.05,0.05,0.15
          --> L2,Line End,xs + lin_pitch*(0) + xdelta - xx,ys + col_pitch*(1) + ydelta,zs,tm_ve,sp_ve,0.05,0.05,0.15
          --> L3,Line Start,xs + lin_pitch*(0) + xdelta,ys + col_pitch*(1) + ydelta,zs,tm_ho,sp_ho,0.05,0.05,0.15
          --> L3,Line End,xs + lin_pitch*(0) + xdelta,ys + col_pitch*(1),zs,tm_ho,sp_ho,0.05,0.05,0.15
          --> L4,Line Start,xs + lin_pitch*(0) + xdelta - xx,ys + col_pitch*(1),zs,tm_ve,sp_ve,0.05,0.05,0.15
          --> L4,Line End,xs + lin_pitch*(0) + xx,ys + col_pitch*(1),zs,tm_ve,sp_ve,0.05,0.05,0.15
P(2;2) --> L1,Line Start,xs + lin_pitch*(1),ys + col_pitch*(1),zs,tm_ho,sp_ho,0.05,0.05,0.15
          --> L1,Line End,xs + lin_pitch*(1),ys + col_pitch*(1) + ydelta,zs,tm_ho,sp_ho,0.05,0.05,0.15
          --> L2,Line Start,xs + lin_pitch*(1) + xx,ys + col_pitch*(1) + ydelta,zs,tm_ve,sp_ve,0.05,0.05,0.15
          --> L2,Line End,xs + lin_pitch*(1) + xdelta - xx,ys + col_pitch*(1) + ydelta,zs,tm_ve,sp_ve,0.05,0.05,0.15
          --> L3,Line Start,xs + lin_pitch*(1) + xdelta,ys + col_pitch*(1) + ydelta,zs,tm_ho,sp_ho,0.05,0.05,0.15
          --> L3,Line End,xs + lin_pitch*(1) + xdelta,ys + col_pitch*(1),zs,tm_ho,sp_ho,0.05,0.05,0.15
          --> L4,Line Start,xs + lin_pitch*(1) + xdelta - xx,ys + col_pitch*(1),zs,tm_ve,sp_ve,0.05,0.05,0.15
          --> L4,Line End,xs + lin_pitch*(1) + xx,ys + col_pitch*(1),zs,tm_ve,sp_ve,0.05,0.05,0.15
P(3;2) --> L1,Line Start,xs + lin_pitch*(2),ys + col_pitch*(1),zs,tm_ho,sp_ho,0.05,0.05,0.15
          --> L1,Line End,xs + lin_pitch*(2),ys + col_pitch*(1) + ydelta,zs,tm_ho,sp_ho,0.05,0.05,0.15
          --> L2,Line Start,xs + lin_pitch*(2) + xx,ys + col_pitch*(1) + ydelta,zs,tm_ve,sp_ve,0.05,0.05,0.15
          --> L2,Line End,xs + lin_pitch*(2) + xdelta - xx,ys + col_pitch*(1) + ydelta,zs,tm_ve,sp_ve,0.05,0.05,0.15
          --> L3,Line Start,xs + lin_pitch*(2) + xdelta,ys + col_pitch*(1) + ydelta,zs,tm_ho,sp_ho,0.05,0.05,0.15
          --> L3,Line End,xs + lin_pitch*(2) + xdelta,ys + col_pitch*(1),zs,tm_ho,sp_ho,0.05,0.05,0.15
          --> L4,Line Start,xs + lin_pitch*(2) + xdelta - xx,ys + col_pitch*(1),zs,tm_ve,sp_ve,0.05,0.05,0.15
          --> L4,Line End,xs + lin_pitch*(2) + xx,ys + col_pitch*(1),zs,tm_ve,sp_ve,0.05,0.05,0.15
P(4;2) --> L1,Line Start,xs + lin_pitch*(3),ys + col_pitch*(1),zs,tm_ho,sp_ho,0.05,0.05,0.15
          --> L1,Line End,xs + lin_pitch*(3),ys + col_pitch*(1) + ydelta,zs,tm_ho,sp_ho,0.05,0.05,0.15
          --> L2,Line Start,xs + lin_pitch*(3) + xx,ys + col_pitch*(1) + ydelta,zs,tm_ve,sp_ve,0.05,0.05,0.15
          --> L2,Line End,xs + lin_pitch*(3) + xdelta - xx,ys + col_pitch*(1) + ydelta,zs,tm_ve,sp_ve,0.05,0.05,0.15
          --> L3,Line Start,xs + lin_pitch*(3) + xdelta,ys + col_pitch*(1) + ydelta,zs,tm_ho,sp_ho,0.05,0.05,0.15
          --> L3,Line End,xs + lin_pitch*(3) + xdelta,ys + col_pitch*(1),zs,tm_ho,sp_ho,0.05,0.05,0.15
          --> L4,Line Start,xs + lin_pitch*(3) + xdelta - xx,ys + col_pitch*(1),zs,tm_ve,sp_ve,0.05,0.05,0.15
          --> L4,Line End,xs + lin_pitch*(3) + xx,ys + col_pitch*(1),zs,tm_ve,sp_ve,0.05,0.05,0.15
P(5;2) --> L1,Line Start,xs + lin_pitch*(4),ys + col_pitch*(1),zs,tm_ho,sp_ho,0.05,0.05,0.15
          --> L1,Line End,xs + lin_pitch*(4),ys + col_pitch*(1) + ydelta,zs,tm_ho,sp_ho,0.05,0.05,0.15
          --> L2,Line Start,xs + lin_pitch*(4) + xx,ys + col_pitch*(1) + ydelta,zs,tm_ve,sp_ve,0.05,0.05,0.15
          --> L2,Line End,xs + lin_pitch*(4) + xdelta - xx,ys + col_pitch*(1) + ydelta,zs,tm_ve,sp_ve,0.05,0.05,0.15
          --> L3,Line Start,xs + lin_pitch*(4) + xdelta,ys + col_pitch*(1) + ydelta,zs,tm_ho,sp_ho,0.05,0.05,0.15
          --> L3,Line End,xs + lin_pitch*(4) + xdelta,ys + col_pitch*(1),zs,tm_ho,sp_ho,0.05,0.05,0.15
          --> L4,Line Start,xs + lin_pitch*(4) + xdelta - xx,ys + col_pitch*(1),zs,tm_ve,sp_ve,0.05,0.05,0.15
          --> L4,Line End,xs + lin_pitch*(4) + xx,ys + col_pitch*(1),zs,tm_ve,sp_ve,0.05,0.05,0.15
P(1;3) --> L1,Line Start,xs + lin_pitch*(0),ys + col_pitch*(2),zs,tm_ho,sp_ho,0.05,0.05,0.15
          --> L1,Line End,xs + lin_pitch*(0),ys + col_pitch*(2) + ydelta,zs,tm_ho,sp_ho,0.05,0.05,0.15
          --> L2,Line Start,xs + lin_pitch*(0) + xx,ys + col_pitch*(2) + ydelta,zs,tm_ve,sp_ve,0.05,0.05,0.15
          --> L2,Line End,xs + lin_pitch*(0) + xdelta - xx,ys + col_pitch*(2) + ydelta,zs,tm_ve,sp_ve,0.05,0.05,0.15
          --> L3,Line Start,xs + lin_pitch*(0) + xdelta,ys + col_pitch*(2) + ydelta,zs,tm_ho,sp_ho,0.05,0.05,0.15
          --> L3,Line End,xs + lin_pitch*(0) + xdelta,ys + col_pitch*(2),zs,tm_ho,sp_ho,0.05,0.05,0.15
          --> L4,Line Start,xs + lin_pitch*(0) + xdelta - xx,ys + col_pitch*(2),zs,tm_ve,sp_ve,0.05,0.05,0.15
          --> L4,Line End,xs + lin_pitch*(0) + xx,ys + col_pitch*(2),zs,tm_ve,sp_ve,0.05,0.05,0.15
P(2;3) --> L1,Line Start,xs + lin_pitch*(1),ys + col_pitch*(2),zs,tm_ho,sp_ho,0.05,0.05,0.15
          --> L1,Line End,xs + lin_pitch*(1),ys + col_pitch*(2) + ydelta,zs,tm_ho,sp_ho,0.05,0.05,0.15
          --> L2,Line Start,xs + lin_pitch*(1) + xx,ys + col_pitch*(2) + ydelta,zs,tm_ve,sp_ve,0.05,0.05,0.15
          --> L2,Line End,xs + lin_pitch*(1) + xdelta - xx,ys + col_pitch*(2) + ydelta,zs,tm_ve,sp_ve,0.05,0.05,0.15
          --> L3,Line Start,xs + lin_pitch*(1) + xdelta,ys + col_pitch*(2) + ydelta,zs,tm_ho,sp_ho,0.05,0.05,0.15
          --> L3,Line End,xs + lin_pitch*(1) + xdelta,ys + col_pitch*(2),zs,tm_ho,sp_ho,0.05,0.05,0.15
          --> L4,Line Start,xs + lin_pitch*(1) + xdelta - xx,ys + col_pitch*(2),zs,tm_ve,sp_ve,0.05,0.05,0.15
          --> L4,Line End,xs + lin_pitch*(1) + xx,ys + col_pitch*(2),zs,tm_ve,sp_ve,0.05,0.05,0.15
P(3;3) --> L1,Line Start,xs + lin_pitch*(2),ys + col_pitch*(2),zs,tm_ho,sp_ho,0.05,0.05,0.15
          --> L1,Line End,xs + lin_pitch*(2),ys + col_pitch*(2) + ydelta,zs,tm_ho,sp_ho,0.05,0.05,0.15
          --> L2,Line Start,xs + lin_pitch*(2) + xx,ys + col_pitch*(2) + ydelta,zs,tm_ve,sp_ve,0.05,0.05,0.15
          --> L2,Line End,xs + lin_pitch*(2) + xdelta - xx,ys + col_pitch*(2) + ydelta,zs,tm_ve,sp_ve,0.05,0.05,0.15
          --> L3,Line Start,xs + lin_pitch*(2) + xdelta,ys + col_pitch*(2) + ydelta,zs,tm_ho,sp_ho,0.05,0.05,0.15
          --> L3,Line End,xs + lin_pitch*(2) + xdelta,ys + col_pitch*(2),zs,tm_ho,sp_ho,0.05,0.05,0.15
          --> L4,Line Start,xs + lin_pitch*(2) + xdelta - xx,ys + col_pitch*(2),zs,tm_ve,sp_ve,0.05,0.05,0.15
          --> L4,Line End,xs + lin_pitch*(2) + xx,ys + col_pitch*(2),zs,tm_ve,sp_ve,0.05,0.05,0.15
P(4;3) --> L1,Line Start,xs + lin_pitch*(3),ys + col_pitch*(2),zs,tm_ho,sp_ho,0.05,0.05,0.15
          --> L1,Line End,xs + lin_pitch*(3),ys + col_pitch*(2) + ydelta,zs,tm_ho,sp_ho,0.05,0.05,0.15
          --> L2,Line Start,xs + lin_pitch*(3) + xx,ys + col_pitch*(2) + ydelta,zs,tm_ve,sp_ve,0.05,0.05,0.15
          --> L2,Line End,xs + lin_pitch*(3) + xdelta - xx,ys + col_pitch*(2) + ydelta,zs,tm_ve,sp_ve,0.05,0.05,0.15
          --> L3,Line Start,xs + lin_pitch*(3) + xdelta,ys + col_pitch*(2) + ydelta,zs,tm_ho,sp_ho,0.05,0.05,0.15
          --> L3,Line End,xs + lin_pitch*(3) + xdelta,ys + col_pitch*(2),zs,tm_ho,sp_ho,0.05,0.05,0.15
          --> L4,Line Start,xs + lin_pitch*(3) + xdelta - xx,ys + col_pitch*(2),zs,tm_ve,sp_ve,0.05,0.05,0.15
          --> L4,Line End,xs + lin_pitch*(3) + xx,ys + col_pitch*(2),zs,tm_ve,sp_ve,0.05,0.05,0.15
P(5;3) --> L1,Line Start,xs + lin_pitch*(4),ys + col_pitch*(2),zs,tm_ho,sp_ho,0.05,0.05,0.15
          --> L1,Line End,xs + lin_pitch*(4),ys + col_pitch*(2) + ydelta,zs,tm_ho,sp_ho,0.05,0.05,0.15
          --> L2,Line Start,xs + lin_pitch*(4) + xx,ys + col_pitch*(2) + ydelta,zs,tm_ve,sp_ve,0.05,0.05,0.15
          --> L2,Line End,xs + lin_pitch*(4) + xdelta - xx,ys + col_pitch*(2) + ydelta,zs,tm_ve,sp_ve,0.05,0.05,0.15
          --> L3,Line Start,xs + lin_pitch*(4) + xdelta,ys + col_pitch*(2) + ydelta,zs,tm_ho,sp_ho,0.05,0.05,0.15
          --> L3,Line End,xs + lin_pitch*(4) + xdelta,ys + col_pitch*(2),zs,tm_ho,sp_ho,0.05,0.05,0.15
          --> L4,Line Start,xs + lin_pitch*(4) + xdelta - xx,ys + col_pitch*(2),zs,tm_ve,sp_ve,0.05,0.05,0.15
          --> L4,Line End,xs + lin_pitch*(4) + xx,ys + col_pitch*(2),zs,tm_ve,sp_ve,0.05,0.05,0.15
P(1;4) --> L1,Line Start,xs + lin_pitch*(0),ys + col_pitch*(3),zs,tm_ho,sp_ho,0.05,0.05,0.15
          --> L1,Line End,xs + lin_pitch*(0),ys + col_pitch*(3) + ydelta,zs,tm_ho,sp_ho,0.05,0.05,0.15
          --> L2,Line Start,xs + lin_pitch*(0) + xx,ys + col_pitch*(3) + ydelta,zs,tm_ve,sp_ve,0.05,0.05,0.15
          --> L2,Line End,xs + lin_pitch*(0) + xdelta - xx,ys + col_pitch*(3) + ydelta,zs,tm_ve,sp_ve,0.05,0.05,0.15
          --> L3,Line Start,xs + lin_pitch*(0) + xdelta,ys + col_pitch*(3) + ydelta,zs,tm_ho,sp_ho,0.05,0.05,0.15
          --> L3,Line End,xs + lin_pitch*(0) + xdelta,ys + col_pitch*(3),zs,tm_ho,sp_ho,0.05,0.05,0.15
          --> L4,Line Start,xs + lin_pitch*(0) + xdelta - xx,ys + col_pitch*(3),zs,tm_ve,sp_ve,0.05,0.05,0.15
          --> L4,Line End,xs + lin_pitch*(0) + xx,ys + col_pitch*(3),zs,tm_ve,sp_ve,0.05,0.05,0.15
P(2;4) --> L1,Line Start,xs + lin_pitch*(1),ys + col_pitch*(3),zs,tm_ho,sp_ho,0.05,0.05,0.15
          --> L1,Line End,xs + lin_pitch*(1),ys + col_pitch*(3) + ydelta,zs,tm_ho,sp_ho,0.05,0.05,0.15
          --> L2,Line Start,xs + lin_pitch*(1) + xx,ys + col_pitch*(3) + ydelta,zs,tm_ve,sp_ve,0.05,0.05,0.15
          --> L2,Line End,xs + lin_pitch*(1) + xdelta - xx,ys + col_pitch*(3) + ydelta,zs,tm_ve,sp_ve,0.05,0.05,0.15
          --> L3,Line Start,xs + lin_pitch*(1) + xdelta,ys + col_pitch*(3) + ydelta,zs,tm_ho,sp_ho,0.05,0.05,0.15
          --> L3,Line End,xs + lin_pitch*(1) + xdelta,ys + col_pitch*(3),zs,tm_ho,sp_ho,0.05,0.05,0.15
          --> L4,Line Start,xs + lin_pitch*(1) + xdelta - xx,ys + col_pitch*(3),zs,tm_ve,sp_ve,0.05,0.05,0.15
          --> L4,Line End,xs + lin_pitch*(1) + xx,ys + col_pitch*(3),zs,tm_ve,sp_ve,0.05,0.05,0.15
P(3;4) --> L1,Line Start,xs + lin_pitch*(2),ys + col_pitch*(3),zs,tm_ho,sp_ho,0.05,0.05,0.15
          --> L1,Line End,xs + lin_pitch*(2),ys + col_pitch*(3) + ydelta,zs,tm_ho,sp_ho,0.05,0.05,0.15
          --> L2,Line Start,xs + lin_pitch*(2) + xx,ys + col_pitch*(3) + ydelta,zs,tm_ve,sp_ve,0.05,0.05,0.15
          --> L2,Line End,xs + lin_pitch*(2) + xdelta - xx,ys + col_pitch*(3) + ydelta,zs,tm_ve,sp_ve,0.05,0.05,0.15
          --> L3,Line Start,xs + lin_pitch*(2) + xdelta,ys + col_pitch*(3) + ydelta,zs,tm_ho,sp_ho,0.05,0.05,0.15
          --> L3,Line End,xs + lin_pitch*(2) + xdelta,ys + col_pitch*(3),zs,tm_ho,sp_ho,0.05,0.05,0.15
          --> L4,Line Start,xs + lin_pitch*(2) + xdelta - xx,ys + col_pitch*(3),zs,tm_ve,sp_ve,0.05,0.05,0.15
          --> L4,Line End,xs + lin_pitch*(2) + xx,ys + col_pitch*(3),zs,tm_ve,sp_ve,0.05,0.05,0.15
P(4;4) --> L1,Line Start,xs + lin_pitch*(3),ys + col_pitch*(3),zs,tm_ho,sp_ho,0.05,0.05,0.15
          --> L1,Line End,xs + lin_pitch*(3),ys + col_pitch*(3) + ydelta,zs,tm_ho,sp_ho,0.05,0.05,0.15
          --> L2,Line Start,xs + lin_pitch*(3) + xx,ys + col_pitch*(3) + ydelta,zs,tm_ve,sp_ve,0.05,0.05,0.15
          --> L2,Line End,xs + lin_pitch*(3) + xdelta - xx,ys + col_pitch*(3) + ydelta,zs,tm_ve,sp_ve,0.05,0.05,0.15
          --> L3,Line Start,xs + lin_pitch*(3) + xdelta,ys + col_pitch*(3) + ydelta,zs,tm_ho,sp_ho,0.05,0.05,0.15
          --> L3,Line End,xs + lin_pitch*(3) + xdelta,ys + col_pitch*(3),zs,tm_ho,sp_ho,0.05,0.05,0.15
          --> L4,Line Start,xs + lin_pitch*(3) + xdelta - xx,ys + col_pitch*(3),zs,tm_ve,sp_ve,0.05,0.05,0.15
          --> L4,Line End,xs + lin_pitch*(3) + xx,ys + col_pitch*(3),zs,tm_ve,sp_ve,0.05,0.05,0.15
P(5;4) --> L1,Line Start,xs + lin_pitch*(4),ys + col_pitch*(3),zs,tm_ho,sp_ho,0.05,0.05,0.15
          --> L1,Line End,xs + lin_pitch*(4),ys + col_pitch*(3) + ydelta,zs,tm_ho,sp_ho,0.05,0.05,0.15
          --> L2,Line Start,xs + lin_pitch*(4) + xx,ys + col_pitch*(3) + ydelta,zs,tm_ve,sp_ve,0.05,0.05,0.15
          --> L2,Line End,xs + lin_pitch*(4) + xdelta - xx,ys + col_pitch*(3) + ydelta,zs,tm_ve,sp_ve,0.05,0.05,0.15
          --> L3,Line Start,xs + lin_pitch*(4) + xdelta,ys + col_pitch*(3) + ydelta,zs,tm_ho,sp_ho,0.05,0.05,0.15
          --> L3,Line End,xs + lin_pitch*(4) + xdelta,ys + col_pitch*(3),zs,tm_ho,sp_ho,0.05,0.05,0.15
          --> L4,Line Start,xs + lin_pitch*(4) + xdelta - xx,ys + col_pitch*(3),zs,tm_ve,sp_ve,0.05,0.05,0.15
          --> L4,Line End,xs + lin_pitch*(4) + xx,ys + col_pitch*(3),zs,tm_ve,sp_ve,0.05,0.05,0.15
P(1;5) --> L1,Line Start,xs + lin_pitch*(0),ys + col_pitch*(4),zs,tm_ho,sp_ho,0.05,0.05,0.15
          --> L1,Line End,xs + lin_pitch*(0),ys + col_pitch*(4) + ydelta,zs,tm_ho,sp_ho,0.05,0.05,0.15
          --> L2,Line Start,xs + lin_pitch*(0) + xx,ys + col_pitch*(4) + ydelta,zs,tm_ve,sp_ve,0.05,0.05,0.15
          --> L2,Line End,xs + lin_pitch*(0) + xdelta - xx,ys + col_pitch*(4) + ydelta,zs,tm_ve,sp_ve,0.05,0.05,0.15
          --> L3,Line Start,xs + lin_pitch*(0) + xdelta,ys + col_pitch*(4) + ydelta,zs,tm_ho,sp_ho,0.05,0.05,0.15
          --> L3,Line End,xs + lin_pitch*(0) + xdelta,ys + col_pitch*(4),zs,tm_ho,sp_ho,0.05,0.05,0.15
          --> L4,Line Start,xs + lin_pitch*(0) + xdelta - xx,ys + col_pitch*(4),zs,tm_ve,sp_ve,0.05,0.05,0.15
          --> L4,Line End,xs + lin_pitch*(0) + xx,ys + col_pitch*(4),zs,tm_ve,sp_ve,0.05,0.05,0.15
P(2;5) --> L1,Line Start,xs + lin_pitch*(1),ys + col_pitch*(4),zs,tm_ho,sp_ho,0.05,0.05,0.15
          --> L1,Line End,xs + lin_pitch*(1),ys + col_pitch*(4) + ydelta,zs,tm_ho,sp_ho,0.05,0.05,0.15
          --> L2,Line Start,xs + lin_pitch*(1) + xx,ys + col_pitch*(4) + ydelta,zs,tm_ve,sp_ve,0.05,0.05,0.15
          --> L2,Line End,xs + lin_pitch*(1) + xdelta - xx,ys + col_pitch*(4) + ydelta,zs,tm_ve,sp_ve,0.05,0.05,0.15
          --> L3,Line Start,xs + lin_pitch*(1) + xdelta,ys + col_pitch*(4) + ydelta,zs,tm_ho,sp_ho,0.05,0.05,0.15
          --> L3,Line End,xs + lin_pitch*(1) + xdelta,ys + col_pitch*(4),zs,tm_ho,sp_ho,0.05,0.05,0.15
          --> L4,Line Start,xs + lin_pitch*(1) + xdelta - xx,ys + col_pitch*(4),zs,tm_ve,sp_ve,0.05,0.05,0.15
          --> L4,Line End,xs + lin_pitch*(1) + xx,ys + col_pitch*(4),zs,tm_ve,sp_ve,0.05,0.05,0.15
P(3;5) --> L1,Line Start,xs + lin_pitch*(2),ys + col_pitch*(4),zs,tm_ho,sp_ho,0.05,0.05,0.15
          --> L1,Line End,xs + lin_pitch*(2),ys + col_pitch*(4) + ydelta,zs,tm_ho,sp_ho,0.05,0.05,0.15
          --> L2,Line Start,xs + lin_pitch*(2) + xx,ys + col_pitch*(4) + ydelta,zs,tm_ve,sp_ve,0.05,0.05,0.15
          --> L2,Line End,xs + lin_pitch*(2) + xdelta - xx,ys + col_pitch*(4) + ydelta,zs,tm_ve,sp_ve,0.05,0.05,0.15
          --> L3,Line Start,xs + lin_pitch*(2) + xdelta,ys + col_pitch*(4) + ydelta,zs,tm_ho,sp_ho,0.05,0.05,0.15
          --> L3,Line End,xs + lin_pitch*(2) + xdelta,ys + col_pitch*(4),zs,tm_ho,sp_ho,0.05,0.05,0.15
          --> L4,Line Start,xs + lin_pitch*(2) + xdelta - xx,ys + col_pitch*(4),zs,tm_ve,sp_ve,0.05,0.05,0.15
          --> L4,Line End,xs + lin_pitch*(2) + xx,ys + col_pitch*(4),zs,tm_ve,sp_ve,0.05,0.05,0.15
P(4;5) --> L1,Line Start,xs + lin_pitch*(3),ys + col_pitch*(4),zs,tm_ho,sp_ho,0.05,0.05,0.15
          --> L1,Line End,xs + lin_pitch*(3),ys + col_pitch*(4) + ydelta,zs,tm_ho,sp_ho,0.05,0.05,0.15
          --> L2,Line Start,xs + lin_pitch*(3) + xx,ys + col_pitch*(4) + ydelta,zs,tm_ve,sp_ve,0.05,0.05,0.15
          --> L2,Line End,xs + lin_pitch*(3) + xdelta - xx,ys + col_pitch*(4) + ydelta,zs,tm_ve,sp_ve,0.05,0.05,0.15
          --> L3,Line Start,xs + lin_pitch*(3) + xdelta,ys + col_pitch*(4) + ydelta,zs,tm_ho,sp_ho,0.05,0.05,0.15
          --> L3,Line End,xs + lin_pitch*(3) + xdelta,ys + col_pitch*(4),zs,tm_ho,sp_ho,0.05,0.05,0.15
          --> L4,Line Start,xs + lin_pitch*(3) + xdelta - xx,ys + col_pitch*(4),zs,tm_ve,sp_ve,0.05,0.05,0.15
          --> L4,Line End,xs + lin_pitch*(3) + xx,ys + col_pitch*(4),zs,tm_ve,sp_ve,0.05,0.05,0.15
P(5;5) --> L1,Line Start,xs + lin_pitch*(4),ys + col_pitch*(4),zs,tm_ho,sp_ho,0.05,0.05,0.15
          --> L1,Line End,xs + lin_pitch*(4),ys + col_pitch*(4) + ydelta,zs,tm_ho,sp_ho,0.05,0.05,0.15
          --> L2,Line Start,xs + lin_pitch*(4) + xx,ys + col_pitch*(4) + ydelta,zs,tm_ve,sp_ve,0.05,0.05,0.15
          --> L2,Line End,xs + lin_pitch*(4) + xdelta - xx,ys + col_pitch*(4) + ydelta,zs,tm_ve,sp_ve,0.05,0.05,0.15
          --> L3,Line Start,xs + lin_pitch*(4) + xdelta,ys + col_pitch*(4) + ydelta,zs,tm_ho,sp_ho,0.05,0.05,0.15
          --> L3,Line End,xs + lin_pitch*(4) + xdelta,ys + col_pitch*(4),zs,tm_ho,sp_ho,0.05,0.05,0.15
          --> L4,Line Start,xs + lin_pitch*(4) + xdelta - xx,ys + col_pitch*(4),zs,tm_ve,sp_ve,0.05,0.05,0.15
          --> L4,Line End,xs + lin_pitch*(4) + xx,ys + col_pitch*(4),zs,tm_ve,sp_ve,0.05,0.05,0.15
P(1;6) --> L1,Line Start,xs + lin_pitch*(0),ys + col_pitch*(5),zs,tm_ho,sp_ho,0.05,0.05,0.15
          --> L1,Line End,xs + lin_pitch*(0),ys + col_pitch*(5) + ydelta,zs,tm_ho,sp_ho,0.05,0.05,0.15
          --> L2,Line Start,xs + lin_pitch*(0) + xx,ys + col_pitch*(5) + ydelta,zs,tm_ve,sp_ve,0.05,0.05,0.15
          --> L2,Line End,xs + lin_pitch*(0) + xdelta - xx,ys + col_pitch*(5) + ydelta,zs,tm_ve,sp_ve,0.05,0.05,0.15
          --> L3,Line Start,xs + lin_pitch*(0) + xdelta,ys + col_pitch*(5) + ydelta,zs,tm_ho,sp_ho,0.05,0.05,0.15
          --> L3,Line End,xs + lin_pitch*(0) + xdelta,ys + col_pitch*(5),zs,tm_ho,sp_ho,0.05,0.05,0.15
          --> L4,Line Start,xs + lin_pitch*(0) + xdelta - xx,ys + col_pitch*(5),zs,tm_ve,sp_ve,0.05,0.05,0.15
          --> L4,Line End,xs + lin_pitch*(0) + xx,ys + col_pitch*(5),zs,tm_ve,sp_ve,0.05,0.05,0.15
P(2;6) --> L1,Line Start,xs + lin_pitch*(1),ys + col_pitch*(5),zs,tm_ho,sp_ho,0.05,0.05,0.15
          --> L1,Line End,xs + lin_pitch*(1),ys + col_pitch*(5) + ydelta,zs,tm_ho,sp_ho,0.05,0.05,0.15
          --> L2,Line Start,xs + lin_pitch*(1) + xx,ys + col_pitch*(5) + ydelta,zs,tm_ve,sp_ve,0.05,0.05,0.15
          --> L2,Line End,xs + lin_pitch*(1) + xdelta - xx,ys + col_pitch*(5) + ydelta,zs,tm_ve,sp_ve,0.05,0.05,0.15
          --> L3,Line Start,xs + lin_pitch*(1) + xdelta,ys + col_pitch*(5) + ydelta,zs,tm_ho,sp_ho,0.05,0.05,0.15
          --> L3,Line End,xs + lin_pitch*(1) + xdelta,ys + col_pitch*(5),zs,tm_ho,sp_ho,0.05,0.05,0.15
          --> L4,Line Start,xs + lin_pitch*(1) + xdelta - xx,ys + col_pitch*(5),zs,tm_ve,sp_ve,0.05,0.05,0.15
          --> L4,Line End,xs + lin_pitch*(1) + xx,ys + col_pitch*(5),zs,tm_ve,sp_ve,0.05,0.05,0.15
P(3;6) --> L1,Line Start,xs + lin_pitch*(2),ys + col_pitch*(5),zs,tm_ho,sp_ho,0.05,0.05,0.15
          --> L1,Line End,xs + lin_pitch*(2),ys + col_pitch*(5) + ydelta,zs,tm_ho,sp_ho,0.05,0.05,0.15
          --> L2,Line Start,xs + lin_pitch*(2) + xx,ys + col_pitch*(5) + ydelta,zs,tm_ve,sp_ve,0.05,0.05,0.15
          --> L2,Line End,xs + lin_pitch*(2) + xdelta - xx,ys + col_pitch*(5) + ydelta,zs,tm_ve,sp_ve,0.05,0.05,0.15
          --> L3,Line Start,xs + lin_pitch*(2) + xdelta,ys + col_pitch*(5) + ydelta,zs,tm_ho,sp_ho,0.05,0.05,0.15
          --> L3,Line End,xs + lin_pitch*(2) + xdelta,ys + col_pitch*(5),zs,tm_ho,sp_ho,0.05,0.05,0.15
          --> L4,Line Start,xs + lin_pitch*(2) + xdelta - xx,ys + col_pitch*(5),zs,tm_ve,sp_ve,0.05,0.05,0.15
          --> L4,Line End,xs + lin_pitch*(2) + xx,ys + col_pitch*(5),zs,tm_ve,sp_ve,0.05,0.05,0.15
P(4;6) --> L1,Line Start,xs + lin_pitch*(3),ys + col_pitch*(5),zs,tm_ho,sp_ho,0.05,0.05,0.15
          --> L1,Line End,xs + lin_pitch*(3),ys + col_pitch*(5) + ydelta,zs,tm_ho,sp_ho,0.05,0.05,0.15
          --> L2,Line Start,xs + lin_pitch*(3) + xx,ys + col_pitch*(5) + ydelta,zs,tm_ve,sp_ve,0.05,0.05,0.15
          --> L2,Line End,xs + lin_pitch*(3) + xdelta - xx,ys + col_pitch*(5) + ydelta,zs,tm_ve,sp_ve,0.05,0.05,0.15
          --> L3,Line Start,xs + lin_pitch*(3) + xdelta,ys + col_pitch*(5) + ydelta,zs,tm_ho,sp_ho,0.05,0.05,0.15
          --> L3,Line End,xs + lin_pitch*(3) + xdelta,ys + col_pitch*(5),zs,tm_ho,sp_ho,0.05,0.05,0.15
          --> L4,Line Start,xs + lin_pitch*(3) + xdelta - xx,ys + col_pitch*(5),zs,tm_ve,sp_ve,0.05,0.05,0.15
          --> L4,Line End,xs + lin_pitch*(3) + xx,ys + col_pitch*(5),zs,tm_ve,sp_ve,0.05,0.05,0.15
P(5;6) --> L1,Line Start,xs + lin_pitch*(4),ys + col_pitch*(5),zs,tm_ho,sp_ho,0.05,0.05,0.15
          --> L1,Line End,xs + lin_pitch*(4),ys + col_pitch*(5) + ydelta,zs,tm_ho,sp_ho,0.05,0.05,0.15
          --> L2,Line Start,xs + lin_pitch*(4) + xx,ys + col_pitch*(5) + ydelta,zs,tm_ve,sp_ve,0.05,0.05,0.15
          --> L2,Line End,xs + lin_pitch*(4) + xdelta - xx,ys + col_pitch*(5) + ydelta,zs,tm_ve,sp_ve,0.05,0.05,0.15
          --> L3,Line Start,xs + lin_pitch*(4) + xdelta,ys + col_pitch*(5) + ydelta,zs,tm_ho,sp_ho,0.05,0.05,0.15
          --> L3,Line End,xs + lin_pitch*(4) + xdelta,ys + col_pitch*(5),zs,tm_ho,sp_ho,0.05,0.05,0.15
          --> L4,Line Start,xs + lin_pitch*(4) + xdelta - xx,ys + col_pitch*(5),zs,tm_ve,sp_ve,0.05,0.05,0.15
          --> L4,Line End,xs + lin_pitch*(4) + xx,ys + col_pitch*(5),zs,tm_ve,sp_ve,0.05,0.05,0.15
P(1;7) --> L1,Line Start,xs + lin_pitch*(0),ys + col_pitch*(6),zs,tm_ho,sp_ho,0.05,0.05,0.15
          --> L1,Line End,xs + lin_pitch*(0),ys + col_pitch*(6) + ydelta,zs,tm_ho,sp_ho,0.05,0.05,0.15
          --> L2,Line Start,xs + lin_pitch*(0) + xx,ys + col_pitch*(6) + ydelta,zs,tm_ve,sp_ve,0.05,0.05,0.15
          --> L2,Line End,xs + lin_pitch*(0) + xdelta - xx,ys + col_pitch*(6) + ydelta,zs,tm_ve,sp_ve,0.05,0.05,0.15
          --> L3,Line Start,xs + lin_pitch*(0) + xdelta,ys + col_pitch*(6) + ydelta,zs,tm_ho,sp_ho,0.05,0.05,0.15
          --> L3,Line End,xs + lin_pitch*(0) + xdelta,ys + col_pitch*(6),zs,tm_ho,sp_ho,0.05,0.05,0.15
          --> L4,Line Start,xs + lin_pitch*(0) + xdelta - xx,ys + col_pitch*(6),zs,tm_ve,sp_ve,0.05,0.05,0.15
          --> L4,Line End,xs + lin_pitch*(0) + xx,ys + col_pitch*(6),zs,tm_ve,sp_ve,0.05,0.05,0.15
P(2;7) --> L1,Line Start,xs + lin_pitch*(1),ys + col_pitch*(6),zs,tm_ho,sp_ho,0.05,0.05,0.15
          --> L1,Line End,xs + lin_pitch*(1),ys + col_pitch*(6) + ydelta,zs,tm_ho,sp_ho,0.05,0.05,0.15
          --> L2,Line Start,xs + lin_pitch*(1) + xx,ys + col_pitch*(6) + ydelta,zs,tm_ve,sp_ve,0.05,0.05,0.15
          --> L2,Line End,xs + lin_pitch*(1) + xdelta - xx,ys + col_pitch*(6) + ydelta,zs,tm_ve,sp_ve,0.05,0.05,0.15
          --> L3,Line Start,xs + lin_pitch*(1) + xdelta,ys + col_pitch*(6) + ydelta,zs,tm_ho,sp_ho,0.05,0.05,0.15
          --> L3,Line End,xs + lin_pitch*(1) + xdelta,ys + col_pitch*(6),zs,tm_ho,sp_ho,0.05,0.05,0.15
          --> L4,Line Start,xs + lin_pitch*(1) + xdelta - xx,ys + col_pitch*(6),zs,tm_ve,sp_ve,0.05,0.05,0.15
          --> L4,Line End,xs + lin_pitch*(1) + xx,ys + col_pitch*(6),zs,tm_ve,sp_ve,0.05,0.05,0.15
P(3;7) --> L1,Line Start,xs + lin_pitch*(2),ys + col_pitch*(6),zs,tm_ho,sp_ho,0.05,0.05,0.15
          --> L1,Line End,xs + lin_pitch*(2),ys + col_pitch*(6) + ydelta,zs,tm_ho,sp_ho,0.05,0.05,0.15
          --> L2,Line Start,xs + lin_pitch*(2) + xx,ys + col_pitch*(6) + ydelta,zs,tm_ve,sp_ve,0.05,0.05,0.15
          --> L2,Line End,xs + lin_pitch*(2) + xdelta - xx,ys + col_pitch*(6) + ydelta,zs,tm_ve,sp_ve,0.05,0.05,0.15
          --> L3,Line Start,xs + lin_pitch*(2) + xdelta,ys + col_pitch*(6) + ydelta,zs,tm_ho,sp_ho,0.05,0.05,0.15
          --> L3,Line End,xs + lin_pitch*(2) + xdelta,ys + col_pitch*(6),zs,tm_ho,sp_ho,0.05,0.05,0.15
          --> L4,Line Start,xs + lin_pitch*(2) + xdelta - xx,ys + col_pitch*(6),zs,tm_ve,sp_ve,0.05,0.05,0.15
          --> L4,Line End,xs + lin_pitch*(2) + xx,ys + col_pitch*(6),zs,tm_ve,sp_ve,0.05,0.05,0.15
P(4;7) --> L1,Line Start,xs + lin_pitch*(3),ys + col_pitch*(6),zs,tm_ho,sp_ho,0.05,0.05,0.15
          --> L1,Line End,xs + lin_pitch*(3),ys + col_pitch*(6) + ydelta,zs,tm_ho,sp_ho,0.05,0.05,0.15
          --> L2,Line Start,xs + lin_pitch*(3) + xx,ys + col_pitch*(6) + ydelta,zs,tm_ve,sp_ve,0.05,0.05,0.15
          --> L2,Line End,xs + lin_pitch*(3) + xdelta - xx,ys + col_pitch*(6) + ydelta,zs,tm_ve,sp_ve,0.05,0.05,0.15
          --> L3,Line Start,xs + lin_pitch*(3) + xdelta,ys + col_pitch*(6) + ydelta,zs,tm_ho,sp_ho,0.05,0.05,0.15
          --> L3,Line End,xs + lin_pitch*(3) + xdelta,ys + col_pitch*(6),zs,tm_ho,sp_ho,0.05,0.05,0.15
          --> L4,Line Start,xs + lin_pitch*(3) + xdelta - xx,ys + col_pitch*(6),zs,tm_ve,sp_ve,0.05,0.05,0.15
          --> L4,Line End,xs + lin_pitch*(3) + xx,ys + col_pitch*(6),zs,tm_ve,sp_ve,0.05,0.05,0.15
P(5;7) --> L1,Line Start,xs + lin_pitch*(4),ys + col_pitch*(6),zs,tm_ho,sp_ho,0.05,0.05,0.15
          --> L1,Line End,xs + lin_pitch*(4),ys + col_pitch*(6) + ydelta,zs,tm_ho,sp_ho,0.05,0.05,0.15
          --> L2,Line Start,xs + lin_pitch*(4) + xx,ys + col_pitch*(6) + ydelta,zs,tm_ve,sp_ve,0.05,0.05,0.15
          --> L2,Line End,xs + lin_pitch*(4) + xdelta - xx,ys + col_pitch*(6) + ydelta,zs,tm_ve,sp_ve,0.05,0.05,0.15
          --> L3,Line Start,xs + lin_pitch*(4) + xdelta,ys + col_pitch*(6) + ydelta,zs,tm_ho,sp_ho,0.05,0.05,0.15
          --> L3,Line End,xs + lin_pitch*(4) + xdelta,ys + col_pitch*(6),zs,tm_ho,sp_ho,0.05,0.05,0.15
          --> L4,Line Start,xs + lin_pitch*(4) + xdelta - xx,ys + col_pitch*(6),zs,tm_ve,sp_ve,0.05,0.05,0.15
          --> L4,Line End,xs + lin_pitch*(4) + xx,ys + col_pitch*(6),zs,tm_ve,sp_ve,0.05,0.05,0.15
P(1;8) --> L1,Line Start,xs + lin_pitch*(0),ys + col_pitch*(7),zs,tm_ho,sp_ho,0.05,0.05,0.15
          --> L1,Line End,xs + lin_pitch*(0),ys + col_pitch*(7) + ydelta,zs,tm_ho,sp_ho,0.05,0.05,0.15
          --> L2,Line Start,xs + lin_pitch*(0) + xx,ys + col_pitch*(7) + ydelta,zs,tm_ve,sp_ve,0.05,0.05,0.15
          --> L2,Line End,xs + lin_pitch*(0) + xdelta - xx,ys + col_pitch*(7) + ydelta,zs,tm_ve,sp_ve,0.05,0.05,0.15
          --> L3,Line Start,xs + lin_pitch*(0) + xdelta,ys + col_pitch*(7) + ydelta,zs,tm_ho,sp_ho,0.05,0.05,0.15
          --> L3,Line End,xs + lin_pitch*(0) + xdelta,ys + col_pitch*(7),zs,tm_ho,sp_ho,0.05,0.05,0.15
          --> L4,Line Start,xs + lin_pitch*(0) + xdelta - xx,ys + col_pitch*(7),zs,tm_ve,sp_ve,0.05,0.05,0.15
          --> L4,Line End,xs + lin_pitch*(0) + xx,ys + col_pitch*(7),zs,tm_ve,sp_ve,0.05,0.05,0.15
P(2;8) --> L1,Line Start,xs + lin_pitch*(1),ys + col_pitch*(7),zs,tm_ho,sp_ho,0.05,0.05,0.15
          --> L1,Line End,xs + lin_pitch*(1),ys + col_pitch*(7) + ydelta,zs,tm_ho,sp_ho,0.05,0.05,0.15
          --> L2,Line Start,xs + lin_pitch*(1) + xx,ys + col_pitch*(7) + ydelta,zs,tm_ve,sp_ve,0.05,0.05,0.15
          --> L2,Line End,xs + lin_pitch*(1) + xdelta - xx,ys + col_pitch*(7) + ydelta,zs,tm_ve,sp_ve,0.05,0.05,0.15
          --> L3,Line Start,xs + lin_pitch*(1) + xdelta,ys + col_pitch*(7) + ydelta,zs,tm_ho,sp_ho,0.05,0.05,0.15
          --> L3,Line End,xs + lin_pitch*(1) + xdelta,ys + col_pitch*(7),zs,tm_ho,sp_ho,0.05,0.05,0.15
          --> L4,Line Start,xs + lin_pitch*(1) + xdelta - xx,ys + col_pitch*(7),zs,tm_ve,sp_ve,0.05,0.05,0.15
          --> L4,Line End,xs + lin_pitch*(1) + xx,ys + col_pitch*(7),zs,tm_ve,sp_ve,0.05,0.05,0.15
P(3;8) --> L1,Line Start,xs + lin_pitch*(2),ys + col_pitch*(7),zs,tm_ho,sp_ho,0.05,0.05,0.15
          --> L1,Line End,xs + lin_pitch*(2),ys + col_pitch*(7) + ydelta,zs,tm_ho,sp_ho,0.05,0.05,0.15
          --> L2,Line Start,xs + lin_pitch*(2) + xx,ys + col_pitch*(7) + ydelta,zs,tm_ve,sp_ve,0.05,0.05,0.15
          --> L2,Line End,xs + lin_pitch*(2) + xdelta - xx,ys + col_pitch*(7) + ydelta,zs,tm_ve,sp_ve,0.05,0.05,0.15
          --> L3,Line Start,xs + lin_pitch*(2) + xdelta,ys + col_pitch*(7) + ydelta,zs,tm_ho,sp_ho,0.05,0.05,0.15
          --> L3,Line End,xs + lin_pitch*(2) + xdelta,ys + col_pitch*(7),zs,tm_ho,sp_ho,0.05,0.05,0.15
          --> L4,Line Start,xs + lin_pitch*(2) + xdelta - xx,ys + col_pitch*(7),zs,tm_ve,sp_ve,0.05,0.05,0.15
          --> L4,Line End,xs + lin_pitch*(2) + xx,ys + col_pitch*(7),zs,tm_ve,sp_ve,0.05,0.05,0.15
P(4;8) --> L1,Line Start,xs + lin_pitch*(3),ys + col_pitch*(7),zs,tm_ho,sp_ho,0.05,0.05,0.15
          --> L1,Line End,xs + lin_pitch*(3),ys + col_pitch*(7) + ydelta,zs,tm_ho,sp_ho,0.05,0.05,0.15
          --> L2,Line Start,xs + lin_pitch*(3) + xx,ys + col_pitch*(7) + ydelta,zs,tm_ve,sp_ve,0.05,0.05,0.15
          --> L2,Line End,xs + lin_pitch*(3) + xdelta - xx,ys + col_pitch*(7) + ydelta,zs,tm_ve,sp_ve,0.05,0.05,0.15
          --> L3,Line Start,xs + lin_pitch*(3) + xdelta,ys + col_pitch*(7) + ydelta,zs,tm_ho,sp_ho,0.05,0.05,0.15
          --> L3,Line End,xs + lin_pitch*(3) + xdelta,ys + col_pitch*(7),zs,tm_ho,sp_ho,0.05,0.05,0.15
          --> L4,Line Start,xs + lin_pitch*(3) + xdelta - xx,ys + col_pitch*(7),zs,tm_ve,sp_ve,0.05,0.05,0.15
          --> L4,Line End,xs + lin_pitch*(3) + xx,ys + col_pitch*(7),zs,tm_ve,sp_ve,0.05,0.05,0.15
P(5;8) --> L1,Line Start,xs + lin_pitch*(4),ys + col_pitch*(7),zs,tm_ho,sp_ho,0.05,0.05,0.15
          --> L1,Line End,xs + lin_pitch*(4),ys + col_pitch*(7) + ydelta,zs,tm_ho,sp_ho,0.05,0.05,0.15
          --> L2,Line Start,xs + lin_pitch*(4) + xx,ys + col_pitch*(7) + ydelta,zs,tm_ve,sp_ve,0.05,0.05,0.15
          --> L2,Line End,xs + lin_pitch*(4) + xdelta - xx,ys + col_pitch*(7) + ydelta,zs,tm_ve,sp_ve,0.05,0.05,0.15
          --> L3,Line Start,xs + lin_pitch*(4) + xdelta,ys + col_pitch*(7) + ydelta,zs,tm_ho,sp_ho,0.05,0.05,0.15
          --> L3,Line End,xs + lin_pitch*(4) + xdelta,ys + col_pitch*(7),zs,tm_ho,sp_ho,0.05,0.05,0.15
          --> L4,Line Start,xs + lin_pitch*(4) + xdelta - xx,ys + col_pitch*(7),zs,tm_ve,sp_ve,0.05,0.05,0.15
          --> L4,Line End,xs + lin_pitch*(4) + xx,ys + col_pitch*(7),zs,tm_ve,sp_ve,0.05,0.05,0.15
P(1;9) --> L1,Line Start,xs + lin_pitch*(0),ys + col_pitch*(8),zs,tm_ho,sp_ho,0.05,0.05,0.15
          --> L1,Line End,xs + lin_pitch*(0),ys + col_pitch*(8) + ydelta,zs,tm_ho,sp_ho,0.05,0.05,0.15
          --> L2,Line Start,xs + lin_pitch*(0) + xx,ys + col_pitch*(8) + ydelta,zs,tm_ve,sp_ve,0.05,0.05,0.15
          --> L2,Line End,xs + lin_pitch*(0) + xdelta - xx,ys + col_pitch*(8) + ydelta,zs,tm_ve,sp_ve,0.05,0.05,0.15
          --> L3,Line Start,xs + lin_pitch*(0) + xdelta,ys + col_pitch*(8) + ydelta,zs,tm_ho,sp_ho,0.05,0.05,0.15
          --> L3,Line End,xs + lin_pitch*(0) + xdelta,ys + col_pitch*(8),zs,tm_ho,sp_ho,0.05,0.05,0.15
          --> L4,Line Start,xs + lin_pitch*(0) + xdelta - xx,ys + col_pitch*(8),zs,tm_ve,sp_ve,0.05,0.05,0.15
          --> L4,Line End,xs + lin_pitch*(0) + xx,ys + col_pitch*(8),zs,tm_ve,sp_ve,0.05,0.05,0.15
P(2;9) --> L1,Line Start,xs + lin_pitch*(1),ys + col_pitch*(8),zs,tm_ho,sp_ho,0.05,0.05,0.15
          --> L1,Line End,xs + lin_pitch*(1),ys + col_pitch*(8) + ydelta,zs,tm_ho,sp_ho,0.05,0.05,0.15
          --> L2,Line Start,xs + lin_pitch*(1) + xx,ys + col_pitch*(8) + ydelta,zs,tm_ve,sp_ve,0.05,0.05,0.15
          --> L2,Line End,xs + lin_pitch*(1) + xdelta - xx,ys + col_pitch*(8) + ydelta,zs,tm_ve,sp_ve,0.05,0.05,0.15
          --> L3,Line Start,xs + lin_pitch*(1) + xdelta,ys + col_pitch*(8) + ydelta,zs,tm_ho,sp_ho,0.05,0.05,0.15
          --> L3,Line End,xs + lin_pitch*(1) + xdelta,ys + col_pitch*(8),zs,tm_ho,sp_ho,0.05,0.05,0.15
          --> L4,Line Start,xs + lin_pitch*(1) + xdelta - xx,ys + col_pitch*(8),zs,tm_ve,sp_ve,0.05,0.05,0.15
          --> L4,Line End,xs + lin_pitch*(1) + xx,ys + col_pitch*(8),zs,tm_ve,sp_ve,0.05,0.05,0.15
P(3;9) --> L1,Line Start,xs + lin_pitch*(2),ys + col_pitch*(8),zs,tm_ho,sp_ho,0.05,0.05,0.15
          --> L1,Line End,xs + lin_pitch*(2),ys + col_pitch*(8) + ydelta,zs,tm_ho,sp_ho,0.05,0.05,0.15
          --> L2,Line Start,xs + lin_pitch*(2) + xx,ys + col_pitch*(8) + ydelta,zs,tm_ve,sp_ve,0.05,0.05,0.15
          --> L2,Line End,xs + lin_pitch*(2) + xdelta - xx,ys + col_pitch*(8) + ydelta,zs,tm_ve,sp_ve,0.05,0.05,0.15
          --> L3,Line Start,xs + lin_pitch*(2) + xdelta,ys + col_pitch*(8) + ydelta,zs,tm_ho,sp_ho,0.05,0.05,0.15
          --> L3,Line End,xs + lin_pitch*(2) + xdelta,ys + col_pitch*(8),zs,tm_ho,sp_ho,0.05,0.05,0.15
          --> L4,Line Start,xs + lin_pitch*(2) + xdelta - xx,ys + col_pitch*(8),zs,tm_ve,sp_ve,0.05,0.05,0.15
          --> L4,Line End,xs + lin_pitch*(2) + xx,ys + col_pitch*(8),zs,tm_ve,sp_ve,0.05,0.05,0.15
P(4;9) --> L1,Line Start,xs + lin_pitch*(3),ys + col_pitch*(8),zs,tm_ho,sp_ho,0.05,0.05,0.15
          --> L1,Line End,xs + lin_pitch*(3),ys + col_pitch*(8) + ydelta,zs,tm_ho,sp_ho,0.05,0.05,0.15
          --> L2,Line Start,xs + lin_pitch*(3) + xx,ys + col_pitch*(8) + ydelta,zs,tm_ve,sp_ve,0.05,0.05,0.15
          --> L2,Line End,xs + lin_pitch*(3) + xdelta - xx,ys + col_pitch*(8) + ydelta,zs,tm_ve,sp_ve,0.05,0.05,0.15
          --> L3,Line Start,xs + lin_pitch*(3) + xdelta,ys + col_pitch*(8) + ydelta,zs,tm_ho,sp_ho,0.05,0.05,0.15
          --> L3,Line End,xs + lin_pitch*(3) + xdelta,ys + col_pitch*(8),zs,tm_ho,sp_ho,0.05,0.05,0.15
          --> L4,Line Start,xs + lin_pitch*(3) + xdelta - xx,ys + col_pitch*(8),zs,tm_ve,sp_ve,0.05,0.05,0.15
          --> L4,Line End,xs + lin_pitch*(3) + xx,ys + col_pitch*(8),zs,tm_ve,sp_ve,0.05,0.05,0.15
P(5;9) --> L1,Line Start,xs + lin_pitch*(4),ys + col_pitch*(8),zs,tm_ho,sp_ho,0.05,0.05,0.15
          --> L1,Line End,xs + lin_pitch*(4),ys + col_pitch*(8) + ydelta,zs,tm_ho,sp_ho,0.05,0.05,0.15
          --> L2,Line Start,xs + lin_pitch*(4) + xx,ys + col_pitch*(8) + ydelta,zs,tm_ve,sp_ve,0.05,0.05,0.15
          --> L2,Line End,xs + lin_pitch*(4) + xdelta - xx,ys + col_pitch*(8) + ydelta,zs,tm_ve,sp_ve,0.05,0.05,0.15
          --> L3,Line Start,xs + lin_pitch*(4) + xdelta,ys + col_pitch*(8) + ydelta,zs,tm_ho,sp_ho,0.05,0.05,0.15
          --> L3,Line End,xs + lin_pitch*(4) + xdelta,ys + col_pitch*(8),zs,tm_ho,sp_ho,0.05,0.05,0.15
          --> L4,Line Start,xs + lin_pitch*(4) + xdelta - xx,ys + col_pitch*(8),zs,tm_ve,sp_ve,0.05,0.05,0.15
          --> L4,Line End,xs + lin_pitch*(4) + xx,ys + col_pitch*(8),zs,tm_ve,sp_ve,0.05,0.05,0.15
P(1;10) --> L1,Line Start,xs + lin_pitch*(0),ys + col_pitch*(9),zs,tm_ho,sp_ho,0.05,0.05,0.15
          --> L1,Line End,xs + lin_pitch*(0),ys + col_pitch*(9) + ydelta,zs,tm_ho,sp_ho,0.05,0.05,0.15
          --> L2,Line Start,xs + lin_pitch*(0) + xx,ys + col_pitch*(9) + ydelta,zs,tm_ve,sp_ve,0.05,0.05,0.15
          --> L2,Line End,xs + lin_pitch*(0) + xdelta - xx,ys + col_pitch*(9) + ydelta,zs,tm_ve,sp_ve,0.05,0.05,0.15
          --> L3,Line Start,xs + lin_pitch*(0) + xdelta,ys + col_pitch*(9) + ydelta,zs,tm_ho,sp_ho,0.05,0.05,0.15
          --> L3,Line End,xs + lin_pitch*(0) + xdelta,ys + col_pitch*(9),zs,tm_ho,sp_ho,0.05,0.05,0.15
          --> L4,Line Start,xs + lin_pitch*(0) + xdelta - xx,ys + col_pitch*(9),zs,tm_ve,sp_ve,0.05,0.05,0.15
          --> L4,Line End,xs + lin_pitch*(0) + xx,ys + col_pitch*(9),zs,tm_ve,sp_ve,0.05,0.05,0.15
P(2;10) --> L1,Line Start,xs + lin_pitch*(1),ys + col_pitch*(9),zs,tm_ho,sp_ho,0.05,0.05,0.15
          --> L1,Line End,xs + lin_pitch*(1),ys + col_pitch*(9) + ydelta,zs,tm_ho,sp_ho,0.05,0.05,0.15
          --> L2,Line Start,xs + lin_pitch*(1) + xx,ys + col_pitch*(9) + ydelta,zs,tm_ve,sp_ve,0.05,0.05,0.15
          --> L2,Line End,xs + lin_pitch*(1) + xdelta - xx,ys + col_pitch*(9) + ydelta,zs,tm_ve,sp_ve,0.05,0.05,0.15
          --> L3,Line Start,xs + lin_pitch*(1) + xdelta,ys + col_pitch*(9) + ydelta,zs,tm_ho,sp_ho,0.05,0.05,0.15
          --> L3,Line End,xs + lin_pitch*(1) + xdelta,ys + col_pitch*(9),zs,tm_ho,sp_ho,0.05,0.05,0.15
          --> L4,Line Start,xs + lin_pitch*(1) + xdelta - xx,ys + col_pitch*(9),zs,tm_ve,sp_ve,0.05,0.05,0.15
          --> L4,Line End,xs + lin_pitch*(1) + xx,ys + col_pitch*(9),zs,tm_ve,sp_ve,0.05,0.05,0.15
P(3;10) --> L1,Line Start,xs + lin_pitch*(2),ys + col_pitch*(9),zs,tm_ho,sp_ho,0.05,0.05,0.15
          --> L1,Line End,xs + lin_pitch*(2),ys + col_pitch*(9) + ydelta,zs,tm_ho,sp_ho,0.05,0.05,0.15
          --> L2,Line Start,xs + lin_pitch*(2) + xx,ys + col_pitch*(9) + ydelta,zs,tm_ve,sp_ve,0.05,0.05,0.15
          --> L2,Line End,xs + lin_pitch*(2) + xdelta - xx,ys + col_pitch*(9) + ydelta,zs,tm_ve,sp_ve,0.05,0.05,0.15
          --> L3,Line Start,xs + lin_pitch*(2) + xdelta,ys + col_pitch*(9) + ydelta,zs,tm_ho,sp_ho,0.05,0.05,0.15
          --> L3,Line End,xs + lin_pitch*(2) + xdelta,ys + col_pitch*(9),zs,tm_ho,sp_ho,0.05,0.05,0.15
          --> L4,Line Start,xs + lin_pitch*(2) + xdelta - xx,ys + col_pitch*(9),zs,tm_ve,sp_ve,0.05,0.05,0.15
          --> L4,Line End,xs + lin_pitch*(2) + xx,ys + col_pitch*(9),zs,tm_ve,sp_ve,0.05,0.05,0.15
P(4;10) --> L1,Line Start,xs + lin_pitch*(3),ys + col_pitch*(9),zs,tm_ho,sp_ho,0.05,0.05,0.15
          --> L1,Line End,xs + lin_pitch*(3),ys + col_pitch*(9) + ydelta,zs,tm_ho,sp_ho,0.05,0.05,0.15
          --> L2,Line Start,xs + lin_pitch*(3) + xx,ys + col_pitch*(9) + ydelta,zs,tm_ve,sp_ve,0.05,0.05,0.15
          --> L2,Line End,xs + lin_pitch*(3) + xdelta - xx,ys + col_pitch*(9) + ydelta,zs,tm_ve,sp_ve,0.05,0.05,0.15
          --> L3,Line Start,xs + lin_pitch*(3) + xdelta,ys + col_pitch*(9) + ydelta,zs,tm_ho,sp_ho,0.05,0.05,0.15
          --> L3,Line End,xs + lin_pitch*(3) + xdelta,ys + col_pitch*(9),zs,tm_ho,sp_ho,0.05,0.05,0.15
          --> L4,Line Start,xs + lin_pitch*(3) + xdelta - xx,ys + col_pitch*(9),zs,tm_ve,sp_ve,0.05,0.05,0.15
          --> L4,Line End,xs + lin_pitch*(3) + xx,ys + col_pitch*(9),zs,tm_ve,sp_ve,0.05,0.05,0.15
P(5;10) --> L1,Line Start,xs + lin_pitch*(4),ys + col_pitch*(9),zs,tm_ho,sp_ho,0.05,0.05,0.15
          --> L1,Line End,xs + lin_pitch*(4),ys + col_pitch*(9) + ydelta,zs,tm_ho,sp_ho,0.05,0.05,0.15
          --> L2,Line Start,xs + lin_pitch*(4) + xx,ys + col_pitch*(9) + ydelta,zs,tm_ve,sp_ve,0.05,0.05,0.15
          --> L2,Line End,xs + lin_pitch*(4) + xdelta - xx,ys + col_pitch*(9) + ydelta,zs,tm_ve,sp_ve,0.05,0.05,0.15
          --> L3,Line Start,xs + lin_pitch*(4) + xdelta,ys + col_pitch*(9) + ydelta,zs,tm_ho,sp_ho,0.05,0.05,0.15
          --> L3,Line End,xs + lin_pitch*(4) + xdelta,ys + col_pitch*(9),zs,tm_ho,sp_ho,0.05,0.05,0.15
          --> L4,Line Start,xs + lin_pitch*(4) + xdelta - xx,ys + col_pitch*(9),zs,tm_ve,sp_ve,0.05,0.05,0.15
          --> L4,Line End,xs + lin_pitch*(4) + xx,ys + col_pitch*(9),zs,tm_ve,sp_ve,0.05,0.05,0.15
EXECUTE,Execute Program,0.0,0.0,0.0,1.0,10.0,0.05,0.05,0.15
Home,Pass,0.0,0.0,0.0,1.0,10.0,0.05,0.05,0.15