Name,Type,x,y,z,Time,Speed,Delta x,Delta y,Delta z
 ,Pass,38.0,130.0,31.375,1.0,10.0,0.05,0.05,0.15
Pick_Config,Pass,xp = 80.340,yp = 119.440,zp = 30.895,tm_pk = 1.2,sp_pk = 10.0,de_xx = 0.12,de_yy = 0.12,de_zz_pk = 0.10
 ,Pass,lin_pk_pitch = 4.50,col_pk_pitch = 2.70, ,tm_pk0 = 0.1, , , , 
 ,Pass,LinhaPick = 1,lin_pk = LinhaPick - 1, , , , , , 
Place_Config,Pass,xx = 38.00,yy = 130.00,zz = 31.375,tm_pl = 1.0,sp_pl = 10.0,de_xx,de_yy,de_zz = 0.15
 ,Pass,lin_pl_pitch = 2.40,col_pl_pitch = 3.10,col_pl = 1*(lin_pk), , , , , 
Cal_Pick,Pass,xp + lin_pk_pitch*(lin_pk),yp + col_pk_pitch*(0),zp -1,tm_pk,sp_pk,de_xx,de_yy,de_zz_pk
Cal_Place,Pass,xx + lin_pl_pitch*(0),yy + col_pl_pitch*((0) + 5*col_pl),zz - 0.5,tm_pl,sp_pl,de_xx,de_yy,de_zz
Pk(1;01) --> Pl(1;1),Pick,xp + lin_pk_pitch*(lin_pk),yp + col_pk_pitch*(0),zp,tm_pk,sp_pk,de_xx,de_yy,de_zz_pk
 ,Pick,xp + lin_pk_pitch*(0),yp + col_pk_pitch*(0),zp,tm_pk0,sp_pk,de_xx,de_yy,de_zz_pk
 ,Place,xx + lin_pl_pitch*(0),yy + col_pl_pitch*((0) + 5*col_pl),zz,tm_pl,sp_pl,de_xx,de_yy,de_zz
Pk(1;02) --> Pl(2;1),Pick,xp + lin_pk_pitch*(lin_pk),yp + col_pk_pitch*(1),zp,tm_pk,sp_pk,de_xx,de_yy,de_zz_pk
 ,Pick,xp + lin_pk_pitch*(0),yp + col_pk_pitch*(0),zp,tm_pk0,sp_pk,de_xx,de_yy,de_zz_pk
 ,Place,xx + lin_pl_pitch*(1),yy + col_pl_pitch*((0) + 5*col_pl),zz,tm_pl,sp_pl,de_xx,de_yy,de_zz
Pk(1;03) --> Pl(3;1),Pick,xp + lin_pk_pitch*(lin_pk),yp + col_pk_pitch*(2),zp,tm_pk,sp_pk,de_xx,de_yy,de_zz_pk
 ,Pick,xp + lin_pk_pitch*(0),yp + col_pk_pitch*(0),zp,tm_pk0,sp_pk,de_xx,de_yy,de_zz_pk
 ,Place,xx + lin_pl_pitch*(2),yy + col_pl_pitch*((0) + 5*col_pl),zz,tm_pl,sp_pl,de_xx,de_yy,de_zz
Pk(1;04) --> Pl(4;1),Pick,xp + lin_pk_pitch*(lin_pk),yp + col_pk_pitch*(3),zp,tm_pk,sp_pk,de_xx,de_yy,de_zz_pk
 ,Pick,xp + lin_pk_pitch*(0),yp + col_pk_pitch*(0),zp,tm_pk0,sp_pk,de_xx,de_yy,de_zz_pk
 ,Place,xx + lin_pl_pitch*(3),yy + col_pl_pitch*((0) + 5*col_pl),zz,tm_pl,sp_pl,de_xx,de_yy,de_zz
Pk(1;05) --> Pl(5;1),Pick,xp + lin_pk_pitch*(lin_pk),yp + col_pk_pitch*(4),zp,tm_pk,sp_pk,de_xx,de_yy,de_zz_pk
 ,Pick,xp + lin_pk_pitch*(0),yp + col_pk_pitch*(0),zp,tm_pk0,sp_pk,de_xx,de_yy,de_zz_pk
 ,Place,xx + lin_pl_pitch*(4),yy + col_pl_pitch*((0) + 5*col_pl),zz,tm_pl,sp_pl,de_xx,de_yy,de_zz
Pk(1;06) --> Pl(1;2),Pick,xp + lin_pk_pitch*(lin_pk),yp + col_pk_pitch*(5),zp,tm_pk,sp_pk,de_xx,de_yy,de_zz_pk
 ,Pick,xp + lin_pk_pitch*(0),yp + col_pk_pitch*(0),zp,tm_pk0,sp_pk,de_xx,de_yy,de_zz_pk
 ,Place,xx + lin_pl_pitch*(0),yy + col_pl_pitch*((1) + 5*col_pl),zz,tm_pl,sp_pl,de_xx,de_yy,de_zz
Pk(1;07) --> Pl(2;2),Pick,xp + lin_pk_pitch*(lin_pk),yp + col_pk_pitch*(6),zp,tm_pk,sp_pk,de_xx,de_yy,de_zz_pk
 ,Pick,xp + lin_pk_pitch*(0),yp + col_pk_pitch*(0),zp,tm_pk0,sp_pk,de_xx,de_yy,de_zz_pk
 ,Place,xx + lin_pl_pitch*(1),yy + col_pl_pitch*((1) + 5*col_pl),zz,tm_pl,sp_pl,de_xx,de_yy,de_zz
Pk(1;08) --> Pl(3;2),Pick,xp + lin_pk_pitch*(lin_pk),yp + col_pk_pitch*(7),zp,tm_pk,sp_pk,de_xx,de_yy,de_zz_pk
 ,Pick,xp + lin_pk_pitch*(0),yp + col_pk_pitch*(0),zp,tm_pk0,sp_pk,de_xx,de_yy,de_zz_pk
 ,Place,xx + lin_pl_pitch*(2),yy + col_pl_pitch*((1) + 5*col_pl),zz,tm_pl,sp_pl,de_xx,de_yy,de_zz
Pk(1;09) --> Pl(4;2),Pick,xp + lin_pk_pitch*(lin_pk),yp + col_pk_pitch*(8),zp,tm_pk,sp_pk,de_xx,de_yy,de_zz_pk
 ,Pick,xp + lin_pk_pitch*(0),yp + col_pk_pitch*(0),zp,tm_pk0,sp_pk,de_xx,de_yy,de_zz_pk
 ,Place,xx + lin_pl_pitch*(3),yy + col_pl_pitch*((1) + 5*col_pl),zz,tm_pl,sp_pl,de_xx,de_yy,de_zz
Pk(1;10) --> Pl(5;2),Pick,xp + lin_pk_pitch*(lin_pk),yp + col_pk_pitch*(9),zp,tm_pk,sp_pk,de_xx,de_yy,de_zz_pk
 ,Pick,xp + lin_pk_pitch*(0),yp + col_pk_pitch*(0),zp,tm_pk0,sp_pk,de_xx,de_yy,de_zz_pk
 ,Place,xx + lin_pl_pitch*(4),yy + col_pl_pitch*((1) + 5*col_pl),zz,tm_pl,sp_pl,de_xx,de_yy,de_zz
Pk(1;11) --> Pl(1;3),Pick,xp + lin_pk_pitch*(lin_pk),yp + col_pk_pitch*(10),zp,tm_pk,sp_pk,de_xx,de_yy,de_zz_pk
 ,Pick,xp + lin_pk_pitch*(0),yp + col_pk_pitch*(0),zp,tm_pk0,sp_pk,de_xx,de_yy,de_zz_pk
 ,Place,xx + lin_pl_pitch*(0),yy + col_pl_pitch*((2) + 5*col_pl),zz,tm_pl,sp_pl,de_xx,de_yy,de_zz
Pk(1;12) --> Pl(2;3),Pick,xp + lin_pk_pitch*(lin_pk),yp + col_pk_pitch*(11),zp,tm_pk,sp_pk,de_xx,de_yy,de_zz_pk
 ,Pick,xp + lin_pk_pitch*(0),yp + col_pk_pitch*(0),zp,tm_pk0,sp_pk,de_xx,de_yy,de_zz_pk
 ,Place,xx + lin_pl_pitch*(1),yy + col_pl_pitch*((2) + 5*col_pl),zz,tm_pl,sp_pl,de_xx,de_yy,de_zz
Pk(1;13) --> Pl(3;3),Pick,xp + lin_pk_pitch*(lin_pk),yp + col_pk_pitch*(12),zp,tm_pk,sp_pk,de_xx,de_yy,de_zz_pk
 ,Pick,xp + lin_pk_pitch*(0),yp + col_pk_pitch*(0),zp,tm_pk0,sp_pk,de_xx,de_yy,de_zz_pk
 ,Place,xx + lin_pl_pitch*(2),yy + col_pl_pitch*((2) + 5*col_pl),zz,tm_pl,sp_pl,de_xx,de_yy,de_zz
Pk(1;14) --> Pl(4;3),Pick,xp + lin_pk_pitch*(lin_pk),yp + col_pk_pitch*(13),zp,tm_pk,sp_pk,de_xx,de_yy,de_zz_pk
 ,Pick,xp + lin_pk_pitch*(0),yp + col_pk_pitch*(0),zp,tm_pk0,sp_pk,de_xx,de_yy,de_zz_pk
 ,Place,xx + lin_pl_pitch*(3),yy + col_pl_pitch*((2) + 5*col_pl),zz,tm_pl,sp_pl,de_xx,de_yy,de_zz
Pk(1;15) --> Pl(5;3),Pick,xp + lin_pk_pitch*(lin_pk),yp + col_pk_pitch*(14),zp,tm_pk,sp_pk,de_xx,de_yy,de_zz_pk
 ,Pick,xp + lin_pk_pitch*(0),yp + col_pk_pitch*(0),zp,tm_pk0,sp_pk,de_xx,de_yy,de_zz_pk
 ,Place,xx + lin_pl_pitch*(4),yy + col_pl_pitch*((2) + 5*col_pl),zz,tm_pl,sp_pl,de_xx,de_yy,de_zz
Pk(1;16) --> Pl(1;4),Pick,xp + lin_pk_pitch*(lin_pk),yp + col_pk_pitch*(15),zp,tm_pk,sp_pk,de_xx,de_yy,de_zz_pk
 ,Pick,xp + lin_pk_pitch*(0),yp + col_pk_pitch*(0),zp,tm_pk0,sp_pk,de_xx,de_yy,de_zz_pk
 ,Place,xx + lin_pl_pitch*(0),yy + col_pl_pitch*((3) + 5*col_pl),zz,tm_pl,sp_pl,de_xx,de_yy,de_zz
Pk(1;17) --> Pl(2;4),Pick,xp + lin_pk_pitch*(lin_pk),yp + col_pk_pitch*(16),zp,tm_pk,sp_pk,de_xx,de_yy,de_zz_pk
 ,Pick,xp + lin_pk_pitch*(0),yp + col_pk_pitch*(0),zp,tm_pk0,sp_pk,de_xx,de_yy,de_zz_pk
 ,Place,xx + lin_pl_pitch*(1),yy + col_pl_pitch*((3) + 5*col_pl),zz,tm_pl,sp_pl,de_xx,de_yy,de_zz
Pk(1;18) --> Pl(3;4),Pick,xp + lin_pk_pitch*(lin_pk),yp + col_pk_pitch*(17),zp,tm_pk,sp_pk,de_xx,de_yy,de_zz_pk
 ,Pick,xp + lin_pk_pitch*(0),yp + col_pk_pitch*(0),zp,tm_pk0,sp_pk,de_xx,de_yy,de_zz_pk
 ,Place,xx + lin_pl_pitch*(2),yy + col_pl_pitch*((3) + 5*col_pl),zz,tm_pl,sp_pl,de_xx,de_yy,de_zz
Pk(1;19) --> Pl(4;4),Pick,xp + lin_pk_pitch*(lin_pk),yp + col_pk_pitch*(18),zp,tm_pk,sp_pk,de_xx,de_yy,de_zz_pk
 ,Pick,xp + lin_pk_pitch*(0),yp + col_pk_pitch*(0),zp,tm_pk0,sp_pk,de_xx,de_yy,de_zz_pk
 ,Place,xx + lin_pl_pitch*(3),yy + col_pl_pitch*((3) + 5*col_pl),zz,tm_pl,sp_pl,de_xx,de_yy,de_zz
Pk(1;20) --> Pl(5;4),Pick,xp + lin_pk_pitch*(lin_pk),yp + col_pk_pitch*(19),zp,tm_pk,sp_pk,de_xx,de_yy,de_zz_pk
 ,Pick,xp + lin_pk_pitch*(0),yp + col_pk_pitch*(0),zp,tm_pk0,sp_pk,de_xx,de_yy,de_zz_pk
 ,Place,xx + lin_pl_pitch*(4),yy + col_pl_pitch*((3) + 5*col_pl),zz,tm_pl,sp_pl,de_xx,de_yy,de_zz
Pk(1;21) --> Pl(1;5),Pick,xp + lin_pk_pitch*(lin_pk),yp + col_pk_pitch*(20),zp,tm_pk,sp_pk,de_xx,de_yy,de_zz_pk
 ,Pick,xp + lin_pk_pitch*(0),yp + col_pk_pitch*(0),zp,tm_pk0,sp_pk,de_xx,de_yy,de_zz_pk
 ,Place,xx + lin_pl_pitch*(0),yy + col_pl_pitch*((4) + 5*col_pl),zz,tm_pl,sp_pl,de_xx,de_yy,de_zz
Pk(1;22) --> Pl(2;5),Pick,xp + lin_pk_pitch*(lin_pk),yp + col_pk_pitch*(21),zp,tm_pk,sp_pk,de_xx,de_yy,de_zz_pk
 ,Pick,xp + lin_pk_pitch*(0),yp + col_pk_pitch*(0),zp,tm_pk0,sp_pk,de_xx,de_yy,de_zz_pk
 ,Place,xx + lin_pl_pitch*(1),yy + col_pl_pitch*((4) + 5*col_pl),zz,tm_pl,sp_pl,de_xx,de_yy,de_zz
Pk(1;23) --> Pl(3;5),Pick,xp + lin_pk_pitch*(lin_pk),yp + col_pk_pitch*(22),zp,tm_pk,sp_pk,de_xx,de_yy,de_zz_pk
 ,Pick,xp + lin_pk_pitch*(0),yp + col_pk_pitch*(0),zp,tm_pk0,sp_pk,de_xx,de_yy,de_zz_pk
 ,Place,xx + lin_pl_pitch*(2),yy + col_pl_pitch*((4) + 5*col_pl),zz,tm_pl,sp_pl,de_xx,de_yy,de_zz
Pk(1;24) --> Pl(4;5),Pick,xp + lin_pk_pitch*(lin_pk),yp + col_pk_pitch*(23),zp,tm_pk,sp_pk,de_xx,de_yy,de_zz_pk
 ,Pick,xp + lin_pk_pitch*(0),yp + col_pk_pitch*(0),zp,tm_pk0,sp_pk,de_xx,de_yy,de_zz_pk
 ,Place,xx + lin_pl_pitch*(3),yy + col_pl_pitch*((4) + 5*col_pl),zz,tm_pl,sp_pl,de_xx,de_yy,de_zz
Pk(1;25) --> Pl(5;5),Pick,xp + lin_pk_pitch*(lin_pk),yp + col_pk_pitch*(24),zp,tm_pk,sp_pk,de_xx,de_yy,de_zz_pk
 ,Pick,xp + lin_pk_pitch*(0),yp + col_pk_pitch*(0),zp,tm_pk0,sp_pk,de_xx,de_yy,de_zz_pk
 ,Place,xx + lin_pl_pitch*(4),yy + col_pl_pitch*((4) + 5*col_pl),zz,tm_pl,sp_pl,de_xx,de_yy,de_zz
Program,Pass,0.0,0.0,0.0,1.0,10.0,0.05,0.05,0.15
Home,Pass,0.0,0.0,0.0,1.0,10.0,0.05,0.05,0.15
