Name,Type,x,y,z,Time,Speed,Delta x,Delta y,Delta z
 ,Pass,76.125,130.54,29.63,1.0,10.0,0.05,0.05,0.15
Pick_Config,Pass,xp = 76.125,yp = 130.52,zp = 29.60,tm_pk = 1.0,spd = 10.0, , ,de_zz_pk = 0.10
 ,Pass,lin_pk_pitch = 3.50,col_pk_pitch = 1.95, ,tm_pk0 = 0.1, , , , 
 ,Pass,LinhaPick = 1,lin_pk = LinhaPick - 1, , , , , , 
Place_Config,Pass,xx = 21.00,yy = 130.00 ,zz = 31.35,tm_pl = 0.5,spd1 = 10.0, , ,de_zz = 0.15
 ,Pass,lin_pl_pitch = 2.40,col_pl_pitch = 3.10,col_pl = (lin_pk),1.0,spd2 = 0.25, , , 
Deltas,Pass,de_xx = 0.17,de_yy = 0.22,dtz1 = 0.3, , , , , 
CALIBRAR_Pick,Pass,xp+lin_pk_pitch*(lin_pk),yp + col_pk_pitch*(0),zp - 2,1.0,10.0,0.12,0.12,0.15
CALIBRAR_Place,Pass,xx + lin_pl_pitch*(0),yy + col_pl_pitch*((0) + 5*col_pl),zz - 2,1.0,10.0,0.12,0.12,0.15
Pk(1;01) --,Pick,xp + lin_pk_pitch*(lin_pk),yp + col_pk_pitch*(0),zp,tm_pk,spd,de_xx,de_yy,de_zz_pk
 ,Pick,xp + lin_pk_pitch*(0),yp + col_pk_pitch*(0),zp,tm_pk0,spd,de_xx,de_yy,de_zz_pk
          --> Fr(1;1),Pass,xx + lin_pl_pitch*(0),yy + col_pl_pitch*((0) + 5*col_pl),zz - dtz1,tm_pl,spd1,de_xx,de_yy,de_zz
 ,Z Place,xx + lin_pl_pitch*(0),yy + col_pl_pitch*((0) + 5*col_pl),zz,tm_pl,spd2,de_xx,de_yy,de_zz
Pk(1;02) --,Pick,xp + lin_pk_pitch*(lin_pk),yp + col_pk_pitch*(1),zp,tm_pk,spd,de_xx,de_yy,de_zz_pk
 ,Pick,xp + lin_pk_pitch*(0),yp + col_pk_pitch*(0),zp,tm_pk0,spd,de_xx,de_yy,de_zz_pk
          --> Fr(2;1),Pass,xx + lin_pl_pitch*(1),yy + col_pl_pitch*((0) + 5*col_pl),zz - dtz1,tm_pl,spd1,de_xx,de_yy,de_zz
 ,Z Place,xx + lin_pl_pitch*(1),yy + col_pl_pitch*((0) + 5*col_pl),zz,tm_pl,spd2,de_xx,de_yy,de_zz
Pk(1;03) --,Pick,xp + lin_pk_pitch*(lin_pk),yp + col_pk_pitch*(2),zp,tm_pk,spd,de_xx,de_yy,de_zz_pk
 ,Pick,xp + lin_pk_pitch*(0),yp + col_pk_pitch*(0),zp,tm_pk0,spd,de_xx,de_yy,de_zz_pk
          --> Fr(3;1),Pass,xx + lin_pl_pitch*(2),yy + col_pl_pitch*((0) + 5*col_pl),zz - dtz1,tm_pl,spd1,de_xx,de_yy,de_zz
 ,Z Place,xx + lin_pl_pitch*(2),yy + col_pl_pitch*((0) + 5*col_pl),zz,tm_pl,spd2,de_xx,de_yy,de_zz
Pk(1;04) --,Pick,xp + lin_pk_pitch*(lin_pk),yp + col_pk_pitch*(3),zp,tm_pk,spd,de_xx,de_yy,de_zz_pk
 ,Pick,xp + lin_pk_pitch*(0),yp + col_pk_pitch*(0),zp,tm_pk0,spd,de_xx,de_yy,de_zz_pk
          --> Fr(4;1),Pass,xx + lin_pl_pitch*(3),yy + col_pl_pitch*((0) + 5*col_pl),zz - dtz1,tm_pl,spd1,de_xx,de_yy,de_zz
 ,Z Place,xx + lin_pl_pitch*(3),yy + col_pl_pitch*((0) + 5*col_pl),zz,tm_pl,spd2,de_xx,de_yy,de_zz
Pk(1;05) --,Pick,xp + lin_pk_pitch*(lin_pk),yp + col_pk_pitch*(4),zp,tm_pk,spd,de_xx,de_yy,de_zz_pk
 ,Pick,xp + lin_pk_pitch*(0),yp + col_pk_pitch*(0),zp,tm_pk0,spd,de_xx,de_yy,de_zz_pk
          --> Fr(5;1),Pass,xx + lin_pl_pitch*(4),yy + col_pl_pitch*((0) + 5*col_pl),zz - dtz1,tm_pl,spd1,de_xx,de_yy,de_zz
 ,Z Place,xx + lin_pl_pitch*(4),yy + col_pl_pitch*((0) + 5*col_pl),zz,tm_pl,spd2,de_xx,de_yy,de_zz
Pk(1;06) --,Pick,xp + lin_pk_pitch*(lin_pk),yp + col_pk_pitch*(5),zp,tm_pk,spd,de_xx,de_yy,de_zz_pk
 ,Pick,xp + lin_pk_pitch*(0),yp + col_pk_pitch*(0),zp,tm_pk0,spd,de_xx,de_yy,de_zz_pk
          --> Fr(1;2),Pass,xx + lin_pl_pitch*(0),yy + col_pl_pitch*((1) + 5*col_pl),zz - dtz1,tm_pl,spd1,de_xx,de_yy,de_zz
 ,Z Place,xx + lin_pl_pitch*(0),yy + col_pl_pitch*((1) + 5*col_pl),zz,tm_pl,spd2,de_xx,de_yy,de_zz
Pk(1;07) --,Pick,xp + lin_pk_pitch*(lin_pk),yp + col_pk_pitch*(6),zp,tm_pk,spd,de_xx,de_yy,de_zz_pk
 ,Pick,xp + lin_pk_pitch*(0),yp + col_pk_pitch*(0),zp,tm_pk0,spd,de_xx,de_yy,de_zz_pk
          --> Fr(2;2),Pass,xx + lin_pl_pitch*(1),yy + col_pl_pitch*((1) + 5*col_pl),zz - dtz1,tm_pl,spd1,de_xx,de_yy,de_zz
 ,Z Place,xx + lin_pl_pitch*(1),yy + col_pl_pitch*((1) + 5*col_pl),zz,tm_pl,spd2,de_xx,de_yy,de_zz
Pk(1;08) --,Pick,xp + lin_pk_pitch*(lin_pk),yp + col_pk_pitch*(7),zp,tm_pk,spd,de_xx,de_yy,de_zz_pk
 ,Pick,xp + lin_pk_pitch*(0),yp + col_pk_pitch*(0),zp,tm_pk0,spd,de_xx,de_yy,de_zz_pk
          --> Fr(3;2),Pass,xx + lin_pl_pitch*(2),yy + col_pl_pitch*((1) + 5*col_pl),zz - dtz1,tm_pl,spd1,de_xx,de_yy,de_zz
 ,Z Place,xx + lin_pl_pitch*(2),yy + col_pl_pitch*((1) + 5*col_pl),zz,tm_pl,spd2,de_xx,de_yy,de_zz
Pk(1;09) --,Pick,xp + lin_pk_pitch*(lin_pk),yp + col_pk_pitch*(8),zp,tm_pk,spd,de_xx,de_yy,de_zz_pk
 ,Pick,xp + lin_pk_pitch*(0),yp + col_pk_pitch*(0),zp,tm_pk0,spd,de_xx,de_yy,de_zz_pk
          --> Fr(4;2),Pass,xx + lin_pl_pitch*(3),yy + col_pl_pitch*((1) + 5*col_pl),zz - dtz1,tm_pl,spd1,de_xx,de_yy,de_zz
 ,Z Place,xx + lin_pl_pitch*(3),yy + col_pl_pitch*((1) + 5*col_pl),zz,tm_pl,spd2,de_xx,de_yy,de_zz
Pk(1;10) --,Pick,xp + lin_pk_pitch*(lin_pk),yp + col_pk_pitch*(9),zp,tm_pk,spd,de_xx,de_yy,de_zz_pk
 ,Pick,xp + lin_pk_pitch*(0),yp + col_pk_pitch*(0),zp,tm_pk0,spd,de_xx,de_yy,de_zz_pk
          --> Fr(5;2),Pass,xx + lin_pl_pitch*(4),yy + col_pl_pitch*((1) + 5*col_pl),zz - dtz1,tm_pl,spd1,de_xx,de_yy,de_zz
 ,Z Place,xx + lin_pl_pitch*(4),yy + col_pl_pitch*((1) + 5*col_pl),zz,tm_pl,spd2,de_xx,de_yy,de_zz
Pk(1;11) --,Pick,xp + lin_pk_pitch*(lin_pk),yp + col_pk_pitch*(10),zp,tm_pk,spd,de_xx,de_yy,de_zz_pk
 ,Pick,xp + lin_pk_pitch*(0),yp + col_pk_pitch*(0),zp,tm_pk0,spd,de_xx,de_yy,de_zz_pk
          --> Fr(1;3),Pass,xx + lin_pl_pitch*(0),yy + col_pl_pitch*((2) + 5*col_pl),zz - dtz1,tm_pl,spd1,de_xx,de_yy,de_zz
 ,Z Place,xx + lin_pl_pitch*(0),yy + col_pl_pitch*((2) + 5*col_pl),zz,tm_pl,spd2,de_xx,de_yy,de_zz
Pk(1;12) --,Pick,xp + lin_pk_pitch*(lin_pk),yp + col_pk_pitch*(11),zp,tm_pk,spd,de_xx,de_yy,de_zz_pk
 ,Pick,xp + lin_pk_pitch*(0),yp + col_pk_pitch*(0),zp,tm_pk0,spd,de_xx,de_yy,de_zz_pk
          --> Fr(2;3),Pass,xx + lin_pl_pitch*(1),yy + col_pl_pitch*((2) + 5*col_pl),zz - dtz1,tm_pl,spd1,de_xx,de_yy,de_zz
 ,Z Place,xx + lin_pl_pitch*(1),yy + col_pl_pitch*((2) + 5*col_pl),zz,tm_pl,spd2,de_xx,de_yy,de_zz
Pk(1;13) --,Pick,xp + lin_pk_pitch*(lin_pk),yp + col_pk_pitch*(12),zp,tm_pk,spd,de_xx,de_yy,de_zz_pk
 ,Pick,xp + lin_pk_pitch*(0),yp + col_pk_pitch*(0),zp,tm_pk0,spd,de_xx,de_yy,de_zz_pk
          --> Fr(3;3),Pass,xx + lin_pl_pitch*(2),yy + col_pl_pitch*((2) + 5*col_pl),zz - dtz1,tm_pl,spd1,de_xx,de_yy,de_zz
 ,Z Place,xx + lin_pl_pitch*(2),yy + col_pl_pitch*((2) + 5*col_pl),zz,tm_pl,spd2,de_xx,de_yy,de_zz
Pk(1;14) --,Pick,xp + lin_pk_pitch*(lin_pk),yp + col_pk_pitch*(13),zp,tm_pk,spd,de_xx,de_yy,de_zz_pk
 ,Pick,xp + lin_pk_pitch*(0),yp + col_pk_pitch*(0),zp,tm_pk0,spd,de_xx,de_yy,de_zz_pk
          --> Fr(4;3),Pass,xx + lin_pl_pitch*(3),yy + col_pl_pitch*((2) + 5*col_pl),zz - dtz1,tm_pl,spd1,de_xx,de_yy,de_zz
 ,Z Place,xx + lin_pl_pitch*(3),yy + col_pl_pitch*((2) + 5*col_pl),zz,tm_pl,spd2,de_xx,de_yy,de_zz
Pk(1;15) --,Pick,xp + lin_pk_pitch*(lin_pk),yp + col_pk_pitch*(14),zp,tm_pk,spd,de_xx,de_yy,de_zz_pk
 ,Pick,xp + lin_pk_pitch*(0),yp + col_pk_pitch*(0),zp,tm_pk0,spd,de_xx,de_yy,de_zz_pk
          --> Fr(5;3),Pass,xx + lin_pl_pitch*(4),yy + col_pl_pitch*((2) + 5*col_pl),zz - dtz1,tm_pl,spd1,de_xx,de_yy,de_zz
 ,Z Place,xx + lin_pl_pitch*(4),yy + col_pl_pitch*((2) + 5*col_pl),zz,tm_pl,spd2,de_xx,de_yy,de_zz
Pk(1;16) --,Pick,xp + lin_pk_pitch*(lin_pk),yp + col_pk_pitch*(15),zp,tm_pk,spd,de_xx,de_yy,de_zz_pk
 ,Pick,xp + lin_pk_pitch*(0),yp + col_pk_pitch*(0),zp,tm_pk0,spd,de_xx,de_yy,de_zz_pk
          --> Fr(1;4),Pass,xx + lin_pl_pitch*(0),yy + col_pl_pitch*((3) + 5*col_pl),zz - dtz1,tm_pl,spd1,de_xx,de_yy,de_zz
 ,Z Place,xx + lin_pl_pitch*(0),yy + col_pl_pitch*((3) + 5*col_pl),zz,tm_pl,spd2,de_xx,de_yy,de_zz
Pk(1;17) --,Pick,xp + lin_pk_pitch*(lin_pk),yp + col_pk_pitch*(16),zp,tm_pk,spd,de_xx,de_yy,de_zz_pk
 ,Pick,xp + lin_pk_pitch*(0),yp + col_pk_pitch*(0),zp,tm_pk0,spd,de_xx,de_yy,de_zz_pk
          --> Fr(2;4),Pass,xx + lin_pl_pitch*(1),yy + col_pl_pitch*((3) + 5*col_pl),zz - dtz1,tm_pl,spd1,de_xx,de_yy,de_zz
 ,Z Place,xx + lin_pl_pitch*(1),yy + col_pl_pitch*((3) + 5*col_pl),zz,tm_pl,spd2,de_xx,de_yy,de_zz
Pk(1;18) --,Pick,xp + lin_pk_pitch*(lin_pk),yp + col_pk_pitch*(17),zp,tm_pk,spd,de_xx,de_yy,de_zz_pk
 ,Pick,xp + lin_pk_pitch*(0),yp + col_pk_pitch*(0),zp,tm_pk0,spd,de_xx,de_yy,de_zz_pk
          --> Fr(3;4),Pass,xx + lin_pl_pitch*(2),yy + col_pl_pitch*((3) + 5*col_pl),zz - dtz1,tm_pl,spd1,de_xx,de_yy,de_zz
 ,Z Place,xx + lin_pl_pitch*(2),yy + col_pl_pitch*((3) + 5*col_pl),zz,tm_pl,spd2,de_xx,de_yy,de_zz
Pk(1;19) --,Pick,xp + lin_pk_pitch*(lin_pk),yp + col_pk_pitch*(18),zp,tm_pk,spd,de_xx,de_yy,de_zz_pk
 ,Pick,xp + lin_pk_pitch*(0),yp + col_pk_pitch*(0),zp,tm_pk0,spd,de_xx,de_yy,de_zz_pk
          --> Fr(4;4),Pass,xx + lin_pl_pitch*(3),yy + col_pl_pitch*((3) + 5*col_pl),zz - dtz1,tm_pl,spd1,de_xx,de_yy,de_zz
 ,Z Place,xx + lin_pl_pitch*(3),yy + col_pl_pitch*((3) + 5*col_pl),zz,tm_pl,spd2,de_xx,de_yy,de_zz
Pk(1;20) --,Pick,xp + lin_pk_pitch*(lin_pk),yp + col_pk_pitch*(19),zp,tm_pk,spd,de_xx,de_yy,de_zz_pk
 ,Pick,xp + lin_pk_pitch*(0),yp + col_pk_pitch*(0),zp,tm_pk0,spd,de_xx,de_yy,de_zz_pk
          --> Fr(5;4),Pass,xx + lin_pl_pitch*(4),yy + col_pl_pitch*((3) + 5*col_pl),zz - dtz1,tm_pl,spd1,de_xx,de_yy,de_zz
 ,Z Place,xx + lin_pl_pitch*(4),yy + col_pl_pitch*((3) + 5*col_pl),zz,tm_pl,spd2,de_xx,de_yy,de_zz
Pk(1;21) --,Pick,xp + lin_pk_pitch*(lin_pk),yp + col_pk_pitch*(20),zp,tm_pk,spd,de_xx,de_yy,de_zz_pk
 ,Pick,xp + lin_pk_pitch*(0),yp + col_pk_pitch*(0),zp,tm_pk0,spd,de_xx,de_yy,de_zz_pk
          --> Fr(1;5),Pass,xx + lin_pl_pitch*(0),yy + col_pl_pitch*((4) + 5*col_pl),zz - dtz1,tm_pl,spd1,de_xx,de_yy,de_zz
 ,Z Place,xx + lin_pl_pitch*(0),yy + col_pl_pitch*((4) + 5*col_pl),zz,tm_pl,spd2,de_xx,de_yy,de_zz
Pk(1;22) --,Pick,xp + lin_pk_pitch*(lin_pk),yp + col_pk_pitch*(21),zp,tm_pk,spd,de_xx,de_yy,de_zz_pk
 ,Pick,xp + lin_pk_pitch*(0),yp + col_pk_pitch*(0),zp,tm_pk0,spd,de_xx,de_yy,de_zz_pk
          --> Fr(2;5),Pass,xx + lin_pl_pitch*(1),yy + col_pl_pitch*((4) + 5*col_pl),zz - dtz1,tm_pl,spd1,de_xx,de_yy,de_zz
 ,Z Place,xx + lin_pl_pitch*(1),yy + col_pl_pitch*((4) + 5*col_pl),zz,tm_pl,spd2,de_xx,de_yy,de_zz
Pk(1;23) --,Pick,xp + lin_pk_pitch*(lin_pk),yp + col_pk_pitch*(22),zp,tm_pk,spd,de_xx,de_yy,de_zz_pk
 ,Pick,xp + lin_pk_pitch*(0),yp + col_pk_pitch*(0),zp,tm_pk0,spd,de_xx,de_yy,de_zz_pk
          --> Fr(3;5),Pass,xx + lin_pl_pitch*(2),yy + col_pl_pitch*((4) + 5*col_pl),zz - dtz1,tm_pl,spd1,de_xx,de_yy,de_zz
 ,Z Place,xx + lin_pl_pitch*(2),yy + col_pl_pitch*((4) + 5*col_pl),zz,tm_pl,spd2,de_xx,de_yy,de_zz
Pk(1;24) --,Pick,xp + lin_pk_pitch*(lin_pk),yp + col_pk_pitch*(23),zp,tm_pk,spd,de_xx,de_yy,de_zz_pk
 ,Pick,xp + lin_pk_pitch*(0),yp + col_pk_pitch*(0),zp,tm_pk0,spd,de_xx,de_yy,de_zz_pk
          --> Fr(4;5),Pass,xx + lin_pl_pitch*(3),yy + col_pl_pitch*((4) + 5*col_pl),zz - dtz1,tm_pl,spd1,de_xx,de_yy,de_zz
 ,Z Place,xx + lin_pl_pitch*(3),yy + col_pl_pitch*((4) + 5*col_pl),zz,tm_pl,spd2,de_xx,de_yy,de_zz
Pk(1;25) --,Pick,xp + lin_pk_pitch*(lin_pk),yp + col_pk_pitch*(24),zp,tm_pk,spd,de_xx,de_yy,de_zz_pk
 ,Pick,xp + lin_pk_pitch*(0),yp + col_pk_pitch*(0),zp,tm_pk0,spd,de_xx,de_yy,de_zz_pk
          --> Fr(5;5),Pass,xx + lin_pl_pitch*(4),yy + col_pl_pitch*((4) + 5*col_pl),zz - dtz1,tm_pl,spd1,de_xx,de_yy,de_zz
 ,Z Place,xx + lin_pl_pitch*(4),yy + col_pl_pitch*((4) + 5*col_pl),zz,tm_pl,spd2,de_xx,de_yy,de_zz
Program,Pass,0.0,0.0,0.0,1.0,10.0,0.05,0.05,0.15
Home,Pass,0.0,0.0,0.0,1.0,10.0,0.05,0.05,0.15
