Name,Type,x,y,z,Time,Speed,Delta x,Delta y,Delta z
 ,Pass,67.115,83.91,zs=10.35,1.0,10.0,0.05,0.05,0.15
,Pass,xs=67.35,ys = 83.75,y_shift=1.95,1.0,10.0,0.05,0.05,0.15
,Pass,shift_x=2,speed =15,shift=0.2,1.0,10.0,0.05,0.05,0.15
P0,Line Start,0,0,0,1.0,speed,0.05,0.05,0.15
P0,Line End,shift,0,0,1.0,speed,0.05,0.05,0.15
"P1,1",Line Start,xs,ys,zs,1.0,speed,0.05,0.05,0.15
"P1,2",Line End,xs-shift_x,ys,zs+0.015,1.0,speed,0.05,0.05,0.15
"P1,3",Line Start,xs,ys+shift,zs,1.0,speed,0.05,0.05,0.15
"P1,4",Line End,xs-shift_x,ys+shift,zs+0.015,1.0,speed,0.05,0.05,0.15
"P2,1",Line Start,xs,ys+y_shift,zs,1.0,speed,0.05,0.05,0.15
"P2,2",Line End,xs-shift_x,ys+y_shift,zs+0.015,1.0,speed,0.05,0.05,0.15
"P2,3",Line Start,xs,ys+shift+y_shift,zs,1.0,speed,0.05,0.05,0.15
"P2,4",Line End,xs-shift_x,ys+shift+y_shift,zs+0.015,1.0,speed,0.05,0.05,0.15
"P3,1",Line Start,xs,ys+y_shift*2,zs,1.0,speed,0.05,0.05,0.15
"P3,2",Line End,xs-shift_x,ys+y_shift*2,zs+0.015,1.0,speed,0.05,0.05,0.15
"P3,3",Line Start,xs,ys+shift+y_shift*2,zs,1.0,speed,0.05,0.05,0.15
"P3,4",Line End,xs-shift_x,ys+shift+y_shift*2,zs+0.015,1.0,speed,0.05,0.05,0.15
"P4,1",Line Start,xs,ys+y_shift*3,zs,1.0,speed,0.05,0.05,0.15
"P4,2",Line End,xs-shift_x,ys+y_shift*3,zs+0.015,1.0,speed,0.05,0.05,0.15
"P4,3",Line Start,xs,ys+shift+y_shift*3,zs,1.0,speed,0.05,0.05,0.15
"P4,4",Line End,xs-shift_x,ys+shift+y_shift*3,zs+0.015,1.0,speed,0.05,0.05,0.15
,Execute Program,0.0,0.0,0.0,1.0,speed,0.05,0.05,0.15
