Name,Type,x,y,z,Time,Speed,Delta x,Delta y,Delta z
 ,Pass,39.050000000000004,72.67,36.13,1.0,10.0,0.05,0.05,0.15
Agulha,Pass,x_pl = 39.050,y_pl = 72.670,z_pl = 36.13,col_pitch = 7.27, , , , 
Linha1_Config,Pass,L1xs = x_pl,L1y = y_pl,L1z = z_pl,tm1 = 0.90,spd1 = 7.0,dtx1 = 0.05,dty1 = 0.05,dtz1 = 0.15
 ,Pass,L1xe = x_pl + 4.50,L1y,L1z, , , , , 
Linha2_Config,Pass,L2xs = x_pl + 4.50,L2y = y_pl + 0.150,L2z = z_pl,tm2 = 0.90,spd2 = 7.0,dtx2 = 0.05,dty2 = 0.05,dtz2 = 0.15
 ,Pass,L2xe = x_pl,L2y,L2z, , , , , 
CALIBRAR,Pass,L1xs,L1y + col_pitch*(0),L1z -1,1,10,0.05,0.05,0.15
TEC01_L1,Line Start,L1xs,L1y + col_pitch*(0),L1z,tm1,spd1,dtx1,dty1,dtz1
           _L1,Line End,L1xe ,L1y + col_pitch*(0),L1z,tm1,spd1,dtx1,dty1,dtz1
           _L2,Line Start,L2xs,L2y + col_pitch*(0),L2z,tm2,spd2,dtx2,dty2,dtz2
           _L2,Line End,L2xe,L2y + col_pitch*(0),L2z,tm2,spd2,dtx2,dty2,dtz2
TEC02_L1,Line Start,L1xs,L1y + col_pitch*(1),L1z,tm1,spd1,dtx1,dty1,dtz1
           _L1,Line End,L1xe ,L1y + col_pitch*(1),L1z,tm1,spd1,dtx1,dty1,dtz1
           _L2,Line Start,L2xs,L2y + col_pitch*(1),L2z,tm2,spd2,dtx2,dty2,dtz2
           _L2,Line End,L2xe,L2y + col_pitch*(1),L2z,tm2,spd2,dtx2,dty2,dtz2
TEC03_L1,Line Start,L1xs,L1y + col_pitch*(2),L1z,tm1,spd1,dtx1,dty1,dtz1
           _L1,Line End,L1xe ,L1y + col_pitch*(2),L1z,tm1,spd1,dtx1,dty1,dtz1
           _L2,Line Start,L2xs,L2y + col_pitch*(2),L2z,tm2,spd2,dtx2,dty2,dtz2
           _L2,Line End,L2xe,L2y + col_pitch*(2),L2z,tm2,spd2,dtx2,dty2,dtz2
TEC04_L1,Line Start,L1xs,L1y + col_pitch*(3),L1z,tm1,spd1,dtx1,dty1,dtz1
           _L1,Line End,L1xe ,L1y + col_pitch*(3),L1z,tm1,spd1,dtx1,dty1,dtz1
           _L2,Line Start,L2xs,L2y + col_pitch*(3),L2z,tm2,spd2,dtx2,dty2,dtz2
           _L2,Line End,L2xe,L2y + col_pitch*(3),L2z,tm2,spd2,dtx2,dty2,dtz2
TEC05_L1,Line Start,L1xs,L1y + col_pitch*(4),L1z,tm1,spd1,dtx1,dty1,dtz1
           _L1,Line End,L1xe ,L1y + col_pitch*(4),L1z,tm1,spd1,dtx1,dty1,dtz1
           _L2,Line Start,L2xs,L2y + col_pitch*(4),L2z,tm2,spd2,dtx2,dty2,dtz2
           _L2,Line End,L2xe,L2y + col_pitch*(4),L2z,tm2,spd2,dtx2,dty2,dtz2
TEC06_L1,Line Start,L1xs,L1y + col_pitch*(5),L1z,tm1,spd1,dtx1,dty1,dtz1
           _L1,Line End,L1xe ,L1y + col_pitch*(5),L1z,tm1,spd1,dtx1,dty1,dtz1
           _L2,Line Start,L2xs,L2y + col_pitch*(5),L2z,tm2,spd2,dtx2,dty2,dtz2
           _L2,Line End,L2xe,L2y + col_pitch*(5),L2z,tm2,spd2,dtx2,dty2,dtz2
TEC07_L1,Line Start,L1xs,L1y + col_pitch*(6),L1z,tm1,spd1,dtx1,dty1,dtz1
           _L1,Line End,L1xe ,L1y + col_pitch*(6),L1z,tm1,spd1,dtx1,dty1,dtz1
           _L2,Line Start,L2xs,L2y + col_pitch*(6),L2z,tm2,spd2,dtx2,dty2,dtz2
           _L2,Line End,L2xe,L2y + col_pitch*(6),L2z,tm2,spd2,dtx2,dty2,dtz2
TEC08_L1,Line Start,L1xs,L1y + col_pitch*(7),L1z,tm1,spd1,dtx1,dty1,dtz1
           _L1,Line End,L1xe ,L1y + col_pitch*(7),L1z,tm1,spd1,dtx1,dty1,dtz1
           _L2,Line Start,L2xs,L2y + col_pitch*(7),L2z,tm2,spd2,dtx2,dty2,dtz2
           _L2,Line End,L2xe,L2y + col_pitch*(7),L2z,tm2,spd2,dtx2,dty2,dtz2
TEC09_L1,Line Start,L1xs,L1y + col_pitch*(8),L1z,tm1,spd1,dtx1,dty1,dtz1
           _L1,Line End,L1xe ,L1y + col_pitch*(8),L1z,tm1,spd1,dtx1,dty1,dtz1
           _L2,Line Start,L2xs,L2y + col_pitch*(8),L2z,tm2,spd2,dtx2,dty2,dtz2
           _L2,Line End,L2xe,L2y + col_pitch*(8),L2z,tm2,spd2,dtx2,dty2,dtz2
TEC10_L1,Line Start,L1xs,L1y + col_pitch*(9),L1z,tm1,spd1,dtx1,dty1,dtz1
           _L1,Line End,L1xe ,L1y + col_pitch*(9),L1z,tm1,spd1,dtx1,dty1,dtz1
           _L2,Line Start,L2xs,L2y + col_pitch*(9),L2z,tm2,spd2,dtx2,dty2,dtz2
           _L2,Line End,L2xe,L2y + col_pitch*(9),L2z,tm2,spd2,dtx2,dty2,dtz2
EXECUTE,Execute Program,0,0,0,1,10,0.05,0.05,0.15
