Name,Type,x,y,z,Time,Speed,Delta x,Delta y,Delta z
 ,Pass,69.35000000000001,138.46,29.515,1.0,10.0,0.05,0.05,0.15
Pick_Config,Pass,x_pi = 69.29,y_pi = 138.500,z_pi = 30.255,tm_pi = 1.0,sp_pi = 10.0,dx_pi = 0.160,dy_pi = 0.160,dz_pi = 0.25
 ,Pass,pi_col_pitch = 2.05, ,pi_col_11 = 20.50, ,linha = 1, , , 
 ,Pass,pi_lin_pitch = 10.60, ,lin = linha - 1, ,col_11 = 0, , , 
Place_Config,Pass,x_pl = 50.830 ,y_pl = 119.750,z_pl = 29.700,tm_pl = 0.5,sp_pl = 0.25,dx_pl = 0.05,dy_pl = 0.05,dz_pl = 0.15
 ,Pass,pl_col_pitch = 7.27,dzz = 0.500, , , , , , 
CALIBRAR_Pick,Pass,x_pi + pi_lin_pitch*(lin),y_pi + pi_col_pitch*(0) + pi_col_11*(col_11),z_pi - 1.0,tm_pi,sp_pi,dx_pi,dy_pi,dz_pi
CALIBRAR_Place,Pass,x_pl,y_pl + pl_col_pitch*(0),z_pl - 0.3,tm_pl,sp_pi,dx_pl,dy_pl,dz_pl
SS01,Pick,x_pi + pi_lin_pitch*(lin),y_pi + pi_col_pitch*(0) + pi_col_11*(col_11),z_pi,tm_pi,sp_pi,dx_pi,dy_pi,dz_pi
 ,Pass,x_pl,y_pl + pl_col_pitch*(0),z_pl - dzz,tm_pi,sp_pi,dx_pl,dy_pl,dz_pl
          _TEC01,Z Place,x_pl,y_pl + pl_col_pitch*(0),z_pl,tm_pl,sp_pl,dx_pl,dy_pl,dz_pl
SS02,Pick,x_pi + pi_lin_pitch*(lin),y_pi + pi_col_pitch*(1) + pi_col_11*(col_11),z_pi,tm_pi,sp_pi,dx_pi,dy_pi,dz_pi
 ,Pass,x_pl,y_pl + pl_col_pitch*(1),z_pl - dzz,tm_pi,sp_pi,dx_pl,dy_pl,dz_pl
          _TEC02,Z Place,x_pl,y_pl + pl_col_pitch*(1),z_pl,tm_pl,sp_pl,dx_pl,dy_pl,dz_pl
SS03,Pick,x_pi + pi_lin_pitch*(lin),y_pi + pi_col_pitch*(2) + pi_col_11*(col_11),z_pi,tm_pi,sp_pi,dx_pi,dy_pi,dz_pi
 ,Pass,x_pl,y_pl + pl_col_pitch*(2),z_pl - dzz,tm_pi,sp_pi,dx_pl,dy_pl,dz_pl
          _TEC03,Z Place,x_pl,y_pl + pl_col_pitch*(2),z_pl,tm_pl,sp_pl,dx_pl,dy_pl,dz_pl
SS04,Pick,x_pi + pi_lin_pitch*(lin),y_pi + pi_col_pitch*(3) + pi_col_11*(col_11),z_pi,tm_pi,sp_pi,dx_pi,dy_pi,dz_pi
 ,Pass,x_pl,y_pl + pl_col_pitch*(3),z_pl - dzz,tm_pi,sp_pi,dx_pl,dy_pl,dz_pl
          _TEC04,Z Place,x_pl,y_pl + pl_col_pitch*(3),z_pl,tm_pl,sp_pl,dx_pl,dy_pl,dz_pl
SS05,Pick,x_pi + pi_lin_pitch*(lin),y_pi + pi_col_pitch*(4) + pi_col_11*(col_11),z_pi,tm_pi,sp_pi,dx_pi,dy_pi,dz_pi
 ,Pass,x_pl,y_pl + pl_col_pitch*(4),z_pl - dzz,tm_pi,sp_pi,dx_pl,dy_pl,dz_pl
          _TEC05,Z Place,x_pl,y_pl + pl_col_pitch*(4),z_pl,tm_pl,sp_pl,dx_pl,dy_pl,dz_pl
SS06,Pick,x_pi + pi_lin_pitch*(lin),y_pi + pi_col_pitch*(5) + pi_col_11*(col_11),z_pi,tm_pi,sp_pi,dx_pi,dy_pi,dz_pi
 ,Pass,x_pl,y_pl + pl_col_pitch*(5),z_pl - dzz,tm_pi,sp_pi,dx_pl,dy_pl,dz_pl
          _TEC06,Z Place,x_pl,y_pl + pl_col_pitch*(5),z_pl,tm_pl,sp_pl,dx_pl,dy_pl,dz_pl
SS07,Pick,x_pi + pi_lin_pitch*(lin),y_pi + pi_col_pitch*(6) + pi_col_11*(col_11),z_pi,tm_pi,sp_pi,dx_pi,dy_pi,dz_pi
 ,Pass,x_pl,y_pl + pl_col_pitch*(6),z_pl - dzz,tm_pi,sp_pi,dx_pl,dy_pl,dz_pl
          _TEC07,Z Place,x_pl,y_pl + pl_col_pitch*(6),z_pl,tm_pl,sp_pl,dx_pl,dy_pl,dz_pl
SS08,Pick,x_pi + pi_lin_pitch*(lin),y_pi + pi_col_pitch*(7) + pi_col_11*(col_11),z_pi,tm_pi,sp_pi,dx_pi,dy_pi,dz_pi
 ,Pass,x_pl,y_pl + pl_col_pitch*(7),z_pl - dzz,tm_pi,sp_pi,dx_pl,dy_pl,dz_pl
          _TEC08,Z Place,x_pl,y_pl + pl_col_pitch*(7),z_pl,tm_pl,sp_pl,dx_pl,dy_pl,dz_pl
SS09,Pick,x_pi + pi_lin_pitch*(lin),y_pi + pi_col_pitch*(8) + pi_col_11*(col_11),z_pi,tm_pi,sp_pi,dx_pi,dy_pi,dz_pi
 ,Pass,x_pl,y_pl + pl_col_pitch*(8),z_pl - dzz,tm_pi,sp_pi,dx_pl,dy_pl,dz_pl
          _TEC09,Z Place,x_pl,y_pl + pl_col_pitch*(8),z_pl,tm_pl,sp_pl,dx_pl,dy_pl,dz_pl
SS10,Pick,x_pi + pi_lin_pitch*(lin),y_pi + pi_col_pitch*(9) + pi_col_11*(col_11),z_pi,tm_pi,sp_pi,dx_pi,dy_pi,dz_pi
 ,Pass,x_pl,y_pl + pl_col_pitch*(9),z_pl - dzz,tm_pi,sp_pi,dx_pl,dy_pl,dz_pl
          _TEC10,Z Place,x_pl,y_pl + pl_col_pitch*(9),z_pl,tm_pl,sp_pl,dx_pl,dy_pl,dz_pl
HOME,Pass,0,0,0,1,10,0.05,0.05,0.15
