Name,Type,x,y,z,Time,Speed,Delta x,Delta y,Delta z
 ,Pass,85.255,195.4,25.73,1.0,10.0,0.05,0.05,0.15
Pick_Config,Pass,xp = 80.53,yp = 33.78,zp = 22.74,1.0,10.0,0.05,0.05,0.15
,Pass,x1 = 80.53,x20 = 122.125,d_xx = (x20 - x1) / 19,,,,,
,Pass,y1 = 38.2,y20 = 38.410,del_yy = (y20 - y1) / 19,,,,,
,Pass,lin_pk_pitch = d_xx,col_pk_pitch = 2.2,spd = 10,tm_pk = 0.05,10.0,0.05,0.05,0.15
,Pass,Coluna_Pick = 7,col_pk = Coluna_Pick - 1,,,10.0,0.05,0.05,0.15
,Pass,dtx = 0.1,dty = 0.1,dtz = 0.25,1.0,10.0,0.05,0.05,0.15
Pick1_Config,Pass,xp1 = 84.955,yp1 = 195.4,zp1 = 25.74,,,,,
,Pass,lin_pk1_pitch = 0.075,col_pk1_pitch = 0.075,dtz1 = 0.9,,,,,
,Pass,Coluna_Cola = 1,col_pk1= Coluna_Cola -1,spd2 = 1,tm_pk1 = 2.0,,,,
Place_Config,Pass,xx = 36.80 - (0.47),yy = 128.05 + (1.48),zz = 30.975 + 0.02,1.0,10.0,0.05,0.05,0.15
,Pass,lin_pl_pitch = 2.40,col_pl_pitch = 3.10,spd3 = 0.5,1.0,10.0,0.05,0.05,0.15
,Pass,Block_Place = 2,blo_pl = Block_Place - 1,tm_pl = 4.0,dtz2 = 0.5,0.0,0,0,0
Cal_Pick P1,Pass,x1 + lin_pk_pitch*(0),yp + col_pk_pitch*(col_pk) + del_yy*(0),zp-0.3,tm_pk,10.0,0.15,0.2,0.25
Cal_Pick P20,Pass,x1 + lin_pk_pitch*(19),yp + col_pk_pitch*(col_pk) + del_yy*(19),zp-0.3,tm_pk,10.0,0.15,0.2,0.25
Cal_Cola,Pass,xp1 + lin_pk1_pitch*(0),yp1 + col_pk1_pitch*(col_pk1),zp1,2.0,spd,0.1,0.1,0.25
Cal Place,Pass,xx + lin_pl_pitch*0,yy + col_pl_pitch*(0 + 3*blo_pl),zz-0.3,1.0,10.0,0.05,0.05,0.15
Pterm_(01),Pick,x1 + lin_pk_pitch*(0),yp + col_pk_pitch*(col_pk) + del_yy*(0),zp,tm_pk,spd,dtx,dty,dtz
P_ref,Pick,xp,yp,zp,tm_pk,spd,dtx,dty,dtz
Pcola_1,Pass,xp1 + lin_pk1_pitch*(0),yp1 + col_pk1_pitch*(col_pk1),zp1 - dtz1,tm_pk1,spd,0.1,0.1,0.25
,Z Pass,xp1 + lin_pk1_pitch*(0),yp1 + col_pk1_pitch*(col_pk1),zp1,tm_pk1,spd2,0.1,0.1,0.25
,Z Pass,xp1 + lin_pk1_pitch*(0),yp1 + col_pk1_pitch*(col_pk1),zp1 - dtz1,tm_pk1,spd2,0.1,0.1,0.25
P(1;1),Pass,xx + lin_pl_pitch*(0),yy + col_pl_pitch*(0 + 3*blo_pl),zz - dtz2,tm_pl,spd,0.05,0.05,0.15
,Z Place,xx + lin_pl_pitch*(0),yy + col_pl_pitch*(0 + 3*blo_pl),zz,tm_pl,spd3,0.05,0.05,0.15
Pterm_(02),Pick,x1 + lin_pk_pitch*(1),yp + col_pk_pitch*(col_pk) + del_yy*(1),zp,tm_pk,spd,dtx,dty,dtz
P_ref,Pick,xp,yp,zp,tm_pk,spd,dtx,dty,dtz
Pcola_2,Pass,xp1 + lin_pk1_pitch*(1),yp1 + col_pk1_pitch*(col_pk1),zp1 - dtz1,tm_pk1,spd,0.1,0.1,0.25
,Z Pass,xp1 + lin_pk1_pitch*(1),yp1 + col_pk1_pitch*(col_pk1),zp1 ,tm_pk1,spd2,0.1,0.1,0.25
,Z Pass,xp1 + lin_pk1_pitch*(1),yp1 + col_pk1_pitch*(col_pk1),zp1 - dtz1,tm_pk1,spd2,0.1,0.1,0.25
P(2;1),Pass,xx + lin_pl_pitch*(1),yy + col_pl_pitch*(0 + 3*blo_pl),zz - dtz2,tm_pl,spd,0.05,0.05,0.15
,Z Place,xx + lin_pl_pitch*(1),yy + col_pl_pitch*(0 + 3*blo_pl),zz,tm_pl,spd3,0.05,0.05,0.15
Pterm_(03),Pick,x1 + lin_pk_pitch*(2),yp + col_pk_pitch*(col_pk) + del_yy*(2),zp,tm_pk,spd,dtx,dty,dtz
P_ref,Pick,xp,yp,zp,tm_pk,spd,dtx,dty,dtz
Pcola_3,Pass,xp1 + lin_pk1_pitch*(2),yp1 + col_pk1_pitch*(col_pk1),zp1 - dtz1,tm_pk1,spd,0.1,0.1,0.25
,Z Pass,xp1 + lin_pk1_pitch*(2),yp1 + col_pk1_pitch*(col_pk1),zp1,tm_pk1,spd2,0.1,0.1,0.25
,Z Pass,xp1 + lin_pk1_pitch*(2),yp1 + col_pk1_pitch*(col_pk1),zp1 - dtz1,tm_pk1,spd2,0.1,0.1,0.25
P(3;1),Pass,xx + lin_pl_pitch*(2),yy + col_pl_pitch*(0 + 3*blo_pl),zz - dtz2,tm_pl,spd,0.05,0.05,0.15
,Z Place,xx + lin_pl_pitch*(2),yy + col_pl_pitch*(0 + 3*blo_pl),zz,tm_pl,spd3,0.05,0.05,0.15
Pterm_(04),Pick,x1 + lin_pk_pitch*(3),yp + col_pk_pitch*(col_pk) + del_yy*(3),zp,tm_pk,spd,dtx,dty,dtz
P_ref,Pick,xp,yp,zp,tm_pk,spd,dtx,dty,dtz
Pcola_4,Pass,xp1 + lin_pk1_pitch*(3),yp1 + col_pk1_pitch*(col_pk1),zp1 - dtz1,tm_pk1,spd,0.1,0.1,0.25
,Z Pass,xp1 + lin_pk1_pitch*(3),yp1 + col_pk1_pitch*(col_pk1),zp1,tm_pk1,spd2,0.1,0.1,0.25
,Z Pass,xp1 + lin_pk1_pitch*(3),yp1 + col_pk1_pitch*(col_pk1),zp1 - dtz1,tm_pk1,spd2,0.1,0.1,0.25
P(4;1),Pass,xx + lin_pl_pitch*(3),yy + col_pl_pitch*(0 + 3*blo_pl),zz - dtz2,tm_pl,spd,0.05,0.05,0.15
,Z Place,xx + lin_pl_pitch*(3),yy + col_pl_pitch*(0 + 3*blo_pl),zz,tm_pl,spd3,0.05,0.05,0.15
Pterm_(05),Pick,x1 + lin_pk_pitch*(4),yp + col_pk_pitch*(col_pk) + del_yy*(4),zp,tm_pk,spd,dtx,dty,dtz
P_ref,Pick,xp,yp,zp,tm_pk,spd,dtx,dty,dtz
Pcola_5,Pass,xp1 + lin_pk1_pitch*(4),yp1 + col_pk1_pitch*(col_pk1),zp1 - dtz1,tm_pk1,spd,0.1,0.1,0.25
,Z Pass,xp1 + lin_pk1_pitch*(4),yp1 + col_pk1_pitch*(col_pk1),zp1,tm_pk1,spd2,0.1,0.1,0.25
,Z Pass,xp1 + lin_pk1_pitch*(4),yp1 + col_pk1_pitch*(col_pk1),zp1 - dtz1,tm_pk1,spd2,0.1,0.1,0.25
P(5;1),Pass,xx + lin_pl_pitch*(4),yy + col_pl_pitch*(0 + 3*blo_pl),zz - dtz2,tm_pl,spd,0.05,0.05,0.15
,Z Place,xx + lin_pl_pitch*(4),yy + col_pl_pitch*(0 + 3*blo_pl),zz,tm_pl,spd3,0.05,0.05,0.15
Pterm_(06),Pick,x1 + lin_pk_pitch*(5),yp + col_pk_pitch*(col_pk) + del_yy*(5),zp,tm_pk,spd,dtx,dty,dtz
P_ref,Pick,xp,yp,zp,tm_pk,spd,dtx,dty,dtz
Pcola_6,Pass,xp1 + lin_pk1_pitch*(5),yp1 + col_pk1_pitch*(col_pk1),zp1 - dtz1,tm_pk1,spd,0.1,0.1,0.25
,Z Pass,xp1 + lin_pk1_pitch*(5),yp1 + col_pk1_pitch*(col_pk1),zp1,tm_pk1,spd2,0.1,0.1,0.25
,Z Pass,xp1 + lin_pk1_pitch*(5),yp1 + col_pk1_pitch*(col_pk1),zp1 - dtz1,tm_pk1,spd2,0.1,0.1,0.25
P(6;1),Pass,xx + lin_pl_pitch*(5),yy + col_pl_pitch*(0 + 3*blo_pl),zz - dtz2,tm_pl,spd,0.05,0.05,0.15
,Z Place,xx + lin_pl_pitch*(5),yy + col_pl_pitch*(0 + 3*blo_pl),zz,tm_pl,spd3,0.05,0.05,0.15
Pterm_(07),Pick,x1 + lin_pk_pitch*(6),yp + col_pk_pitch*(col_pk) + del_yy*(6),zp,tm_pk,spd,dtx,dty,dtz
P_ref,Pick,xp,yp,zp,tm_pk,spd,dtx,dty,dtz
Pcola_7,Pass,xp1 + lin_pk1_pitch*(6),yp1 + col_pk1_pitch*(col_pk1),zp1 - dtz1,tm_pk1,spd,0.1,0.1,0.25
,Z Pass,xp1 + lin_pk1_pitch*(6),yp1 + col_pk1_pitch*(col_pk1),zp1,tm_pk1,spd2,0.1,0.1,0.25
,Z Pass,xp1 + lin_pk1_pitch*(6),yp1 + col_pk1_pitch*(col_pk1),zp1 - dtz1,tm_pk1,spd2,0.1,0.1,0.25
P(1;2),Pass,xx + lin_pl_pitch*(0),yy + col_pl_pitch*(1 + 3*blo_pl),zz - dtz2,tm_pl,spd,0.05,0.05,0.15
,Z Place,xx + lin_pl_pitch*(0),yy + col_pl_pitch*(1 + 3*blo_pl),zz,tm_pl,spd3,0.05,0.05,0.15
Pterm_(08),Pick,x1 + lin_pk_pitch*(7),yp + col_pk_pitch*(col_pk) + del_yy*(7),zp,tm_pk,spd,dtx,dty,dtz
P_ref,Pick,xp,yp,zp,tm_pk,spd,dtx,dty,dtz
Pcola_8,Pass,xp1 + lin_pk1_pitch*(7),yp1 + col_pk1_pitch*(col_pk1),zp1 - dtz1,tm_pk1,spd,0.1,0.1,0.25
,Z Pass,xp1 + lin_pk1_pitch*(7),yp1 + col_pk1_pitch*(col_pk1),zp1,tm_pk1,spd2,0.1,0.1,0.25
,Z Pass,xp1 + lin_pk1_pitch*(7),yp1 + col_pk1_pitch*(col_pk1),zp1 - dtz1,tm_pk1,spd2,0.1,0.1,0.25
P(2;2),Pass,xx + lin_pl_pitch*(1),yy + col_pl_pitch*(1 + 3*blo_pl),zz - dtz2,tm_pl,spd,0.05,0.05,0.15
,Z Place,xx + lin_pl_pitch*(1),yy + col_pl_pitch*(1 + 3*blo_pl),zz,tm_pl,spd3,0.05,0.05,0.15
Pterm_(09),Pick,x1 + lin_pk_pitch*(8),yp + col_pk_pitch*(col_pk) + del_yy*(8),zp,tm_pk,spd,dtx,dty,dtz
P_ref,Pick,xp,yp,zp,tm_pk,spd,dtx,dty,dtz
Pcola_9,Pass,xp1 + lin_pk1_pitch*(8),yp1 + col_pk1_pitch*(col_pk1),zp1 - dtz1,tm_pk1,spd,0.1,0.1,0.25
,Z Pass,xp1 + lin_pk1_pitch*(8),yp1 + col_pk1_pitch*(col_pk1),zp1,tm_pk1,spd2,0.1,0.1,0.25
,Z Pass,xp1 + lin_pk1_pitch*(8),yp1 + col_pk1_pitch*(col_pk1),zp1 - dtz1,tm_pk1,spd2,0.1,0.1,0.25
P(3;2),Pass,xx + lin_pl_pitch*(2),yy + col_pl_pitch*(1 + 3*blo_pl),zz - dtz2,tm_pl,spd,0.05,0.05,0.15
,Z Place,xx + lin_pl_pitch*(2),yy + col_pl_pitch*(1 + 3*blo_pl),zz,tm_pl,spd3,0.05,0.05,0.15
Pterm_(10),Pick,x1 + lin_pk_pitch*(9),yp + col_pk_pitch*(col_pk) + del_yy*(9),zp,tm_pk,spd,dtx,dty,dtz
P_ref,Pick,xp,yp,zp,tm_pk,spd,dtx,dty,dtz
Pcola_10,Pass,xp1 + lin_pk1_pitch*(9),yp1 + col_pk1_pitch*(col_pk1),zp1 - dtz1,tm_pk1,spd,0.1,0.1,0.25
,Z Pass,xp1 + lin_pk1_pitch*(9),yp1 + col_pk1_pitch*(col_pk1),zp1,tm_pk1,spd2,0.1,0.1,0.25
,Z Pass,xp1 + lin_pk1_pitch*(9),yp1 + col_pk1_pitch*(col_pk1),zp1 - dtz1,tm_pk1,spd2,0.1,0.1,0.25
P(4;2),Pass,xx + lin_pl_pitch*(3),yy + col_pl_pitch*(1 + 3*blo_pl),zz - dtz2,tm_pl,spd,0.05,0.05,0.15
,Z Place,xx + lin_pl_pitch*(3),yy + col_pl_pitch*(1 + 3*blo_pl),zz,tm_pl,spd3,0.05,0.05,0.15
Pterm_(11),Pick,x1 + lin_pk_pitch*(10),yp + col_pk_pitch*(col_pk) + del_yy*(10),zp,tm_pk,spd,dtx,dty,dtz
P_ref,Pick,xp,yp,zp,tm_pk,spd,dtx,dty,dtz
Pcola_11,Pass,xp1 + lin_pk1_pitch*(10),yp1 + col_pk1_pitch*(col_pk1),zp1 - dtz1,tm_pk1,spd,0.1,0.1,0.25
,Z Pass,xp1 + lin_pk1_pitch*(10),yp1 + col_pk1_pitch*(col_pk1),zp1,tm_pk1,spd2,0.1,0.1,0.25
,Z Pass,xp1 + lin_pk1_pitch*(10),yp1 + col_pk1_pitch*(col_pk1),zp1 - dtz1,tm_pk1,spd2,0.1,0.1,0.25
P(5;2),Pass,xx + lin_pl_pitch*(4),yy + col_pl_pitch*(1 + 3*blo_pl),zz - dtz2,tm_pl,spd,0.05,0.05,0.15
,Z Place,xx + lin_pl_pitch*(4),yy + col_pl_pitch*(1 + 3*blo_pl),zz,tm_pl,spd3,0.05,0.05,0.15
Pterm_(12),Pick,x1 + lin_pk_pitch*(11),yp + col_pk_pitch*(col_pk) + del_yy*(11),zp,tm_pk,spd,dtx,dty,dtz
P_ref,Pick,xp,yp,zp,tm_pk,spd,dtx,dty,dtz
Pcola_12,Pass,xp1 + lin_pk1_pitch*(11),yp1 + col_pk1_pitch*(col_pk1),zp1 - dtz1,tm_pk1,spd,0.1,0.1,0.25
,Z Pass,xp1 + lin_pk1_pitch*(11),yp1 + col_pk1_pitch*(col_pk1),zp1,tm_pk1,spd2,0.1,0.1,0.25
,Z Pass,xp1 + lin_pk1_pitch*(11),yp1 + col_pk1_pitch*(col_pk1),zp1 - dtz1,tm_pk1,spd2,0.1,0.1,0.25
P(6;2),Pass,xx + lin_pl_pitch*(5),yy + col_pl_pitch*(1 + 3*blo_pl),zz - dtz2,tm_pl,spd,0.05,0.05,0.15
,Z Place,xx + lin_pl_pitch*(5),yy + col_pl_pitch*(1 + 3*blo_pl),zz,tm_pl,spd3,0.05,0.05,0.15
Pterm_(13),Pick,x1 + lin_pk_pitch*(12),yp + col_pk_pitch*(col_pk) + del_yy*(12),zp,tm_pk,spd,dtx,dty,dtz
P_ref,Pick,xp,yp,zp,tm_pk,spd,dtx,dty,dtz
Pcola_13,Pass,xp1 + lin_pk1_pitch*(12),yp1 + col_pk1_pitch*(col_pk1),zp1 - dtz1,tm_pk1,spd,0.1,0.1,0.25
,Z Pass,xp1 + lin_pk1_pitch*(12),yp1 + col_pk1_pitch*(col_pk1),zp1,tm_pk1,spd2,0.1,0.1,0.25
,Z Pass,xp1 + lin_pk1_pitch*(12),yp1 + col_pk1_pitch*(col_pk1),zp1 - dtz1,tm_pk1,spd2,0.1,0.1,0.25
P(1;3),Pass,xx + lin_pl_pitch*(0),yy + col_pl_pitch*(2 + 3*blo_pl),zz - dtz2,tm_pl,spd,0.05,0.05,0.15
,Z Place,xx + lin_pl_pitch*(0),yy + col_pl_pitch*(2 + 3*blo_pl),zz,tm_pl,spd3,0.05,0.05,0.15
Pterm_(14),Pick,x1 + lin_pk_pitch*(13),yp + col_pk_pitch*(col_pk) + del_yy*(13),zp,tm_pk,spd,dtx,dty,dtz
P_ref,Pick,xp,yp,zp,tm_pk,spd,dtx,dty,dtz
Pcola_14,Pass,xp1 + lin_pk1_pitch*(13),yp1 + col_pk1_pitch*(col_pk1),zp1 - dtz1,tm_pk1,spd,0.1,0.1,0.25
,Z Pass,xp1 + lin_pk1_pitch*(13),yp1 + col_pk1_pitch*(col_pk1),zp1,tm_pk1,spd2,0.1,0.1,0.25
,Z Pass,xp1 + lin_pk1_pitch*(13),yp1 + col_pk1_pitch*(col_pk1),zp1 - dtz1,tm_pk1,spd2,0.1,0.1,0.25
P(2;3),Pass,xx + lin_pl_pitch*(1),yy + col_pl_pitch*(2 + 3*blo_pl),zz - dtz2,tm_pl,spd,0.05,0.05,0.15
,Z Place,xx + lin_pl_pitch*(1),yy + col_pl_pitch*(2 + 3*blo_pl),zz,tm_pl,spd3,0.05,0.05,0.15
Pterm_(15),Pick,x1 + lin_pk_pitch*(14),yp + col_pk_pitch*(col_pk) + del_yy*(14),zp,tm_pk,spd,dtx,dty,dtz
P_ref,Pick,xp,yp,zp,tm_pk,spd,dtx,dty,dtz
Pcola_15,Pass,xp1 + lin_pk1_pitch*(14),yp1 + col_pk1_pitch*(col_pk1),zp1 - dtz1,tm_pk1,spd,0.1,0.1,0.25
,Z Pass,xp1 + lin_pk1_pitch*(14),yp1 + col_pk1_pitch*(col_pk1),zp1,tm_pk1,spd2,0.1,0.1,0.25
,Z Pass,xp1 + lin_pk1_pitch*(14),yp1 + col_pk1_pitch*(col_pk1),zp1 - dtz1,tm_pk1,spd2,0.1,0.1,0.25
P(3;3),Pass,xx + lin_pl_pitch*(2),yy + col_pl_pitch*(2 + 3*blo_pl),zz - dtz2,tm_pl,spd,0.05,0.05,0.15
,Z Place,xx + lin_pl_pitch*(2),yy + col_pl_pitch*(2 + 3*blo_pl),zz,tm_pl,spd3,0.05,0.05,0.15
Pterm_(16),Pick,x1 + lin_pk_pitch*(15),yp + col_pk_pitch*(col_pk) + del_yy*(15),zp,tm_pk,spd,dtx,dty,dtz
P_ref,Pick,xp,yp,zp,tm_pk,spd,dtx,dty,dtz
Pcola_16,Pass,xp1 + lin_pk1_pitch*(15),yp1 + col_pk1_pitch*(col_pk1),zp1 - dtz1,tm_pk1,spd,0.1,0.1,0.25
,Z Pass,xp1 + lin_pk1_pitch*(15),yp1 + col_pk1_pitch*(col_pk1),zp1,tm_pk1,spd2,0.1,0.1,0.25
,Z Pass,xp1 + lin_pk1_pitch*(15),yp1 + col_pk1_pitch*(col_pk1),zp1 - dtz1,tm_pk1,spd2,0.1,0.1,0.25
P(4;3),Pass,xx + lin_pl_pitch*(3),yy + col_pl_pitch*(2 + 3*blo_pl),zz - dtz2,tm_pl,spd,0.05,0.05,0.15
,Z Place,xx + lin_pl_pitch*(3),yy + col_pl_pitch*(2 + 3*blo_pl),zz,tm_pl,spd3,0.05,0.05,0.15
Pterm_(17),Pick,x1 + lin_pk_pitch*(16),yp + col_pk_pitch*(col_pk) + del_yy*(16),zp,tm_pk,spd,dtx,dty,dtz
P_ref,Pick,xp,yp,zp,tm_pk,spd,dtx,dty,dtz
Pcola_17,Pass,xp1 + lin_pk1_pitch*(16),yp1 + col_pk1_pitch*(col_pk1),zp1 - dtz1,tm_pk1,spd,0.1,0.1,0.25
,Z Pass,xp1 + lin_pk1_pitch*(16),yp1 + col_pk1_pitch*(col_pk1),zp1,tm_pk1,spd2,0.1,0.1,0.25
,Z Pass,xp1 + lin_pk1_pitch*(16),yp1 + col_pk1_pitch*(col_pk1),zp1 - dtz1,tm_pk1,spd2,0.1,0.1,0.25
P(5;3),Pass,xx + lin_pl_pitch*(4),yy + col_pl_pitch*(2 + 3*blo_pl),zz - dtz2,tm_pl,spd,0.05,0.05,0.15
,Z Place,xx + lin_pl_pitch*(4),yy + col_pl_pitch*(2 + 3*blo_pl),zz,tm_pl,spd3,0.05,0.05,0.15
Pterm_(18),Pick,x1 + lin_pk_pitch*(17),yp + col_pk_pitch*(col_pk) + del_yy*(17),zp,tm_pk,spd,dtx,dty,dtz
P_ref,Pick,xp,yp,zp,tm_pk,spd,dtx,dty,dtz
Pcola_18,Pass,xp1 + lin_pk1_pitch*(17),yp1 + col_pk1_pitch*(col_pk1),zp1 - dtz1,tm_pk1,spd,0.1,0.1,0.25
,Z Pass,xp1 + lin_pk1_pitch*(17),yp1 + col_pk1_pitch*(col_pk1),zp1,tm_pk1,spd2,0.1,0.1,0.25
,Z Pass,xp1 + lin_pk1_pitch*(17),yp1 + col_pk1_pitch*(col_pk1),zp1 - dtz1,tm_pk1,spd2,0.1,0.1,0.25
P(6;3),Pass,xx + lin_pl_pitch*(5),yy + col_pl_pitch*(2 + 3*blo_pl),zz - dtz2,tm_pl,spd,0.05,0.05,0.15
,Z Place,xx + lin_pl_pitch*(5),yy + col_pl_pitch*(2 + 3*blo_pl),zz,tm_pl,spd3,0.05,0.05,0.15
