Name,Type,x,y,z,Time,Speed,Delta x,Delta y,Delta z
 ,Pass,36.9,128.78,30.89,1.0,10.0,0.05,0.05,0.15
Pick_Config,Pass,xp = 81.0,yp = 121.20,zp = 30.53,1.0,10.0,0.05,0.05,0.15
Pk,Pass,lin_pk_pitch = 4.10 +0.02,col_pk_pitch=2.50,,1.0,10.0,0.05,0.05,0.15
Pk,Pass,LinhaPick = 2,lin_pk = LinhaPick - 1,,1.0,10.0,0.05,0.05,0.15
Place_Config,Pass,xo = 36.82,yo=128.75,zz = 31.330,1.0,10.0,0.05,0.05,0.15
Pl,Pass,lin_pl_pitch = 2.40,col_pl_pitch = 3.10,,1.0,10.0,0.05,0.05,0.15
Pl,Pass,ColPlace = 1,col_pl = lin_pk,,1.0,10.0,0.15,0.2,0.25
,Pass,q_x = 18.20,q_y = 28.50,,tm,10.0,0.05,0.05,0.15
Q1 : Q(1;1),Pass,Linha_i = 1,Coluna_j = 1,,,,,,
Q2 : Q(1;2),Pass,Linha_i = 1,Coluna_j = 2,,,,,,
Q3 : Q(2;1),Pass,Linha_i = 2,Coluna_j = 1,,,,,,
Q4 : Q(2;2),Pass,Linha_i = 2,Coluna_j = 2,,,,,,
Quadrante Q(ii;jj),Pass,ii = 1,jj = 1,,,,,,
,Pass,xx = xo + q_x*(ii-1),yy = yo + q_y*(jj-1),,,,,,
Cal_Pick,Pass,xp+lin_pk_pitch*(lin_pk),yp + col_pk_pitch*(0),zp - 0.5,0.1,10.0,0.12,0.17,0.15
Cal_Place,Pass,xx + lin_pl_pitch*(0),yy + col_pl_pitch*(0) + (col_pl*12.4),zz - 0.5,0.1,10.0,0.12,0.17,0.25
Pk(1;01) --> Pl(1;1),Pick,xp + lin_pk_pitch*(lin_pk),yp + col_pk_pitch*(0),zp,1.0,10.0,0.12,0.25,0.25
,Pick,xp + lin_pk_pitch*(0),yp + col_pk_pitch*(0),zp,0.1,10.0,0.12,0.25,0.25
,Place,xx + lin_pl_pitch*(0),yy + col_pl_pitch*(0) + (col_pl*12.4),zz,0.1,10.0,0.12,0.25,0.15
Pk(1;02) --> Pl(2;1),Pick,xp + lin_pk_pitch*(lin_pk),yp + col_pk_pitch*(1),zp + 0.01,1.0,10.0,0.12,0.25,0.25
,Pick,xp + lin_pk_pitch*(0),yp + col_pk_pitch*(0),zp,0.1,10.0,0.12,0.25,0.25
,Place,xx + lin_pl_pitch*(1),yy + col_pl_pitch*(0) + (col_pl*12.4),zz,0.1,10.0,0.12,0.25,0.25
Pk(1;03) -->Pl(3;1),Pick,xp + lin_pk_pitch*(lin_pk),yp + col_pk_pitch*(2),zp,1.0,10.0,0.12,0.25,0.15
,Pick,xp + lin_pk_pitch*(0),yp + col_pk_pitch*(0),zp,0.1,10.0,0.12,0.25,0.25
,Place,xx + lin_pl_pitch*(2),yy + col_pl_pitch*(0) + (col_pl*12.4),zz,0.1,10.0,0.12,0.25,0.25
Pk(1;04) --> Pl(4;1),Pick,xp + lin_pk_pitch*(lin_pk),yp + col_pk_pitch*(3),zp+0.02,1.0,10.0,0.12,0.25,0.25
,Pick,xp + lin_pk_pitch*(0),yp + col_pk_pitch*(0),zp,0.1,10.0,0.12,0.25,0.25
,Place,xx + lin_pl_pitch*(3),yy + col_pl_pitch*(0) + (col_pl*12.4),zz,0.1,10.0,0.12,0.25,0.15
Pk(1;05) --> Pl(5;1),Pick,xp + lin_pk_pitch*(lin_pk),yp + col_pk_pitch*(4),zp + 0.02,1.0,10.0,0.12,0.25,0.25
,Pick,xp + lin_pk_pitch*(0),yp + col_pk_pitch*(0),zp,0.1,10.0,0.12,0.25,0.25
,Place,xx + lin_pl_pitch*(4),yy + col_pl_pitch*(0) + (col_pl*12.4),zz,0.1,10.0,0.12,0.25,0.25
Pk(1;06) --> Pl(6;1),Pick,xp + lin_pk_pitch*(lin_pk),yp + col_pk_pitch*(5),zp,1.0,10.0,0.12,0.25,0.15
,Pick,xp + lin_pk_pitch*(0),yp + col_pk_pitch*(0),zp,0.1,10.0,0.12,0.25,0.25
,Place,xx + lin_pl_pitch*(5),yy + col_pl_pitch*(0) + (col_pl*12.4),zz,0.1,10.0,0.12,0.25,0.25
Pk(1;07) --> Pl(1;2),Pick,xp + lin_pk_pitch*(lin_pk),yp + col_pk_pitch*(6),zp,1.0,10.0,0.12,0.25,0.25
,Pick,xp + lin_pk_pitch*(0),yp + col_pk_pitch*(0),zp,0.1,10.0,0.12,0.25,0.25
,Place,xx + lin_pl_pitch*(0),yy + col_pl_pitch*(1) + (col_pl*12.4),zz,0.1,10.0,0.12,0.25,0.15
Pk(1;08) --> Pl(2;2),Pick,xp + lin_pk_pitch*(lin_pk),yp + col_pk_pitch*(7),zp,1.0,10.0,0.12,0.25,0.25
,Pick,xp + lin_pk_pitch*(0),yp + col_pk_pitch*(0),zp,0.1,10.0,0.12,0.25,0.25
,Place,xx + lin_pl_pitch*(1),yy + col_pl_pitch*(1) + (col_pl*12.4),zz,0.1,10.0,0.12,0.25,0.25
Pk(1;09) --> Pl(3;2),Pick,xp + lin_pk_pitch*(lin_pk),yp + col_pk_pitch*(8),zp,1.0,10.0,0.12,0.25,0.15
,Pick,xp + lin_pk_pitch*(0),yp + col_pk_pitch*(0),zp,0.1,10.0,0.12,0.25,0.25
,Place,xx + lin_pl_pitch*(2),yy + col_pl_pitch*(1) + (col_pl*12.4),zz,0.1,10.0,0.12,0.25,0.25
Pk(1;10) --> Pl(4;2),Pick,xp + lin_pk_pitch*(lin_pk),yp + col_pk_pitch*(9),zp + 0.01,1.0,10.0,0.12,0.25,0.25
,Pick,xp + lin_pk_pitch*(0),yp + col_pk_pitch*(0),zp,0.1,10.0,0.12,0.25,0.25
,Place,xx + lin_pl_pitch*(3),yy + col_pl_pitch*(1) + (col_pl*12.4),zz,0.1,10.0,0.12,0.25,0.15
Pk(1;11) --> Pl(5;2),Pick,xp + lin_pk_pitch*(lin_pk),yp + col_pk_pitch*(10),zp,1.0,10.0,0.12,0.25,0.25
,Pick,xp + lin_pk_pitch*(0),yp + col_pk_pitch*(0),zp,0.1,10.0,0.12,0.25,0.25
,Place,xx + lin_pl_pitch*(4),yy + col_pl_pitch*(1) + (col_pl*12.4),zz,0.1,10.0,0.12,0.25,0.15
Pk(1;12) --> Pl(6;2),Pick,xp + lin_pk_pitch*(lin_pk),yp + col_pk_pitch*(11),zp + 0.01,1.0,10.0,0.12,0.25,0.25
,Pick,xp + lin_pk_pitch*(0),yp + col_pk_pitch*(0),zp,0.1,10.0,0.12,0.25,0.25
,Place,xx + lin_pl_pitch*(5),yy + col_pl_pitch*(1) + (col_pl*12.4),zz,0.1,10.0,0.12,0.25,0.25
Pk(1;13) --> Pl(1;3),Pick,xp + lin_pk_pitch*(lin_pk),yp + col_pk_pitch*(12),zp,1.0,10.0,0.12,0.25,0.15
,Pick,xp + lin_pk_pitch*(0),yp + col_pk_pitch*(0),zp,0.1,10.0,0.12,0.25,0.25
,Place,xx + lin_pl_pitch*(0),yy + col_pl_pitch*(2) + (col_pl*12.4),zz,0.1,10.0,0.12,0.25,0.25
Pk(1;14) --> Pl(2;3),Pick,xp + lin_pk_pitch*(lin_pk),yp + col_pk_pitch*(13),zp,1.0,10.0,0.12,0.25,0.25
,Pick,xp + lin_pk_pitch*(0),yp + col_pk_pitch*(0),zp,0.1,10.0,0.12,0.25,0.25
,Place,xx + lin_pl_pitch*(1),yy + col_pl_pitch*(2) + (col_pl*12.4),zz,0.1,10.0,0.12,0.25,0.15
Pk(1;15) --> Pl(3;3),Pick,xp + lin_pk_pitch*(lin_pk),yp + col_pk_pitch*(14),zp,1.0,10.0,0.12,0.25,0.25
,Pick,xp + lin_pk_pitch*(0),yp + col_pk_pitch*(0),zp,0.1,10.0,0.12,0.25,0.25
,Place,xx + lin_pl_pitch*(2),yy + col_pl_pitch*(2) + (col_pl*12.4),zz,0.1,10.0,0.12,0.25,0.25
Pk(1;16) --> Pl(4;3),Pick,xp + lin_pk_pitch*(lin_pk),yp + col_pk_pitch*(15),zp,1.0,10.0,0.12,0.25,0.15
,Pick,xp + lin_pk_pitch*(0),yp + col_pk_pitch*(0),zp,0.1,10.0,0.12,0.25,0.25
,Place,xx + lin_pl_pitch*(3),yy + col_pl_pitch*(2) + (col_pl*12.4),zz,0.1,10.0,0.12,0.25,0.25
Pk(1;17) --> Pl(5;3),Pick,xp + lin_pk_pitch*(lin_pk),yp + col_pk_pitch*(16),zp + 0.01,1.0,10.0,0.12,0.25,0.25
,Pick,xp + lin_pk_pitch*(0),yp + col_pk_pitch*(0),zp,0.1,10.0,0.12,0.25,0.25
,Place,xx + lin_pl_pitch*(4),yy + col_pl_pitch*(2) + (col_pl*12.4),zz,0.1,10.0,0.12,0.25,0.15
Pk(1;18) --> Pl(6;3),Pick,xp + lin_pk_pitch*(lin_pk),yp + col_pk_pitch*(17),zp + 0.015,1.0,10.0,0.12,0.25,0.25
,Pick,xp + lin_pk_pitch*(0),yp + col_pk_pitch*(0),zp,0.1,10.0,0.12,0.25,0.25
,Place,xx + lin_pl_pitch*(5),yy + col_pl_pitch*(2) + (col_pl*12.4),zz,0.1,10.0,0.12,0.25,0.25
Pk(1;19) --> Pl(1;4),Pick,xp + lin_pk_pitch*(lin_pk),yp + col_pk_pitch*(18),zp,1.0,10.0,0.12,0.25,0.15
,Pick,xp + lin_pk_pitch*(0),yp + col_pk_pitch*(0),zp,0.1,10.0,0.12,0.25,0.25
,Place,xx + lin_pl_pitch*(0),yy + col_pl_pitch*(3) + (col_pl*12.4),zz,0.1,10.0,0.12,0.25,0.25
Pk(1;20) --> Pl(2;4),Pick,xp + lin_pk_pitch*(lin_pk),yp + col_pk_pitch*(19),zp + 0.035,1.0,10.0,0.12,0.25,0.25
,Pick,xp + lin_pk_pitch*(0),yp + col_pk_pitch*(0),zp,0.1,10.0,0.12,0.25,0.25
,Place,xx + lin_pl_pitch*(1),yy + col_pl_pitch*(3) + (col_pl*12.4),zz,0.1,10.0,0.12,0.25,0.15
Pk(1;21) --> Pl(3;4),Pick,xp + lin_pk_pitch*(lin_pk),yp + col_pk_pitch*(20),zp + 0.035,1.0,10.0,0.12,0.25,0.25
,Pick,xp + lin_pk_pitch*(0),yp + col_pk_pitch*(0),zp,0.1,10.0,0.12,0.25,0.25
,Place,xx + lin_pl_pitch*(2),yy + col_pl_pitch*(3) + (col_pl*12.4),zz,0.1,10.0,0.12,0.25,0.25
Pk(1;22) --> Pl(4;4),Pick,xp + lin_pk_pitch*(lin_pk),yp + col_pk_pitch*(21),zp + 0.035,1.0,10.0,0.12,0.25,0.15
,Pick,xp + lin_pk_pitch*(0),yp + col_pk_pitch*(0),zp,0.1,10.0,0.12,0.25,0.25
,Place,xx + lin_pl_pitch*(3),yy + col_pl_pitch*(3) + (col_pl*12.4),zz,0.1,10.0,0.12,0.25,0.15
Pk(1;23) --> Pl(5;4),Pick,xp + lin_pk_pitch*(lin_pk),yp + col_pk_pitch*(22),zp + 0.05,1.0,10.0,0.12,0.25,0.25
,Pick,xp + lin_pk_pitch*(0),yp + col_pk_pitch*(0),zp,0.1,10.0,0.12,0.25,0.25
,Place,xx + lin_pl_pitch*(4),yy + col_pl_pitch*(3) + (col_pl*12.4),zz,0.1,10.0,0.12,0.25,0.25
Pk(1;24) --> Pl(6;4),Pick,xp + lin_pk_pitch*(lin_pk),yp + col_pk_pitch*(23),zp + 0.02,1.0,10.0,0.12,0.25,0.15
,Pick,xp + lin_pk_pitch*(0),yp + col_pk_pitch*(0),zp,0.1,10.0,0.12,0.25,0.25
,Place,xx + lin_pl_pitch*(5),yy + col_pl_pitch*(3) + (col_pl*12.4),zz,0.1,10.0,0.12,0.25,0.25
Program,Pass,0.0,0.0,0.0,1.0,10.0,0.05,0.05,0.15
Home,Pass,0.0,0.0,0.0,1.0,10.0,0.05,0.05,0.15
