Name,Type,x,y,z,Time,Speed,Delta x,Delta y,Delta z
 ,Pass,58.980000000000004,139.78,30.295,1.0,10.0,0.05,0.05,0.15
Agulha,Pass,x_pl = 54.78,y_pl =155.91,z_pl = 30.275,tm = 1.0,spd = 10.0,dtx = 0.05,dty = 0.05,dtz = 0.15
 ,Pass,col_pitch = 0.00, , , , , , , 
 ,Pass,tm1 = 5.0,tm2 = 5.0,tm3 = 5.0,tm4 = 5.0,tm5 = 5.0,tm6 = 5.0,tm7 = 5.0,tm8 = 5.0
Calibrar,Pass,x_pl,y_pl + col_pitch*(0),z_pl - 0.3,tm,spd,dtx,dty,dtz
C_01,Pass,x_pl,y_pl + col_pitch*(0),z_pl,tm1,spd,dtx,dty,dtz
P_02,Pass,x_pl,y_pl + col_pitch*(1),z_pl,tm2,spd,dtx,dty,dtz
P_03,Pass,x_pl,y_pl + col_pitch*(2),z_pl,tm3,spd,dtx,dty,dtz
P_04,Pass,x_pl,y_pl + col_pitch*(3),z_pl,tm4,spd,dtx,dty,dtz
P_05,Pass,x_pl,y_pl + col_pitch*(4),z_pl,tm5,spd,dtx,dty,dtz
P_06,Pass,x_pl,y_pl + col_pitch*(5),z_pl,tm6,spd,dtx,dty,dtz
P_07,Pass,x_pl,y_pl + col_pitch*(6),z_pl,tm7,spd,dtx,dty,dtz
P_08,Pass,x_pl,y_pl + col_pitch*(7),z_pl,tm8,spd,dtx,dty,dtz
HOME,Pass,0.0,0.0,0.0,1.0,10.0,0.05,0.05,0.15
