Name,Type,x,y,z,Time,Speed,Delta x,Delta y,Delta z
 ,Pass,55.300000000000004,164.035,23.975,1.0,10.0,0.05,0.05,0.15
Caneta,Pass,x_pl = 52.56,y_pl = 109.715,z_pl = 29.015,tm = 1.0,spd = 10.0,dtx = 0.05,dty = 0.05,dtz = 0.15
 ,Pass,tm1 = 2.5, , , , , , , 
CALIBRAR,Pass,x_pl,y_pl,z_pl -10,tm,spd,dtx,dty,dtz
Fiducial_1,Pass,x_pl,y_pl,z_pl,tm1,spd,dtx,dty,dtz
Fiducial_2,Pass,x_pl - 0.500,y_pl - 13.000,z_pl,tm1,spd,dtx,dty,dtz
Fiducial_3,Pass,x_pl + 5.000,y_pl - 15.000,z_pl,tm1,spd,dtx,dty,dtz
HOME,Pass,0.0,0.0,0.0,1.0,10.0,0.05,0.05,0.15
