Name,Type,x,y,z,Time,Speed,Delta x,Delta y,Delta z
 ,Pass,54.845,135.615,31.0,1.0,10.0,0.05,0.05,0.15
Agulha_Pick,Pass,x_pi = 80.800,y_pi = 120.600 + (2.6)*0,z_pi = 31.020,tm = 1.0,spd = 10.0,dtx = 0.05,dty = 0.05,dtz = 0.15
 ,Pass,pi_lin = 0.25,pi_col = 0.5,zpa = z_pi - 0.200,tmpi = 1.0,spdpi =5.0, , , 
 ,Pass,pi_chi = 4.1,yi_ch = pi_chi,, , , , , 
Agulha_Pass,Pass,x_pl = 54.845,y_pl = 135.615,z_pl = 31.020,tmpl = 2.0,spdpl = 0.25, , , 
 ,Pass,pl_lin = 0.45,pl_col = 0.80,zpb = z_pl - 0.200, , , , , 
 ,Pass,pl_chi = 3.04,yl_ch = pl_chi,, , , , , 
CAL_Pick,Pass,x_pi,y_pi,z_pi - 0.5,tm,spd,dtx,dty,dtz
CAL_Pass,Pass,x_pl,y_pl,z_pl - 0.5,tm,spd,dtx,dty,dtz
CB_01,Pass,x_pi + pi_lin*(0),y_pi + pi_col*(0) + yi_ch*(0),zpa,tm,spd,dtx,dty,dtz
 ,Z Pass,x_pi + pi_lin*(0),y_pi + pi_col*(0) + yi_ch*(0),z_pi,tmpi,spdpi,dtx,dty,dtz
          Ch01-1,Pass,x_pl + pl_lin*(0),y_pl + pl_col*(0) + yl_ch*(0),zpb,tm,spd,dtx,dty,dtz
 ,Z Pass,x_pl + pl_lin*(0),y_pl + pl_col*(0) + yl_ch*(0),z_pl,tmpl,spdpl,dtx,dty,dtz
CB_02,Pass,x_pi + pi_lin*(0),y_pi + pi_col*(1) + yi_ch*(0),zpa,tm,spd,dtx,dty,dtz
 ,Z Pass,x_pi + pi_lin*(0),y_pi + pi_col*(1) + yi_ch*(0),z_pi,tmpi,spdpi,dtx,dty,dtz
          Ch01-2,Pass,x_pl + pl_lin*(0),y_pl + pl_col*(1) + yl_ch*(0),zpb,tm,spd,dtx,dty,dtz
 ,Z Pass,x_pl + pl_lin*(0),y_pl + pl_col*(1) + yl_ch*(0),z_pl,tmpl,spdpl,dtx,dty,dtz
CB_03,Pass,x_pi + pi_lin*(0),y_pi + pi_col*(2) + yi_ch*(0),zpa,tm,spd,dtx,dty,dtz
 ,Z Pass,x_pi + pi_lin*(0),y_pi + pi_col*(2) + yi_ch*(0),z_pi,tmpi,spdpi,dtx,dty,dtz
          Ch01-3,Pass,x_pl + pl_lin*(0),y_pl + pl_col*(2) + yl_ch*(0),zpb,tm,spd,dtx,dty,dtz
 ,Z Place,x_pl + pl_lin*(0),y_pl + pl_col*(2) + yl_ch*(0),z_pl,tmpl,spdpl,dtx,dty,dtz
CB_04,Pass,x_pi + pi_lin*(2),y_pi + pi_col*(0) + yi_ch*(0),zpa,tm,spd,dtx,dty,dtz
 ,Z Pass,x_pi + pi_lin*(2),y_pi + pi_col*(0) + yi_ch*(0),z_pi,tmpi,spdpi,dtx,dty,dtz
          Ch01-4,Pass,x_pl + pl_lin*(2),y_pl + pl_col*(0) + yl_ch*(0),zpb,tm,spd,dtx,dty,dtz
 ,Z Pass,x_pl + pl_lin*(2),y_pl + pl_col*(0) + yl_ch*(0),z_pl,tmpl,spdpl,dtx,dty,dtz
CB_05,Pass,x_pi + pi_lin*(2),y_pi + pi_col*(1) + yi_ch*(0),zpa,tm,spd,dtx,dty,dtz
 ,Z Pass,x_pi + pi_lin*(2),y_pi + pi_col*(1) + yi_ch*(0),z_pi,tmpi,spdpi,dtx,dty,dtz
          Ch01-5,Pass,x_pl + pl_lin*(2),y_pl + pl_col*(1) + yl_ch*(0),zpb,tm,spd,dtx,dty,dtz
 ,Z Pass,x_pl + pl_lin*(2),y_pl + pl_col*(1) + yl_ch*(0),z_pl,tmpl,spdpl,dtx,dty,dtz
CB_06,Pass,x_pi + pi_lin*(2),y_pi + pi_col*(2) + yi_ch*(0),zpa,tm,spd,dtx,dty,dtz
 ,Z Pass,x_pi + pi_lin*(2),y_pi + pi_col*(2) + yi_ch*(0),z_pi,tmpi,spdpi,dtx,dty,dtz
          Ch01-6,Pass,x_pl + pl_lin*(2),y_pl + pl_col*(2) + yl_ch*(0),zpb,tm,spd,dtx,dty,dtz
 ,Z Pass,x_pl + pl_lin*(2),y_pl + pl_col*(2) + yl_ch*(0),z_pl,tmpl,spdpl,dtx,dty,dtz
CB_07,Pass,x_pi + pi_lin*(0),y_pi + pi_col*(0) + yi_ch*(0),zpa,tm,spd,dtx,dty,dtz
 ,Z Pass,x_pi + pi_lin*(0),y_pi + pi_col*(0) + yi_ch*(0),z_pi,tmpi,spdpi,dtx,dty,dtz
          Ch02-1,Pass,x_pl + pl_lin*(0),y_pl + pl_col*(0) + yl_ch*(1),zpb,tm,spd,dtx,dty,dtz
 ,Z Pass,x_pl + pl_lin*(0),y_pl + pl_col*(0) + yl_ch*(1),z_pl,tmpl,spdpl,dtx,dty,dtz
CB_08,Pass,x_pi + pi_lin*(0),y_pi + pi_col*(1) + yi_ch*(0),zpa,tm,spd,dtx,dty,dtz
 ,Z Pass,x_pi + pi_lin*(0),y_pi + pi_col*(1) + yi_ch*(0),z_pi,tmpi,spdpi,dtx,dty,dtz
          Ch02-2,Pass,x_pl + pl_lin*(0),y_pl + pl_col*(1) + yl_ch*(1),zpb,tm,spd,dtx,dty,dtz
 ,Z Pass,x_pl + pl_lin*(0),y_pl + pl_col*(1) + yl_ch*(1),z_pl,tmpl,spdpl,dtx,dty,dtz
CB_09,Pass,x_pi + pi_lin*(0),y_pi + pi_col*(2) + yi_ch*(0),zpa,tm,spd,dtx,dty,dtz
 ,Z Pass,x_pi + pi_lin*(0),y_pi + pi_col*(2) + yi_ch*(0),z_pi,tmpi,spdpi,dtx,dty,dtz
          Ch02-3,Pass,x_pl + pl_lin*(0),y_pl + pl_col*(2) + yl_ch*(1),zpb,tm,spd,dtx,dty,dtz
 ,Z Pass,x_pl + pl_lin*(0),y_pl + pl_col*(2) + yl_ch*(1),z_pl,tmpl,spdpl,dtx,dty,dtz
CB_10,Pass,x_pi + pi_lin*(2),y_pi + pi_col*(0) + yi_ch*(0),zpa,tm,spd,dtx,dty,dtz
 ,Z Pass,x_pi + pi_lin*(2),y_pi + pi_col*(0) + yi_ch*(0),z_pi,tmpi,spdpi,dtx,dty,dtz
          Ch02-4,Pass,x_pl + pl_lin*(2),y_pl + pl_col*(0) + yl_ch*(1),zpb,tm,spd,dtx,dty,dtz
 ,Z Pass,x_pl + pl_lin*(2),y_pl + pl_col*(0) + yl_ch*(1),z_pl,tmpl,spdpl,dtx,dty,dtz
CB_11,Pass,x_pi + pi_lin*(2),y_pi + pi_col*(1) + yi_ch*(0),zpa,tm,spd,dtx,dty,dtz
 ,Z Pass,x_pi + pi_lin*(2),y_pi + pi_col*(1) + yi_ch*(0),z_pi,tmpi,spdpi,dtx,dty,dtz
          Ch02-5,Pass,x_pl + pl_lin*(2),y_pl + pl_col*(1) + yl_ch*(1),zpb,tm,spd,dtx,dty,dtz
 ,Z Pass,x_pl + pl_lin*(2),y_pl + pl_col*(1) + yl_ch*(1),z_pl,tmpl,spdpl,dtx,dty,dtz
CB_12,Pass,x_pi + pi_lin*(2),y_pi + pi_col*(2) + yi_ch*(0),zpa,tm,spd,dtx,dty,dtz
 ,Z Pass,x_pi + pi_lin*(2),y_pi + pi_col*(2) + yi_ch*(0),z_pi,tmpi,spdpi,dtx,dty,dtz
          Ch02-6,Pass,x_pl + pl_lin*(2),y_pl + pl_col*(2) + yl_ch*(1),zpb,tm,spd,dtx,dty,dtz
 ,Z Pass,x_pl + pl_lin*(2),y_pl + pl_col*(2) + yl_ch*(1),z_pl,tmpl,spdpl,dtx,dty,dtz
HOME,Pass,0.0,0.0,0.0,1.0,10.0,0.05,0.05,0.15
