Name,Type,x,y,z,Time,Speed,Delta x,Delta y,Delta z
 ,Pass,80.64,127.73,30.36,1.0,10.0,0.05,0.05,0.15
Agulha_Pick,Pass,x_pi = 80.640,y_pi = 125.46 + 2.50*(3),z_pi = 30.96,tm = 1.0,spd = 10.0,dtx = 0.05,dty = 0.05,dtz = 0.15
 ,Pass,pi_lin = 0.100,pi_col = 0.500,zzpi = 0.200,tmpi = 1.0,spdpi = 5.0, , , 
 ,Pass,pi_chi = 4.100,yi_ch = pi_chi,zpa = z_pi - zzpi, , , , , 
Agulha_Pass,Pass,x_pl = 42.79,y_pl = 135.215 + 3*(7),z_pl = 31.02,tmpl = 2.0,spdpl = 0.25, , , 
 ,Pass,pl_lin = 0.250,pl_col = 0.250,zzpl = 0.200, , , , , 
 ,Pass,pl_chi = 3.00,yl_ch = pl_chi,zpb = z_pl - zzpl, , , , , 
CAL_Pick,Pass,x_pi,y_pi,z_pi - 0.3,tm,spd,dtx,dty,dtz
CAL_Pass,Pass,x_pl,y_pl,z_pl - 0.3,tm,spd,dtx,dty,dtz
CB_01,Pass,x_pi + pi_lin*(0),y_pi + pi_col*(0) + yi_ch*(0),zpa,tm,spd,dtx,dty,dtz
 ,Z Pass,x_pi + pi_lin*(0),y_pi + pi_col*(0) + yi_ch*(0),z_pi,tmpi,spdpi,dtx,dty,dtz
         C01_p1,Pass,x_pl + pl_lin*(1.5),y_pl + pl_col*(0) + yl_ch*(0),zpb,tm,spd,dtx,dty,dtz
 ,Z Pass,x_pl + pl_lin*(1.5),y_pl + pl_col*(0) + yl_ch*(0),z_pl,tmpl,spdpl,dtx,dty,dtz
CB_02,Pass,x_pi + pi_lin*(0),y_pi + pi_col*(1) + yi_ch*(0),zpa,tm,spd,dtx,dty,dtz
 ,Z Pass,x_pi + pi_lin*(0),y_pi + pi_col*(1) + yi_ch*(0),z_pi,tmpi,spdpi,dtx,dty,dtz
         C01_p2,Pass,x_pl + pl_lin*(0.5),y_pl + pl_col*(0) + yl_ch*(0),zpb,tm,spd,dtx,dty,dtz
 ,Z Pass,x_pl + pl_lin*(0.5),y_pl + pl_col*(0) + yl_ch*(0),z_pl,tmpl,spdpl,dtx,dty,dtz
CB_03,Pass,x_pi + pi_lin*(0),y_pi + pi_col*(2) + yi_ch*(0),zpa,tm,spd,dtx,dty,dtz
 ,Z Pass,x_pi + pi_lin*(0),y_pi + pi_col*(2) + yi_ch*(0),z_pi,tmpi,spdpi,dtx,dty,dtz
         C01_p3,Pass,x_pl - pl_lin*(0.5),y_pl + pl_col*(0) + yl_ch*(0),zpb,tm,spd,dtx,dty,dtz
 ,Z Pass,x_pl - pl_lin*(0.5),y_pl + pl_col*(0) + yl_ch*(0),z_pl,tmpl,spdpl,dtx,dty,dtz
CB_04,Pass,x_pi + pi_lin*(1),y_pi + pi_col*(0) + yi_ch*(0),zpa,tm,spd,dtx,dty,dtz
 ,Z Pass,x_pi + pi_lin*(1),y_pi + pi_col*(0) + yi_ch*(0),z_pi,tmpi,spdpi,dtx,dty,dtz
         C01_p4,Pass,x_pl - pl_lin*(1.5),y_pl + pl_col*(0) + yl_ch*(0),zpb,tm,spd,dtx,dty,dtz
 ,Z Pass,x_pl - pl_lin*(1.5),y_pl + pl_col*(0) + yl_ch*(0),z_pl,tmpl,spdpl,dtx,dty,dtz
CB_05,Pass,x_pi + pi_lin*(1),y_pi + pi_col*(1) + yi_ch*(0),zpa,tm,spd,dtx,dty,dtz
 ,Z Pass,x_pi + pi_lin*(1),y_pi + pi_col*(1) + yi_ch*(0),z_pi,tmpi,spdpi,dtx,dty,dtz
         C01_p5,Pass,x_pl - pl_lin*(0),y_pl - pl_col*(1) + yl_ch*(0),zpb,tm,spd,dtx,dty,dtz
 ,Z Pass,x_pl - pl_lin*(0),y_pl - pl_col*(1) + yl_ch*(0),z_pl,tmpl,spdpl,dtx,dty,dtz
CB_06,Pass,x_pi + pi_lin*(1),y_pi + pi_col*(2) + yi_ch*(0),zpa,tm,spd,dtx,dty,dtz
 ,Z Pass,x_pi + pi_lin*(1),y_pi + pi_col*(2) + yi_ch*(0),z_pi,tmpi,spdpi,dtx,dty,dtz
         C01_p6,Pass,x_pl - pl_lin*(0),y_pl + pl_col*(1) + yl_ch*(0),zpb,tm,spd,dtx,dty,dtz
 ,Z Pass,x_pl - pl_lin*(0),y_pl + pl_col*(1) + yl_ch*(0),z_pl,tmpl,spdpl,dtx,dty,dtz
HOME,Pass,0.0,0.0,0.0,1.0,10.0,0.05,0.05,0.15
