Name,Type,x,y,z,Time,Speed,Delta x,Delta y,Delta z
 ,Pass,53.54,149.97,26.315,1.0,10.0,0.05,0.05,0.15
Agulha_Pick,Pass,x_pi = 80.600,y_pi = 117.900,z_pi = 31.020,tm = 1.0,spd = 10.0,dtx = 0.05,dty = 0.05,dtz = 0.15
 ,Pass,pi_lin = 0.50,pi_col = 0.5,zpa = z_pi - 0.200,tmpi = 1.0,spdpi =5.0, , , 
 ,Pass,pi_xx = 2.0,lin_pick = 1,xi_ch = pi_xx*2*(lin_pick -1), , , , , 
 ,Pass,pi_yy = 2.5,par_pick = 2,yi_ch = pi_yy*2*(par_pick -1), , , , , 
Agulha_Pass,Pass,x_pl = 53.540,y_pl = 149.97,z_pl = 26.375,tmpl = 2.0,spdpl = 0.25, , , 
 ,Pass,pl_lin = 0.5250,pl_col = 1.9436,zpb = z_pl - 0.200, , , , , 
 ,Pass,pl_xx = 5.00,lin_place = 1,xl_ch = pl_xx*(lin_place -1), , , , , 
 ,Pass,pl_yy = 3.00,par_place = 1,yl_ch = pl_yy*3*(par_place - 1), , , , , 
CAL_Pick,Pass,x_pi + pi_lin*(0) + xi_ch,y_pi + pi_col*(0) + pi_yy*(0) + yi_ch,z_pi - 0.3,tm,spd,dtx,dty,dtz
CAL_Pass,Pass,x_pl + pl_lin*(0) + xl_ch,y_pl + pl_col*(0) + pl_yy*(0) + yl_ch,z_pl - 0.5,tm,spd,dtx,dty,dtz
CB_11,Pass,x_pi + pi_lin*(0) + xi_ch,y_pi + pi_col*(0) + pi_yy*(0) + yi_ch,zpa,tm,spd,dtx,dty,dtz
   ,Z Pass,x_pi + pi_lin*(0) + xi_ch,y_pi + pi_col*(0) + pi_yy*(0) + yi_ch,z_pi,tmpi,spdpi,dtx,dty,dtz
          Cap01-1,Pass,x_pl - pl_lin*(0) + xl_ch,y_pl + pl_col*(0) + pl_yy*(0) + yl_ch,zpb,tm,spd,dtx,dty,dtz
               ,Z Pass,x_pl - pl_lin*(0) + xl_ch,y_pl + pl_col*(0) + pl_yy*(0) + yl_ch,z_pl,tmpl,spdpl,dtx,dty,dtz
CB_12,Pass,x_pi + pi_lin*(0) + xi_ch,y_pi + pi_col*(1) + pi_yy*(0) + yi_ch,zpa,tm,spd,dtx,dty,dtz
   ,Z Pass,x_pi + pi_lin*(0) + xi_ch,y_pi + pi_col*(1) + pi_yy*(0) + yi_ch,z_pi,tmpi,spdpi,dtx,dty,dtz
          Cap01-2,Pass,x_pl - pl_lin*(1) + xl_ch,y_pl + pl_col*(0) + pl_yy*(0) + yl_ch,zpb,tm,spd,dtx,dty,dtz
               ,Z Pass,x_pl - pl_lin*(1) + xl_ch,y_pl + pl_col*(0) + pl_yy*(0) + yl_ch,z_pl,tmpl,spdpl,dtx,dty,dtz
CB_13,Pass,x_pi + pi_lin*(0) + xi_ch,y_pi + pi_col*(2) + pi_yy*(0) + yi_ch,zpa,tm,spd,dtx,dty,dtz
   ,Z Pass,x_pi + pi_lin*(0) + xi_ch,y_pi + pi_col*(2) + pi_yy*(0) + yi_ch,z_pi,tmpi,spdpi,dtx,dty,dtz
          Cap01-3,Pass,x_pl - pl_lin*(2) + xl_ch,y_pl + pl_col*(0) + pl_yy*(0) + yl_ch,zpb,tm,spd,dtx,dty,dtz
              ,Z Place,x_pl - pl_lin*(2) + xl_ch,y_pl + pl_col*(0) + pl_yy*(0) + yl_ch,z_pl,tmpl,spdpl,dtx,dty,dtz
CB_14,Pass,x_pi + pi_lin*(1) + xi_ch,y_pi + pi_col*(0) + pi_yy*(0) + yi_ch,zpa,tm,spd,dtx,dty,dtz
   ,Z Pass,x_pi + pi_lin*(1) + xi_ch,y_pi + pi_col*(0) + pi_yy*(0) + yi_ch,z_pi,tmpi,spdpi,dtx,dty,dtz
          Cap01-4,Pass,x_pl - pl_lin*(0) + xl_ch,y_pl + pl_col*(1) + pl_yy*(0) + yl_ch,zpb,tm,spd,dtx,dty,dtz
               ,Z Pass,x_pl - pl_lin*(0) + xl_ch,y_pl + pl_col*(1) + pl_yy*(0) + yl_ch,z_pl,tmpl,spdpl,dtx,dty,dtz
CB_15,Pass,x_pi + pi_lin*(1) + xi_ch,y_pi + pi_col*(1) + pi_yy*(0) + yi_ch,zpa,tm,spd,dtx,dty,dtz
   ,Z Pass,x_pi + pi_lin*(1) + xi_ch,y_pi + pi_col*(1) + pi_yy*(0) + yi_ch,z_pi,tmpi,spdpi,dtx,dty,dtz
          Cap01-5,Pass,x_pl - pl_lin*(1) + xl_ch,y_pl + pl_col*(1) + pl_yy*(0) + yl_ch,zpb,tm,spd,dtx,dty,dtz
               ,Z Pass,x_pl - pl_lin*(1) + xl_ch,y_pl + pl_col*(1) + pl_yy*(0) + yl_ch,z_pl,tmpl,spdpl,dtx,dty,dtz
CB_16,Pass,x_pi + pi_lin*(1) + xi_ch,y_pi + pi_col*(2) + pi_yy*(0) + yi_ch,zpa,tm,spd,dtx,dty,dtz
   ,Z Pass,x_pi + pi_lin*(1) + xi_ch,y_pi + pi_col*(2) + pi_yy*(0) + yi_ch,z_pi,tmpi,spdpi,dtx,dty,dtz
          Cap01-6,Pass,x_pl - pl_lin*(2) + xl_ch,y_pl + pl_col*(1) + pl_yy*(0) + yl_ch,zpb,tm,spd,dtx,dty,dtz
              ,Z Place,x_pl - pl_lin*(2) + xl_ch,y_pl + pl_col*(1) + pl_yy*(0) + yl_ch,z_pl,tmpl,spdpl,dtx,dty,dtz
CB_21,Pass,x_pi + pi_lin*(0) + xi_ch,y_pi + pi_col*(0) + pi_yy*(1) + yi_ch,zpa,tm,spd,dtx,dty,dtz
   ,Z Pass,x_pi + pi_lin*(0) + xi_ch,y_pi + pi_col*(0) + pi_yy*(1) + yi_ch,z_pi,tmpi,spdpi,dtx,dty,dtz
          Cap02-1,Pass,x_pl - pl_lin*(0) + xl_ch,y_pl + pl_col*(0) + pl_yy*(1) + yl_ch,zpb,tm,spd,dtx,dty,dtz
               ,Z Pass,x_pl + pl_lin*(0) + xl_ch,y_pl + pl_col*(0) + pl_yy*(1) + yl_ch,z_pl,tmpl,spdpl,dtx,dty,dtz
CB_22,Pass,x_pi - pi_lin*(0) + xi_ch,y_pi + pi_col*(1) + pi_yy*(1) + yi_ch,zpa,tm,spd,dtx,dty,dtz
   ,Z Pass,x_pi + pi_lin*(0) + xi_ch,y_pi + pi_col*(1) + pi_yy*(1) + yi_ch,z_pi,tmpi,spdpi,dtx,dty,dtz
          Cap02-2,Pass,x_pl - pl_lin*(1) + xl_ch,y_pl + pl_col*(0) + pl_yy*(1) + yl_ch,zpb,tm,spd,dtx,dty,dtz
               ,Z Pass,x_pl - pl_lin*(1) + xl_ch,y_pl + pl_col*(0) + pl_yy*(1) + yl_ch,z_pl,tmpl,spdpl,dtx,dty,dtz
CB_23,Pass,x_pi + pi_lin*(0) + xi_ch,y_pi + pi_col*(2) + pi_yy*(1) + yi_ch,zpa,tm,spd,dtx,dty,dtz
   ,Z Pass,x_pi + pi_lin*(0) + xi_ch,y_pi + pi_col*(2) + pi_yy*(1) + yi_ch,z_pi,tmpi,spdpi,dtx,dty,dtz
          Cap02-3,Pass,x_pl - pl_lin*(2) + xl_ch,y_pl + pl_col*(0) + pl_yy*(1) + yl_ch,zpb,tm,spd,dtx,dty,dtz
              ,Z Place,x_pl - pl_lin*(2) + xl_ch,y_pl + pl_col*(0) + pl_yy*(1) + yl_ch,z_pl,tmpl,spdpl,dtx,dty,dtz
CB_24,Pass,x_pi + pi_lin*(1) + xi_ch,y_pi + pi_col*(0) + pi_yy*(1) + yi_ch,zpa,tm,spd,dtx,dty,dtz
   ,Z Pass,x_pi + pi_lin*(1) + xi_ch,y_pi + pi_col*(0) + pi_yy*(1) + yi_ch,z_pi,tmpi,spdpi,dtx,dty,dtz
          Cap02-4,Pass,x_pl - pl_lin*(0) + xl_ch,y_pl + pl_col*(1) + pl_yy*(1) + yl_ch,zpb,tm,spd,dtx,dty,dtz
               ,Z Pass,x_pl - pl_lin*(0) + xl_ch,y_pl + pl_col*(1) + pl_yy*(1) + yl_ch,z_pl,tmpl,spdpl,dtx,dty,dtz
CB_25,Pass,x_pi + pi_lin*(1) + xi_ch,y_pi + pi_col*(1) + pi_yy*(1) + yi_ch,zpa,tm,spd,dtx,dty,dtz
   ,Z Pass,x_pi + pi_lin*(1) + xi_ch,y_pi + pi_col*(1) + pi_yy*(1) + yi_ch,z_pi,tmpi,spdpi,dtx,dty,dtz
          Cap02-5,Pass,x_pl - pl_lin*(1) + xl_ch,y_pl + pl_col*(1) + pl_yy*(1) + yl_ch,zpb,tm,spd,dtx,dty,dtz
               ,Z Pass,x_pl - pl_lin*(1) + xl_ch,y_pl + pl_col*(1) + pl_yy*(1) + yl_ch,z_pl,tmpl,spdpl,dtx,dty,dtz
CB_26,Pass,x_pi + pi_lin*(1) + xi_ch,y_pi + pi_col*(2) + pi_yy*(1) + yi_ch,zpa,tm,spd,dtx,dty,dtz
   ,Z Pass,x_pi + pi_lin*(1) + xi_ch,y_pi + pi_col*(2) + pi_yy*(1) + yi_ch,z_pi,tmpi,spdpi,dtx,dty,dtz
          Cap02-6,Pass,x_pl - pl_lin*(2) + xl_ch,y_pl + pl_col*(1) + pl_yy*(1) + yl_ch,zpb,tm,spd,dtx,dty,dtz
              ,Z Place,x_pl - pl_lin*(2) + xl_ch,y_pl + pl_col*(1) + pl_yy*(1) + yl_ch,z_pl,tmpl,spdpl,dtx,dty,dtz
HOME,Pass,0.0,0.0,0.0,1.0,10.0,0.05,0.05,0.15
