Name,Type,x,y,z,Time,Speed,Delta x,Delta y,Delta z,Shift_x,Shift_y,Shift_z
 ,Pass,31.505,69.65,35.74,1.0,10.0,0.05,0.05,0.15
Agulha_Config,Pass,x_pl = 24.420,y_pl = 69.460,z_pl = 34.620,shiftx_pl = 0,shifty_pl = 7.27,shiftz_pl = 0,de_y = 0.70,
Ponto1_Config,Pass,P1x = x_pl,P1y = y_pl + de_y*(0),P1z = z_pl,tm1 = 0.05,spd1 = 10.0,dtx1 = 0.05,dty1 = 0.05,dtz1 = 0.15
Ponto2_Config,Pass,P2x = x_pl,P2y = y_pl + de_y*(1),P2z = z_pl,tm2 = 0.05,spd2 = 10.0,dtx2 = 0.05,dty2 = 0.05,dtz2 = 0.15
Ponto3_Config,Pass,P3x = x_pl,P3y = y_pl + de_y*(2),P3z = z_pl,tm3 = 0.05,spd3 = 10.0,dtx3 = 0.05,dty3 = 0.05,dtz3 = 0.15
Cal_Ponto1,Pass,P1x,P1y,P1z,tm1,spd1,dtx1,dty1,dtz1
Cal_Ponto3,Pass,P3x,P3y,P3z,tm3,spd3,dtx3,dty3,dtz3
TEC01_P1,Point Dispense,P1x,P1y,P1z,tm1,spd1,dtx1,dty1,dtz1
     _P2,Point Dispense,P2x,P2y,P2z,tm2,spd2,dtx2,dty2,dtz2
     _P3,Point Dispense,P3x,P3y,P3z,tm3,spd3,dtx3,dty3,dtz3
EXECUTE,Execute Program,0,0,0,1,10,0.05,0.05,0.15