Name,Type,x,y,z,Time,Speed,Delta x,Delta y,Delta z,Shift_x,Shift_y,Shift_z
 ,Pass,58.81,81.48,36.677,1.0,10.0,0.05,0.05,0.15,0,0,0.0
Cal,Pass,xs = 36.80 - (0.12),ys = 128.05 - (47.22),zs = 36.977,tm_ve = 0.1,10,0.15,sp_ho = 50.0,xx = 0.100,shiftx_pl = 2.40,shifty_pl = 3.10,
,Pass,1,1,1,tm_ho = 0.1,10,0.15,ydelta = 1.45,xdelta = 1.05,sp_ve = 37.00,,
Cal_1,Pass,xs,ys,zs - 0.3,1.0,10.0,0.05,0.05,0.15
Cal_2,Pass,xs,ys+ydelta,zs - 0.3,1.0,10.0,0.05,0.05,0.15
P(11) --> L1,Line Start,xs,ys,zs,tm_ho,sp_ho,0.05,0.05,0.15,,,
--> L1,Line End,xs,ys+ydelta,zs,tm_ho,sp_ho,0.05,0.05,0.15,,,
--> L2,Line Start,xs+xx,ys+ydelta,zs,tm_ve,sp_ve,0.05,0.05,0.15,,,
--> L2,Line End,xs+xdelta-xx,ys+ydelta,zs,tm_ve,sp_ve,0.05,0.05,0.15,,,
--> L3,Line Start,xs+xdelta,ys+ydelta,zs,tm_ho,sp_ho,0.05,0.05,0.15,,,
--> L3,Line End,xs+xdelta,ys,zs,tm_ho,sp_ho,0.05,0.05,0.15,,,
--> L4,Line Start,xs+xdelta-xx,ys,zs,tm_ve,sp_ve,0.05,0.05,0.15,,,
--> L4,Line End,xs+xx,ys,zs,tm_ve,sp_ve,0.05,0.05,0.15,,,
,Execute Program,0.0,0.0,0.0,1.0,10.0,0.05,0.05,0.15,,,
