Name,Type,x,y,z,Time,Speed,Delta x,Delta y,Delta z,Shift_x,Shift_y,Shift_z
Pick_Config,Pass,x_pi = 81.0,y_pi = 121.20 ,z_pi = 30.45,1.0,10.0,0.05,0.05,0.15,,,
GetPoint,Pass,81.0,128.01,30.23,1.0,10.0,0.05,0.05,0.15,,,
,Pass,xs =66.8,ys = 83,zs = 10.17,1.0,4,0.05,0.05,0.15,,,
Q1 : Q(1;1),Pass,Linha_i = 1,Coluna_j = 1,dtz1 = 0.3,1.0,10.0,0.05,0.05,0.15,,,
Q2 : Q(1;2),Pass,Linha_i = 1,Coluna_j = 2,spd = 10.0,1.0,10.0,0.05,0.05,0.15,,,
Q3 : Q(2;1),Pass,Linha_i = 2,Coluna_j = 1,spd1 = 10.0,1.0,10.0,0.05,0.05,0.15,,,
Q4 : Q(2;2),Pass,Linha_i = 2,Coluna_j = 2,spd2 = 0.25,1.0,10.0,0.05,0.05,0.15,,,
Pick,Pass,tm_pk0 = 0.1,tm_pk = 1.0,de_zz_pk = 0.10,1.0,10.0,0.05,0.05,0.15,,,
Pick,Pass,x_pi =81.0,y_pi = 121.20,z_pi = 29.63,,10.0,de_xx=0.17,de_yy=0.22,de_zz=0.10,shiftx_pi=4.10,shifty_pi=2.50,shiftz_pi=0
Cal_Pick,Pass,x_pi+shiftx_pi*(0),y_pi + shifty_pi*(0),z_pi - 0.3,1.0,10.0,0.12,0.12,0.15,,,
P1,Pick,x_pi,y_pi,z_pi,tm_pk,10.0,de_xx,de_yy,de_zz,,,
Reference,Pick,x_pi,y_pi,z_pi,0.1,10.0,de_xx,de_yy,de_zz,,,
Place,Pass,x_pl =36.80+(0.01),y_pl = 128.05+ (0.64),z_pl=30.70,tm_pl = 0.5,10.0,0.05,0.05,0.15,shiftx_pl=2.40,shifty_pl=3.10,shiftz_pl=0
Cal_Place,Pass,x_pl + shiftx_pl*(0),y_pl + shifty_pl*((0) + 4*0),z_pl - 0.5,1.0,10.0,0.12,0.12,0.15,,,
Move_Pl,Place,x_pl,y_pl,z_pl-0.3,1.0,10.0,0.0,0.0,0.0,,,
,Z Place,x_pl,y_pl,z_pl,tm_pl,spd2,de_xx,de_yy,de_zz,,,
