Name,Type,x,y,z,Time,Speed,Delta x,Delta y,Delta z
 ,Pass,35.18,70.31,35.385,1.0,10.0,0.05,0.05,0.15
AGULHA,Pass,x_pl_ms = 35.180,y_pl_ms =70.310,z_pl = 35.385,col_pitch = 7.27, , , , 
Config_MS_L1,Pass,L1xs_ms = x_pl_ms,L1y_ms = y_pl_ms,L1z_ms = z_pl,tm1_ms = 1.0,spd1_ms = 4,dtx = 0.05,dty = 0.05,dtz = 0.15
 ,Pass,L1xe_ms = x_pl_ms + 8.25,L1y_ms,L1z_ms, , , , , 
Config_MS_L2,Pass,L2xs_ms = x_pl_ms + 8.25,L2y_ms = y_pl_ms + 0.52,L2z_ms = z_pl - 0.03,tm2_ms = 1.0,spd2_ms = 3, , , 
 ,Pass,L2xe_ms = x_pl_ms,L2y_ms,L2z_ms, , , , , 
Config_MS_L3,Pass,L3xs_ms = x_pl_ms - 0.500,L3y_ms = y_pl_ms + (0.52)*2,L3z_ms = z_pl,tm3_ms = 1.0,spd3_ms = spd1_ms, , , 
 ,Pass,L3xe_ms = x_pl_ms + 8.25,L3y_ms,L3z_ms, , , , , 
CALIBRAR_AGULHA,Pass,x_pl_ms ,y_pl_ms ,z_pl-2,1,10,0.05,0.05,0.15
Secondary_S,Pass,x_pl_ss = x_pl_ms + 4.00,y_pl_ss = y_pl_ms + 2.250,z_pl, , , , , 
Config_SS_L1,Pass,L1xs_ss = x_pl_ss + 4.50,L1y_ss = y_pl_ss,L1z_ss = z_pl,tm1_ss = 1.0,spd1_ss = spd1_ms, , , 
 ,Pass,L1xe_ss = x_pl_ss,L1y_ss,L1z_ss, , , , , 
Config_SS_L2,Pass,L2xs_ss = x_pl_ss,L2y_ss = y_pl_ss + 0.300,L2z_ss = z_pl,tm2_ss = 1.0,spd2_ss = spd1_ms, , , 
 ,Pass,L2xe_ss = x_pl_ss + 4.50,L2y_ss,L2z_ss, , , , , 
Cal_SS,Pass,L1xs_ss,L1y_ss + col_pitch*(0),L1z_ss - 0.3,1,10,0.05,0.05,0.15
Reforço,Pass,x_pl_re = x_pl_ms + 9.140,y_pl_re = y_pl_ms - 0.400,z_pl,tm_re = 1.0,spd_re = spd1_ms, , , 
 ,Pass, ,y_en_re = y_pl_re + 4.40, , , , , , 
Cal_RE,Pass,x_pl_re,y_pl_re,z_pl - 0.3,tm_re,spd_re,dtx,dty,dtz
TEC01_MS_L1,Line Start,L1xs_ms,L1y_ms + col_pitch*(0),L1z_ms,tm1_ms,spd1_ms,dtx,dty,dtz
           _MS_L1,Line End,L1xe_ms,L1y_ms + col_pitch*(0),L1z_ms,tm1_ms,spd1_ms,dtx,dty,dtz
           _MS_L2,Line Start,L2xs_ms,L2y_ms + col_pitch*(0),L2z_ms,tm2_ms,spd2_ms,dtx,dty,dtz
           _MS_L2,Line End,L2xe_ms,L2y_ms + col_pitch*(0),L2z_ms,tm2_ms,spd2_ms,dtx,dty,dtz
           _MS_L3,Line Start,L3xs_ms,L3y_ms + col_pitch*(0),L3z_ms,tm3_ms,spd3_ms,dtx,dty,dtz
           _MS_L3,Line End,L3xe_ms,L3y_ms + col_pitch*(0),L3z_ms,tm3_ms,spd3_ms,dtx,dty,dtz
TEC01_SS_L1,Line Start,L1xs_ss,L1y_ss + col_pitch*(0),L1z_ss,tm1_ss,spd1_ss,dtx,dty,dtz
           _SS_L1,Line End,L1xe_ss ,L1y_ss + col_pitch*(0),L1z_ss,tm1_ss,spd1_ss,dtx,dty,dtz
           _SS_L2,Line Start,L2xs_ss,L2y_ss + col_pitch*(0),L2z_ss,tm2_ss,spd2_ss,dtx,dty,dtz
           _SS_L2,Line End,L2xe_ss,L2y_ss + col_pitch*(0),L2z_ss,tm2_ss,spd2_ss,dtx,dty,dtz
TEC01_RE_L1,Line Start,x_pl_re,y_pl_re+col_pitch*(0),z_pl,tm_re,spd_re,dtx,dty,dtz
           _RE_L1,Line End,x_pl_re,y_en_re+col_pitch*(0),z_pl,tm_re,spd_re,dtx,dty,dtz
TEC02_MS_L1,Line Start,L1xs_ms,L1y_ms + col_pitch*(1),L1z_ms,tm1_ms,spd1_ms,dtx,dty,dtz
           _MS_L1,Line End,L1xe_ms,L1y_ms + col_pitch*(1),L1z_ms,tm1_ms,spd1_ms,dtx,dty,dtz
           _MS_L2,Line Start,L2xs_ms,L2y_ms + col_pitch*(1),L2z_ms,tm2_ms,spd2_ms,dtx,dty,dtz
           _MS_L2,Line End,L2xe_ms,L2y_ms + col_pitch*(1),L2z_ms,tm2_ms,spd2_ms,dtx,dty,dtz
           _MS_L3,Line Start,L3xs_ms,L3y_ms + col_pitch*(1),L3z_ms,tm3_ms,spd3_ms,dtx,dty,dtz
           _MS_L3,Line End,L3xe_ms,L3y_ms + col_pitch*(1),L3z_ms,tm3_ms,spd3_ms,dtx,dty,dtz
TEC02_SS_L1s,Line Start,L1xs_ss,L1y_ss + col_pitch*(1),L1z_ss,tm1_ss,spd1_ss,dtx,dty,dtz
           _SS_L1,Line End,L1xe_ss ,L1y_ss + col_pitch*(1),L1z_ss,tm1_ss,spd1_ss,dtx,dty,dtz
           _SS_L2,Line Start,L2xs_ss,L2y_ss + col_pitch*(1),L2z_ss,tm2_ss,spd2_ss,dtx,dty,dtz
           _SS_L2,Line End,L2xe_ss,L2y_ss + col_pitch*(1),L2z_ss,tm2_ss,spd2_ss,dtx,dty,dtz
TEC02_RE_L1,Line Start,x_pl_re,y_pl_re+col_pitch*(1),z_pl,tm_re,spd_re,dtx,dty,dtz
           _RE_L1,Line End,x_pl_re,y_en_re+col_pitch*(1),z_pl,tm_re,spd_re,dtx,dty,dtz
TEC03_MS_L1,Line Start,L1xs_ms,L1y_ms + col_pitch*(2),L1z_ms,tm1_ms,spd1_ms,dtx,dty,dtz
           _MS_L1,Line End,L1xe_ms,L1y_ms + col_pitch*(2),L1z_ms,tm1_ms,spd1_ms,dtx,dty,dtz
           _MS_L2,Line Start,L2xs_ms,L2y_ms + col_pitch*(2),L2z_ms,tm2_ms,spd2_ms,dtx,dty,dtz
           _MS_L2,Line End,L2xe_ms,L2y_ms + col_pitch*(2),L2z_ms,tm2_ms,spd2_ms,dtx,dty,dtz
           _MS_L3,Line Start,L3xs_ms,L3y_ms + col_pitch*(2),L3z_ms,tm3_ms,spd3_ms,dtx,dty,dtz
           _MS_L3,Line End,L3xe_ms,L3y_ms + col_pitch*(2),L3z_ms,tm3_ms,spd3_ms,dtx,dty,dtz
TEC03_SS_L1,Line Start,L1xs_ss,L1y_ss + col_pitch*(2),L1z_ss,tm1_ss,spd1_ss,dtx,dty,dtz
           _SS_L1,Line End,L1xe_ss ,L1y_ss + col_pitch*(2),L1z_ss,tm1_ss,spd1_ss,dtx,dty,dtz
           _SS_L2,Line Start,L2xs_ss,L2y_ss + col_pitch*(2),L2z_ss,tm2_ss,spd2_ss,dtx,dty,dtz
           _SS_L2,Line End,L2xe_ss,L2y_ss + col_pitch*(2),L2z_ss,tm2_ss,spd2_ss,dtx,dty,dtz
TEC03_RE_L1,Line Start,x_pl_re,y_pl_re+col_pitch*(2),z_pl,tm_re,spd_re,dtx,dty,dtz
           _RE_L1,Line End,x_pl_re,y_en_re+col_pitch*(2),z_pl,tm_re,spd_re,dtx,dty,dtz
TEC04_MS_L1,Line Start,L1xs_ms,L1y_ms + col_pitch*(3),L1z_ms,tm1_ms,spd1_ms,dtx,dty,dtz
           _MS_L1,Line End,L1xe_ms,L1y_ms + col_pitch*(3),L1z_ms,tm1_ms,spd1_ms,dtx,dty,dtz
           _MS_L2,Line Start,L2xs_ms,L2y_ms + col_pitch*(3),L2z_ms,tm2_ms,spd2_ms,dtx,dty,dtz
           _MS_L2,Line End,L2xe_ms,L2y_ms + col_pitch*(3),L2z_ms,tm2_ms,spd2_ms,dtx,dty,dtz
           _MS_L3,Line Start,L3xs_ms,L3y_ms + col_pitch*(3),L3z_ms,tm3_ms,spd3_ms,dtx,dty,dtz
           _MS_L3,Line End,L3xe_ms,L3y_ms + col_pitch*(3),L3z_ms,tm3_ms,spd3_ms,dtx,dty,dtz
TEC04_SS_L1,Line Start,L1xs_ss,L1y_ss + col_pitch*(3),L1z_ss,tm1_ss,spd1_ss,dtx,dty,dtz
           _SS_L1,Line End,L1xe_ss ,L1y_ss + col_pitch*(3),L1z_ss,tm1_ss,spd1_ss,dtx,dty,dtz
           _SS_L2,Line Start,L2xs_ss,L2y_ss + col_pitch*(3),L2z_ss,tm2_ss,spd2_ss,dtx,dty,dtz
           _SS_L2,Line End,L2xe_ss,L2y_ss + col_pitch*(3),L2z_ss,tm2_ss,spd2_ss,dtx,dty,dtz
TEC04_RE_L1,Line Start,x_pl_re,y_pl_re+col_pitch*(3),z_pl,tm_re,spd_re,dtx,dty,dtz
           _RE_L1,Line End,x_pl_re,y_en_re+col_pitch*(3),z_pl,tm_re,spd_re,dtx,dty,dtz
TEC05_MS_L1,Line Start,L1xs_ms,L1y_ms + col_pitch*(4),L1z_ms,tm1_ms,spd1_ms,dtx,dty,dtz
           _MS_L1,Line End,L1xe_ms,L1y_ms + col_pitch*(4),L1z_ms,tm1_ms,spd1_ms,dtx,dty,dtz
           _MS_L2,Line Start,L2xs_ms,L2y_ms + col_pitch*(4),L2z_ms,tm2_ms,spd2_ms,dtx,dty,dtz
           _MS_L2,Line End,L2xe_ms,L2y_ms + col_pitch*(4),L2z_ms,tm2_ms,spd2_ms,dtx,dty,dtz
           _MS_L3,Line Start,L3xs_ms,L3y_ms + col_pitch*(4),L3z_ms,tm3_ms,spd3_ms,dtx,dty,dtz
           _MS_L3,Line End,L3xe_ms,L3y_ms + col_pitch*(4),L3z_ms,tm3_ms,spd3_ms,dtx,dty,dtz
TEC05_SS_L1,Line Start,L1xs_ss,L1y_ss + col_pitch*(4),L1z_ss,tm1_ss,spd1_ss,dtx,dty,dtz
           _SS_L1,Line End,L1xe_ss ,L1y_ss + col_pitch*(4),L1z_ss,tm1_ss,spd1_ss,dtx,dty,dtz
           _SS_L2,Line Start,L2xs_ss,L2y_ss + col_pitch*(4),L2z_ss,tm2_ss,spd2_ss,dtx,dty,dtz
           _SS_L2,Line End,L2xe_ss,L2y_ss + col_pitch*(4),L2z_ss,tm2_ss,spd2_ss,dtx,dty,dtz
TEC05_RE_L1,Line Start,x_pl_re,y_pl_re+col_pitch*(4),z_pl,tm_re,spd_re,dtx,dty,dtz
           _RE_L1,Line End,x_pl_re,y_en_re+col_pitch*(4),z_pl,tm_re,spd_re,dtx,dty,dtz
TEC06_MS_L1,Line Start,L1xs_ms,L1y_ms + col_pitch*(5),L1z_ms,tm1_ms,spd1_ms,dtx,dty,dtz
           _MS_L1,Line End,L1xe_ms,L1y_ms + col_pitch*(5),L1z_ms,tm1_ms,spd1_ms,dtx,dty,dtz
           _MS_L2,Line Start,L2xs_ms,L2y_ms + col_pitch*(5),L2z_ms,tm2_ms,spd2_ms,dtx,dty,dtz
           _MS_L2,Line End,L2xe_ms,L2y_ms + col_pitch*(5),L2z_ms,tm2_ms,spd2_ms,dtx,dty,dtz
           _MS_L3,Line Start,L3xs_ms,L3y_ms + col_pitch*(5),L3z_ms,tm3_ms,spd3_ms,dtx,dty,dtz
           _MS_L3,Line End,L3xe_ms,L3y_ms + col_pitch*(5),L3z_ms,tm3_ms,spd3_ms,dtx,dty,dtz
TEC06_SS_L1,Line Start,L1xs_ss,L1y_ss + col_pitch*(5),L1z_ss,tm1_ss,spd1_ss,dtx,dty,dtz
           _SS_L1,Line End,L1xe_ss ,L1y_ss + col_pitch*(5),L1z_ss,tm1_ss,spd1_ss,dtx,dty,dtz
           _SS_L2,Line Start,L2xs_ss,L2y_ss + col_pitch*(5),L2z_ss,tm2_ss,spd2_ss,dtx,dty,dtz
           _SS_L2,Line End,L2xe_ss,L2y_ss + col_pitch*(5),L2z_ss,tm2_ss,spd2_ss,dtx,dty,dtz
TEC06_RE_L1,Line Start,x_pl_re,y_pl_re+col_pitch*(5),z_pl,tm_re,spd_re,dtx,dty,dtz
           _RE_L1,Line End,x_pl_re,y_en_re+col_pitch*(5),z_pl,tm_re,spd_re,dtx,dty,dtz
TEC07_MS_L1,Line Start,L1xs_ms,L1y_ms + col_pitch*(6),L1z_ms,tm1_ms,spd1_ms,dtx,dty,dtz
           _MS_L1,Line End,L1xe_ms,L1y_ms + col_pitch*(6),L1z_ms,tm1_ms,spd1_ms,dtx,dty,dtz
           _MS_L2,Line Start,L2xs_ms,L2y_ms + col_pitch*(6),L2z_ms,tm2_ms,spd2_ms,dtx,dty,dtz
           _MS_L2,Line End,L2xe_ms,L2y_ms + col_pitch*(6),L2z_ms,tm2_ms,spd2_ms,dtx,dty,dtz
           _MS_L3,Line Start,L3xs_ms,L3y_ms + col_pitch*(6),L3z_ms,tm3_ms,spd3_ms,dtx,dty,dtz
           _MS_L3,Line End,L3xe_ms,L3y_ms + col_pitch*(6),L3z_ms,tm3_ms,spd3_ms,dtx,dty,dtz
TEC07_SS_L1,Line Start,L1xs_ss,L1y_ss + col_pitch*(6),L1z_ss,tm1_ss,spd1_ss,dtx,dty,dtz
           _SS_L1,Line End,L1xe_ss ,L1y_ss + col_pitch*(6),L1z_ss,tm1_ss,spd1_ss,dtx,dty,dtz
           _SS_L2,Line Start,L2xs_ss,L2y_ss + col_pitch*(6),L2z_ss,tm2_ss,spd2_ss,dtx,dty,dtz
           _SS_L2,Line End,L2xe_ss,L2y_ss + col_pitch*(6),L2z_ss,tm2_ss,spd2_ss,dtx,dty,dtz
TEC07_RE_L1,Line Start,x_pl_re,y_pl_re+col_pitch*(6),z_pl,tm_re,spd_re,dtx,dty,dtz
           _RE_L1,Line End,x_pl_re,y_en_re+col_pitch*(6),z_pl,tm_re,spd_re,dtx,dty,dtz
TEC08_MS_L1,Line Start,L1xs_ms,L1y_ms + col_pitch*(7),L1z_ms,tm1_ms,spd1_ms,dtx,dty,dtz
           _MS_L1,Line End,L1xe_ms,L1y_ms + col_pitch*(7),L1z_ms,tm1_ms,spd1_ms,dtx,dty,dtz
           _MS_L2,Line Start,L2xs_ms,L2y_ms + col_pitch*(7),L2z_ms,tm2_ms,spd2_ms,dtx,dty,dtz
           _MS_L2,Line End,L2xe_ms,L2y_ms + col_pitch*(7),L2z_ms,tm2_ms,spd2_ms,dtx,dty,dtz
           _MS_L3,Line Start,L3xs_ms,L3y_ms + col_pitch*(7),L3z_ms,tm3_ms,spd3_ms,dtx,dty,dtz
           _MS_L3,Line End,L3xe_ms,L3y_ms + col_pitch*(7),L3z_ms,tm3_ms,spd3_ms,dtx,dty,dtz
TEC08_SS_L1,Line Start,L1xs_ss,L1y_ss + col_pitch*(7),L1z_ss,tm1_ss,spd1_ss,dtx,dty,dtz
           _SS_L1,Line End,L1xe_ss ,L1y_ss + col_pitch*(7),L1z_ss,tm1_ss,spd1_ss,dtx,dty,dtz
           _SS_L2,Line Start,L2xs_ss,L2y_ss + col_pitch*(7),L2z_ss,tm2_ss,spd2_ss,dtx,dty,dtz
           _SS_L2,Line End,L2xe_ss,L2y_ss + col_pitch*(7),L2z_ss,tm2_ss,spd2_ss,dtx,dty,dtz
TEC08_RE_L1,Line Start,x_pl_re,y_pl_re+col_pitch*(7),z_pl,tm_re,spd_re,dtx,dty,dtz
           _RE_L1,Line End,x_pl_re,y_en_re+col_pitch*(7),z_pl,tm_re,spd_re,dtx,dty,dtz
TEC09_MS_L1,Line Start,L1xs_ms,L1y_ms + col_pitch*(8),L1z_ms,tm1_ms,spd1_ms,dtx,dty,dtz
           _MS_L1,Line End,L1xe_ms,L1y_ms + col_pitch*(8),L1z_ms,tm1_ms,spd1_ms,dtx,dty,dtz
           _MS_L2,Line Start,L2xs_ms,L2y_ms + col_pitch*(8),L2z_ms,tm2_ms,spd2_ms,dtx,dty,dtz
           _MS_L2,Line End,L2xe_ms,L2y_ms + col_pitch*(8),L2z_ms,tm2_ms,spd2_ms,dtx,dty,dtz
           _MS_L3,Line Start,L3xs_ms,L3y_ms + col_pitch*(8),L3z_ms,tm3_ms,spd3_ms,dtx,dty,dtz
           _MS_L3,Line End,L3xe_ms,L3y_ms + col_pitch*(8),L3z_ms,tm3_ms,spd3_ms,dtx,dty,dtz
TEC09_SS_L1,Line Start,L1xs_ss,L1y_ss + col_pitch*(8),L1z_ss,tm1_ss,spd1_ss,dtx,dty,dtz
           _SS_L1,Line End,L1xe_ss ,L1y_ss + col_pitch*(8),L1z_ss,tm1_ss,spd1_ss,dtx,dty,dtz
           _SS_L2,Line Start,L2xs_ss,L2y_ss + col_pitch*(8),L2z_ss,tm2_ss,spd2_ss,dtx,dty,dtz
           _SS_L2,Line End,L2xe_ss,L2y_ss + col_pitch*(8),L2z_ss,tm2_ss,spd2_ss,dtx,dty,dtz
TEC09_RE_L1,Line Start,x_pl_re,y_pl_re+col_pitch*(8),z_pl,tm_re,spd_re,dtx,dty,dtz
           _RE_L1,Line End,x_pl_re,y_en_re+col_pitch*(8),z_pl,tm_re,spd_re,dtx,dty,dtz
TEC10_MS_L1,Line Start,L1xs_ms,L1y_ms + col_pitch*(9),L1z_ms,tm1_ms,spd1_ms,dtx,dty,dtz
           _MS_L1,Line End,L1xe_ms,L1y_ms + col_pitch*(9),L1z_ms,tm1_ms,spd1_ms,dtx,dty,dtz
           _MS_L2,Line Start,L2xs_ms,L2y_ms + col_pitch*(9),L2z_ms,tm2_ms,spd2_ms,dtx,dty,dtz
           _MS_L2,Line End,L2xe_ms,L2y_ms + col_pitch*(9),L2z_ms,tm2_ms,spd2_ms,dtx,dty,dtz
           _MS_L3,Line Start,L3xs_ms,L3y_ms + col_pitch*(9),L3z_ms,tm3_ms,spd3_ms,dtx,dty,dtz
           _MS_L3,Line End,L3xe_ms,L3y_ms + col_pitch*(9),L3z_ms,tm3_ms,spd3_ms,dtx,dty,dtz
TEC10_SS_L1,Line Start,L1xs_ss,L1y_ss + col_pitch*(9),L1z_ss,tm1_ss,spd1_ss,dtx,dty,dtz
           _SS_L1,Line End,L1xe_ss ,L1y_ss + col_pitch*(9),L1z_ss,tm1_ss,spd1_ss,dtx,dty,dtz
           _SS_L2,Line Start,L2xs_ss,L2y_ss + col_pitch*(9),L2z_ss,tm2_ss,spd2_ss,dtx,dty,dtz
           _SS_L2,Line End,L2xe_ss,L2y_ss + col_pitch*(9),L2z_ss,tm2_ss,spd2_ss,dtx,dty,dtz
TEC10_RE_L1,Line Start,x_pl_re,y_pl_re+col_pitch*(9),z_pl,tm_re,spd_re,dtx,dty,dtz
           _RE_L1,Line End,x_pl_re,y_en_re+col_pitch*(9),z_pl,tm_re,spd_re,dtx,dty,dtz
EXECUTE,Execute Program,0,0,0,1,10,0.05,0.05,0.15
