Name,Type,x,y,z,Time,Speed,Delta x,Delta y,Delta z
 ,Pass,27.88,71.64,34.660000000000004,1.0,10.0,0.05,0.05,0.15
Agulha,Pass,x_pl = 27.880,y_pl = 70.260,z_pl = 34.680,tm = 0.08,spd = 9.0,0.05,0.05,0.15
 ,Pass,col_pitch = 7.27,ydelta = 0.70, , , , , , 
CALIBRAR_P1,Pass,x_pl,y_pl + col_pitch*0,z_pl -1,tm,spd,0.05,0.05,0.15
CALIBRAR_P3,Pass,x_pl,y_pl + ydelta*2 + col_pitch*0,z_pl - 1,tm,spd,0.05,0.05,0.15
TEC01_P1,Point Dispense,x_pl,y_pl + col_pitch*0,z_pl,tm,spd,0.05,0.05,0.15
           _P2,Point Dispense,x_pl,y_pl + ydelta + col_pitch*0,z_pl,tm,spd,0.05,0.05,0.15
           _P3,Point Dispense,x_pl,y_pl + ydelta*2 + col_pitch*0,z_pl,tm,spd,0.05,0.05,0.15
TEC02_P1,Point Dispense,x_pl,y_pl + col_pitch*1,z_pl,tm,spd,0.05,0.05,0.15
           _P2,Point Dispense,x_pl,y_pl + ydelta + col_pitch*1,z_pl,tm,spd,0.05,0.05,0.15
           _P3,Point Dispense,x_pl,y_pl + ydelta*2 + col_pitch*1,z_pl,tm,spd,0.05,0.05,0.15
TEC03_P1,Point Dispense,x_pl,y_pl + col_pitch*2,z_pl,tm,spd,0.05,0.05,0.15
           _P2,Point Dispense,x_pl,y_pl + ydelta + col_pitch*2,z_pl,tm,spd,0.05,0.05,0.15
           _P3,Point Dispense,x_pl,y_pl + ydelta*2 + col_pitch*2,z_pl,tm,spd,0.05,0.05,0.15
TEC04_P1,Point Dispense,x_pl,y_pl + col_pitch*3,z_pl,tm,spd,0.05,0.05,0.15
           _P2,Point Dispense,x_pl,y_pl + ydelta + col_pitch*3,z_pl,tm,spd,0.05,0.05,0.15
           _P3,Point Dispense,x_pl,y_pl + ydelta*2 + col_pitch*3,z_pl,tm,spd,0.05,0.05,0.15
TEC05_P1,Point Dispense,x_pl,y_pl + col_pitch*4,z_pl,tm,spd,0.05,0.05,0.15
           _P2,Point Dispense,x_pl,y_pl + ydelta + col_pitch*4,z_pl,tm,spd,0.05,0.05,0.15
           _P3,Point Dispense,x_pl,y_pl + ydelta*2 + col_pitch*4,z_pl,tm,spd,0.05,0.05,0.15
TEC06_P1,Point Dispense,x_pl,y_pl + col_pitch*5,z_pl,tm,spd,0.05,0.05,0.15
           _P2,Point Dispense,x_pl,y_pl + ydelta + col_pitch*5,z_pl,tm,spd,0.05,0.05,0.15
           _P3,Point Dispense,x_pl,y_pl + ydelta*2 + col_pitch*5,z_pl,tm,spd,0.05,0.05,0.15
TEC07_P1,Point Dispense,x_pl,y_pl + col_pitch*6,z_pl,tm,spd,0.05,0.05,0.15
           _P2,Point Dispense,x_pl,y_pl + ydelta + col_pitch*6,z_pl,tm,spd,0.05,0.05,0.15
           _P3,Point Dispense,x_pl,y_pl + ydelta*2 + col_pitch*6,z_pl,tm,spd,0.05,0.05,0.15
TEC08_P1,Point Dispense,x_pl,y_pl + col_pitch*7,z_pl,tm,spd,0.05,0.05,0.15
           _P2,Point Dispense,x_pl,y_pl + ydelta + col_pitch*7,z_pl,tm,spd,0.05,0.05,0.15
           _P3,Point Dispense,x_pl,y_pl + ydelta*2 + col_pitch*7,z_pl,tm,spd,0.05,0.05,0.15
TEC09_P1,Point Dispense,x_pl,y_pl + col_pitch*8,z_pl,tm,spd,0.05,0.05,0.15
           _P2,Point Dispense,x_pl,y_pl + ydelta + col_pitch*8,z_pl,tm,spd,0.05,0.05,0.15
           _P3,Point Dispense,x_pl,y_pl + ydelta*2 + col_pitch*8,z_pl,tm,spd,0.05,0.05,0.15
TEC10_P1,Point Dispense,x_pl,y_pl + col_pitch*9,z_pl,tm,spd,0.05,0.05,0.15
           _P2,Point Dispense,x_pl,y_pl + ydelta + col_pitch*9,z_pl,tm,spd,0.05,0.05,0.15
           _P3,Point Dispense,x_pl,y_pl + ydelta*2 + col_pitch*9,z_pl,tm,spd,0.05,0.05,0.15
EXECUTE,Execute Program,0,0,0,1,10,0.05,0.05,0.15
