Name,Type,x,y,z,Time,Speed,Delta x,Delta y,Delta z
 ,Pass,108.95,35.800000000000004,22.57,1.0,10.0,0.05,0.05,0.15
Pick_Config,Pass,xp=80.42,yp=33.80,zp = 22.82,1.0,10.0,0.05,0.05,0.15
Pk,Pass,lin_pk_pitch = 2.2-0.0053,col_pk_pitch = 2.2,COL_PICK = 2,1.0,10.0,0.05,0.05,0.15
Pk,Pass,lin_pk =1,col_pk = COL_PICK,,1.0,10.0,0.05,0.05,0.15
Pk,Pass,tm_pk=1.0,spd_pk=10.0,,1.0,10.0,0.05,0.05,0.15
Place_Config,Pass,xx = 36.15,yy = 147.7650,zz = 31.11 ,1.0,10.0,0.05,0.05,0.15
Pl,Pass,lin_pl_pitch =1.70,col_pl_pitch=10.00,COL_PLACE = 1,1.0,10.0,0.05,0.05,0.15
Pl,Pass,col_pl = COL_PLACE,Dy_pl=0.05,Dz_pl=0.15,1.0,10.0,0.05,0.05,0.15
Pl,Pass,zz_ET1 = 0.4,zz_ET2 = 0.4,zz_PS = 1.4,1.0,10.0,0.05,0.05,0.15
Cal_Pick P1,Pass,xp+lin_pk_pitch*0,yp+col_pk_pitch*(col_pk-1),zp-0.3,1.0,10.0,0.15,0.2,0.25
Cal_Pick P20,Pass,xp+lin_pk_pitch*19,yp+col_pk_pitch*(col_pk-1),zp-0.3,1.0,10.0,0.15,0.2,0.25
Cal_Pass,Pass,xx,yy+col_pl_pitch*(col_pl-1),zz-0.3,1.0,10.0,0.15,0.2,0.25
P1,Pick,xp+lin_pk_pitch*0,yp+col_pk_pitch*(col_pk-1),zp,1.0,10.0,0.1,0.1,0.25
,Place,xx+lin_pl_pitch*0,yy+col_pl_pitch*(col_pl-1),zz,4.0,10.0,0.1,0.1,0.15
P2,Pick,xp+lin_pk_pitch*1,yp+col_pk_pitch*(col_pk-1),zp,1.0,10.0,0.1,0.1,0.25
,Place,xx+lin_pl_pitch*1,yy+col_pl_pitch*(col_pl-1),zz,4.0,10.0,0.1,0.1,0.15
P3,Pick,xp+lin_pk_pitch*2,yp+col_pk_pitch*(col_pk-1),zp,1.0,10.0,0.1,0.1,0.25
,Place,xx+lin_pl_pitch*2,yy+col_pl_pitch*(col_pl-1),zz,4.0,10.0,0.1,0.1,0.15
P4,Pick,xp+lin_pk_pitch*3,yp+col_pk_pitch*(col_pk-1),zp,1.0,10.0,0.1,0.1,0.25
,Place,xx+lin_pl_pitch*3,yy+col_pl_pitch*(col_pl-1),zz,4.0,10.0,0.1,0.1,0.15
P5,Pick,xp+lin_pk_pitch*4,yp+col_pk_pitch*(col_pk-1),zp,1.0,10.0,0.1,0.1,0.25
,Place,xx+lin_pl_pitch*4,yy+col_pl_pitch*(col_pl-1),zz,4.0,10.0,0.1,0.1,0.15
P6,Pick,xp+lin_pk_pitch*5,yp+col_pk_pitch*(col_pk-1),zp,1.0,10.0,0.1,0.1,0.25
,Place,xx+lin_pl_pitch*5,yy+col_pl_pitch*(col_pl-1),zz,4.0,10.0,0.1,0.1,0.15
P7,Pick,xp+lin_pk_pitch*6,yp+col_pk_pitch*(col_pk-1),zp,1.0,10.0,0.1,0.1,0.25
,Place,xx+lin_pl_pitch*6,yy+col_pl_pitch*(col_pl-1),zz,4.0,10.0,0.1,0.1,0.15
P8,Pick,xp+lin_pk_pitch*7,yp+col_pk_pitch*(col_pk-1),zp,1.0,10.0,0.1,0.1,0.25
,Place,xx+lin_pl_pitch*7,yy+col_pl_pitch*(col_pl-1),zz,4.0,10.0,0.1,0.1,0.15
P9,Pick,xp+lin_pk_pitch*8,yp+col_pk_pitch*(col_pk-1),zp,1.0,10.0,0.1,0.1,0.25
,Place,xx+lin_pl_pitch*8,yy+col_pl_pitch*(col_pl-1),zz,4.0,10.0,0.1,0.1,0.15
P10,Pick,xp+lin_pk_pitch*9,yp+col_pk_pitch*(col_pk-1),zp,1.0,10.0,0.1,0.1,0.25
,Place,xx+lin_pl_pitch*9,yy+col_pl_pitch*(col_pl-1),zz,4.0,10.0,0.1,0.1,0.15
P11,Pick,xp+lin_pk_pitch*10,yp+col_pk_pitch*(col_pk-1),zp,1.0,10.0,0.1,0.1,0.25
,Place,xx+lin_pl_pitch*10,yy+col_pl_pitch*(col_pl-1),zz,4.0,10.0,0.1,0.1,0.15
P12,Pick,xp+lin_pk_pitch*11,yp+col_pk_pitch*(col_pk-1),zp-0.1,1.0,10.0,0.1,0.1,0.25
,Place,xx+lin_pl_pitch*11,yy+col_pl_pitch*(col_pl-1),zz,4.0,10.0,0.1,0.1,0.15
P13,Pick,xp+lin_pk_pitch*12,yp+col_pk_pitch*(col_pk-1),zp,1.0,10.0,0.1,0.1,0.25
,Place,xx+lin_pl_pitch*12,yy+col_pl_pitch*(col_pl-1),zz,4.0,10.0,0.1,0.1,0.15
P14,Pick,xp+lin_pk_pitch*13,yp+col_pk_pitch*(col_pk-1),zp,1.0,10.0,0.1,0.1,0.25
,Place,xx+lin_pl_pitch*13,yy+col_pl_pitch*(col_pl-1),zz,4.0,10.0,0.1,0.1,0.15
P15,Pick,xp+lin_pk_pitch*14,yp+col_pk_pitch*(col_pk-1),zp,1.0,10.0,0.1,0.1,0.25
,Place,xx+lin_pl_pitch*14,yy+col_pl_pitch*(col_pl-1),zz,4.0,10.0,0.1,0.1,0.15
P16,Pick,xp+lin_pk_pitch*15,yp+col_pk_pitch*(col_pk-1),zp,1.0,10.0,0.1,0.1,0.25
,Place,xx+lin_pl_pitch*15,yy+col_pl_pitch*(col_pl-1),zz,4.0,10.0,0.1,0.1,0.15
P17,Pick,xp+lin_pk_pitch*16,yp+col_pk_pitch*(col_pk-1),zp,1.0,10.0,0.1,0.1,0.25
,Place,xx+lin_pl_pitch*16,yy+col_pl_pitch*(col_pl-1),zz,4.0,10.0,0.1,0.1,0.15
P18,Pick,xp+lin_pk_pitch*17,yp+col_pk_pitch*(col_pk-1),zp,1.0,10.0,0.1,0.1,0.25
,Place,xx+lin_pl_pitch*17,yy+col_pl_pitch*(col_pl-1),zz,4.0,10.0,0.1,0.1,0.15
P19,Pick,xp+lin_pk_pitch*18,yp+col_pk_pitch*(col_pk-1),zp,1.0,10.0,0.1,0.1,0.25
,Place,xx+lin_pl_pitch*18,yy+col_pl_pitch*(col_pl-1),zz,4.0,10.0,0.1,0.1,0.15
P20,Pick,xp+lin_pk_pitch*19,yp+col_pk_pitch*(col_pk-1),zp,1.0,10.0,0.1,0.1,0.25
,Place,xx+lin_pl_pitch*19,yy+col_pl_pitch*(col_pl-1),zz,4.0,10.0,0.1,0.1,0.15
Home,Pass,0,0,0,1.0,10.0,0.05,0.05,0.15
